%!PS-Adobe-3.0 EPSF-3.0
%%Creator: cairo 1.13.1 (http://cairographics.org)
%%CreationDate: Wed Aug 10 16:08:01 2016
%%Pages: 1
%%DocumentData: Clean7Bit
%%LanguageLevel: 2
%%BoundingBox: 0 -1 513 394
%%EndComments
%%BeginProlog
save
50 dict begin
/q { gsave } bind def
/Q { grestore } bind def
/cm { 6 array astore concat } bind def
/w { setlinewidth } bind def
/J { setlinecap } bind def
/j { setlinejoin } bind def
/M { setmiterlimit } bind def
/d { setdash } bind def
/m { moveto } bind def
/l { lineto } bind def
/c { curveto } bind def
/h { closepath } bind def
/re { exch dup neg 3 1 roll 5 3 roll moveto 0 rlineto
      0 exch rlineto 0 rlineto closepath } bind def
/S { stroke } bind def
/f { fill } bind def
/f* { eofill } bind def
/n { newpath } bind def
/W { clip } bind def
/W* { eoclip } bind def
/BT { } bind def
/ET { } bind def
/pdfmark where { pop globaldict /?pdfmark /exec load put }
    { globaldict begin /?pdfmark /pop load def /pdfmark
    /cleartomark load def end } ifelse
/BDC { mark 3 1 roll /BDC pdfmark } bind def
/EMC { mark /EMC pdfmark } bind def
/cairo_store_point { /cairo_point_y exch def /cairo_point_x exch def } def
/Tj { show currentpoint cairo_store_point } bind def
/TJ {
  {
    dup
    type /stringtype eq
    { show } { -0.001 mul 0 cairo_font_matrix dtransform rmoveto } ifelse
  } forall
  currentpoint cairo_store_point
} bind def
/cairo_selectfont { cairo_font_matrix aload pop pop pop 0 0 6 array astore
    cairo_font exch selectfont cairo_point_x cairo_point_y moveto } bind def
/Tf { pop /cairo_font exch def /cairo_font_matrix where
      { pop cairo_selectfont } if } bind def
/Td { matrix translate cairo_font_matrix matrix concatmatrix dup
      /cairo_font_matrix exch def dup 4 get exch 5 get cairo_store_point
      /cairo_font where { pop cairo_selectfont } if } bind def
/Tm { 2 copy 8 2 roll 6 array astore /cairo_font_matrix exch def
      cairo_store_point /cairo_font where { pop cairo_selectfont } if } bind def
/g { setgray } bind def
/rg { setrgbcolor } bind def
/d1 { setcachedevice } bind def
%%EndProlog
%%BeginSetup
%%EndSetup
%%Page: 1 1
%%BeginPageSetup
%%PageBoundingBox: 0 -1 513 394
%%EndPageSetup
q 0 -1 513 395 rectclip q
1 g
58.109 387.379 446.398 -345.602 re f
Q q
58.109 387.379 446.398 -345.602 re W n
q
58 387.449 447 -346 re W n
[ 1 0 0 1 0 -0.550995 ] concat
  q
Q q
57 217 449 -55 re W n
q
57 217 449 -55 re W n
  q
0 0.501961 0 rg
2 w
2 J
1 j
[] 0.0 d
4 M 58.109 215.129 m 78.199 215.02 l 98.285 214.688 l 118.375 214.137 l 138.461
 213.363 l 158.551 212.371 l 179.082 211.137 l 199.617 209.672 l 220.152
 207.984 l 240.688 206.078 l 261.668 203.906 l 282.648 201.512 l 304.074
 198.84 l 325.504 195.945 l 347.375 192.762 l 369.695 189.285 l 392.016 
185.582 l 414.785 181.582 l 437.996 177.281 l 462.102 172.586 l 486.652 
167.574 l 504.062 163.891 l S
  Q
Q
Q q
52 221 414 -54 re W n
q
52 221 414 -54 re W n
  q
0 0.501961 0 rg
58.109 210.129 m 59.438 210.129 60.707 210.656 61.645 211.594 c 62.582 
212.531 63.109 213.805 63.109 215.129 c 63.109 216.457 62.582 217.727 61.645
 218.664 c 60.707 219.602 59.438 220.129 58.109 220.129 c 56.785 220.129
 55.512 219.602 54.574 218.664 c 53.637 217.727 53.109 216.457 53.109 215.129
 c 53.109 213.805 53.637 212.531 54.574 211.594 c 55.512 210.656 56.785 
210.129 58.109 210.129 c h
58.109 210.129 m f
0 g
1 w
0 J
1 j
[] 0.0 d
4 M 58.109 210.129 m 59.438 210.129 60.707 210.656 61.645 211.594 c 62.582 
212.531 63.109 213.805 63.109 215.129 c 63.109 216.457 62.582 217.727 61.645
 218.664 c 60.707 219.602 59.438 220.129 58.109 220.129 c 56.785 220.129
 55.512 219.602 54.574 218.664 c 53.637 217.727 53.109 216.457 53.109 215.129
 c 53.109 213.805 53.637 212.531 54.574 211.594 c 55.512 210.656 56.785 
210.129 58.109 210.129 c h
58.109 210.129 m S
0 0.501961 0 rg
102.75 209.582 m 104.074 209.582 105.348 210.109 106.285 211.047 c 107.223
 211.984 107.75 213.258 107.75 214.582 c 107.75 215.91 107.223 217.184 106.285
 218.121 c 105.348 219.059 104.074 219.582 102.75 219.582 c 101.422 219.582
 100.152 219.059 99.215 218.121 c 98.277 217.184 97.75 215.91 97.75 214.582
 c 97.75 213.258 98.277 211.984 99.215 211.047 c 100.152 210.109 101.422
 209.582 102.75 209.582 c h
102.75 209.582 m f
0 g
102.75 209.582 m 104.074 209.582 105.348 210.109 106.285 211.047 c 107.223
 211.984 107.75 213.258 107.75 214.582 c 107.75 215.91 107.223 217.184 106.285
 218.121 c 105.348 219.059 104.074 219.582 102.75 219.582 c 101.422 219.582
 100.152 219.059 99.215 218.121 c 98.277 217.184 97.75 215.91 97.75 214.582
 c 97.75 213.258 98.277 211.984 99.215 211.047 c 100.152 210.109 101.422
 209.582 102.75 209.582 c h
102.75 209.582 m S
0 0.501961 0 rg
147.391 207.949 m 148.715 207.949 149.988 208.477 150.926 209.414 c 151.863
 210.352 152.391 211.625 152.391 212.949 c 152.391 214.277 151.863 215.547
 150.926 216.484 c 149.988 217.422 148.715 217.949 147.391 217.949 c 146.062
 217.949 144.793 217.422 143.855 216.484 c 142.918 215.547 142.391 214.277
 142.391 212.949 c 142.391 211.625 142.918 210.352 143.855 209.414 c 144.793
 208.477 146.062 207.949 147.391 207.949 c h
147.391 207.949 m f
0 g
147.391 207.949 m 148.715 207.949 149.988 208.477 150.926 209.414 c 151.863
 210.352 152.391 211.625 152.391 212.949 c 152.391 214.277 151.863 215.547
 150.926 216.484 c 149.988 217.422 148.715 217.949 147.391 217.949 c 146.062
 217.949 144.793 217.422 143.855 216.484 c 142.918 215.547 142.391 214.277
 142.391 212.949 c 142.391 211.625 142.918 210.352 143.855 209.414 c 144.793
 208.477 146.062 207.949 147.391 207.949 c h
147.391 207.949 m S
0 0.501961 0 rg
192.031 205.238 m 193.355 205.238 194.629 205.766 195.566 206.703 c 196.504
 207.641 197.031 208.914 197.031 210.238 c 197.031 211.566 196.504 212.836
 195.566 213.773 c 194.629 214.711 193.355 215.238 192.031 215.238 c 190.703
 215.238 189.434 214.711 188.492 213.773 c 187.555 212.836 187.031 211.566
 187.031 210.238 c 187.031 208.914 187.555 207.641 188.492 206.703 c 189.434
 205.766 190.703 205.238 192.031 205.238 c h
192.031 205.238 m f
0 g
192.031 205.238 m 193.355 205.238 194.629 205.766 195.566 206.703 c 196.504
 207.641 197.031 208.914 197.031 210.238 c 197.031 211.566 196.504 212.836
 195.566 213.773 c 194.629 214.711 193.355 215.238 192.031 215.238 c 190.703
 215.238 189.434 214.711 188.492 213.773 c 187.555 212.836 187.031 211.566
 187.031 210.238 c 187.031 208.914 187.555 207.641 188.492 206.703 c 189.434
 205.766 190.703 205.238 192.031 205.238 c h
192.031 205.238 m S
0 0.501961 0 rg
236.668 201.469 m 237.996 201.469 239.266 201.996 240.207 202.934 c 241.145
 203.871 241.668 205.145 241.668 206.469 c 241.668 207.797 241.145 209.066
 240.207 210.004 c 239.266 210.945 237.996 211.469 236.668 211.469 c 235.344
 211.469 234.07 210.945 233.133 210.004 c 232.195 209.066 231.668 207.797
 231.668 206.469 c 231.668 205.145 232.195 203.871 233.133 202.934 c 234.07
 201.996 235.344 201.469 236.668 201.469 c h
236.668 201.469 m f
0 g
236.668 201.469 m 237.996 201.469 239.266 201.996 240.207 202.934 c 241.145
 203.871 241.668 205.145 241.668 206.469 c 241.668 207.797 241.145 209.066
 240.207 210.004 c 239.266 210.945 237.996 211.469 236.668 211.469 c 235.344
 211.469 234.07 210.945 233.133 210.004 c 232.195 209.066 231.668 207.797
 231.668 206.469 c 231.668 205.145 232.195 203.871 233.133 202.934 c 234.07
 201.996 235.344 201.469 236.668 201.469 c h
236.668 201.469 m S
0 0.501961 0 rg
281.309 196.672 m 282.637 196.672 283.906 197.199 284.844 198.137 c 285.781
 199.074 286.309 200.348 286.309 201.672 c 286.309 203 285.781 204.27 284.844
 205.207 c 283.906 206.145 282.637 206.672 281.309 206.672 c 279.984 206.672
 278.711 206.145 277.773 205.207 c 276.836 204.27 276.309 203 276.309 201.672
 c 276.309 200.348 276.836 199.074 277.773 198.137 c 278.711 197.199 279.984
 196.672 281.309 196.672 c h
281.309 196.672 m f
0 g
281.309 196.672 m 282.637 196.672 283.906 197.199 284.844 198.137 c 285.781
 199.074 286.309 200.348 286.309 201.672 c 286.309 203 285.781 204.27 284.844
 205.207 c 283.906 206.145 282.637 206.672 281.309 206.672 c 279.984 206.672
 278.711 206.145 277.773 205.207 c 276.836 204.27 276.309 203 276.309 201.672
 c 276.309 200.348 276.836 199.074 277.773 198.137 c 278.711 197.199 279.984
 196.672 281.309 196.672 c h
281.309 196.672 m S
0 0.501961 0 rg
325.949 190.883 m 327.277 190.883 328.547 191.406 329.484 192.344 c 330.422
 193.281 330.949 194.555 330.949 195.883 c 330.949 197.207 330.422 198.48
 329.484 199.418 c 328.547 200.355 327.277 200.883 325.949 200.883 c 324.625
 200.883 323.352 200.355 322.414 199.418 c 321.477 198.48 320.949 197.207
 320.949 195.883 c 320.949 194.555 321.477 193.281 322.414 192.344 c 323.352
 191.406 324.625 190.883 325.949 190.883 c h
325.949 190.883 m f
0 g
325.949 190.883 m 327.277 190.883 328.547 191.406 329.484 192.344 c 330.422
 193.281 330.949 194.555 330.949 195.883 c 330.949 197.207 330.422 198.48
 329.484 199.418 c 328.547 200.355 327.277 200.883 325.949 200.883 c 324.625
 200.883 323.352 200.355 322.414 199.418 c 321.477 198.48 320.949 197.207
 320.949 195.883 c 320.949 194.555 321.477 193.281 322.414 192.344 c 323.352
 191.406 324.625 190.883 325.949 190.883 c h
325.949 190.883 m S
0 0.501961 0 rg
370.59 184.141 m 371.914 184.141 373.188 184.668 374.125 185.605 c 375.062
 186.543 375.59 187.812 375.59 189.141 c 375.59 190.465 375.062 191.738 
374.125 192.676 c 373.188 193.613 371.914 194.141 370.59 194.141 c 369.262
 194.141 367.992 193.613 367.055 192.676 c 366.117 191.738 365.59 190.465
 365.59 189.141 c 365.59 187.812 366.117 186.543 367.055 185.605 c 367.992
 184.668 369.262 184.141 370.59 184.141 c h
370.59 184.141 m f
0 g
370.59 184.141 m 371.914 184.141 373.188 184.668 374.125 185.605 c 375.062
 186.543 375.59 187.812 375.59 189.141 c 375.59 190.465 375.062 191.738 
374.125 192.676 c 373.188 193.613 371.914 194.141 370.59 194.141 c 369.262
 194.141 367.992 193.613 367.055 192.676 c 366.117 191.738 365.59 190.465
 365.59 189.141 c 365.59 187.812 366.117 186.543 367.055 185.605 c 367.992
 184.668 369.262 184.141 370.59 184.141 c h
370.59 184.141 m S
0 0.501961 0 rg
415.23 176.504 m 416.555 176.504 417.828 177.027 418.766 177.965 c 419.703
 178.902 420.23 180.176 420.23 181.504 c 420.23 182.828 419.703 184.102 
418.766 185.039 c 417.828 185.977 416.555 186.504 415.23 186.504 c 413.902
 186.504 412.633 185.977 411.695 185.039 c 410.758 184.102 410.23 182.828
 410.23 181.504 c 410.23 180.176 410.758 178.902 411.695 177.965 c 412.633
 177.027 413.902 176.504 415.23 176.504 c h
415.23 176.504 m f
0 g
415.23 176.504 m 416.555 176.504 417.828 177.027 418.766 177.965 c 419.703
 178.902 420.23 180.176 420.23 181.504 c 420.23 182.828 419.703 184.102 
418.766 185.039 c 417.828 185.977 416.555 186.504 415.23 186.504 c 413.902
 186.504 412.633 185.977 411.695 185.039 c 410.758 184.102 410.23 182.828
 410.23 181.504 c 410.23 180.176 410.758 178.902 411.695 177.965 c 412.633
 177.027 413.902 176.504 415.23 176.504 c h
415.23 176.504 m S
0 0.501961 0 rg
459.871 168.031 m 461.195 168.031 462.469 168.559 463.406 169.496 c 464.344
 170.434 464.871 171.703 464.871 173.031 c 464.871 174.355 464.344 175.629
 463.406 176.566 c 462.469 177.504 461.195 178.031 459.871 178.031 c 458.543
 178.031 457.273 177.504 456.336 176.566 c 455.395 175.629 454.871 174.355
 454.871 173.031 c 454.871 171.703 455.395 170.434 456.336 169.496 c 457.273
 168.559 458.543 168.031 459.871 168.031 c h
459.871 168.031 m f
0 g
459.871 168.031 m 461.195 168.031 462.469 168.559 463.406 169.496 c 464.344
 170.434 464.871 171.703 464.871 173.031 c 464.871 174.355 464.344 175.629
 463.406 176.566 c 462.469 177.504 461.195 178.031 459.871 178.031 c 458.543
 178.031 457.273 177.504 456.336 176.566 c 455.395 175.629 454.871 174.355
 454.871 173.031 c 454.871 171.703 455.395 170.434 456.336 169.496 c 457.273
 168.559 458.543 168.031 459.871 168.031 c h
459.871 168.031 m S
  Q
Q
Q q
57 217 449 -46 re W n
q
57 217 449 -46 re W n
  q
0 0 1 rg
2 w
2 J
1 j
[] 0.0 d
4 M 58.109 215.129 m 80.43 215.02 l 102.75 214.68 l 125.07 214.121 l 147.391
 213.336 l 169.711 212.328 l 192.031 211.105 l 214.797 209.629 l 237.562
 207.93 l 260.328 206.012 l 283.543 203.828 l 306.754 201.426 l 330.414 
198.754 l 354.52 195.805 l 378.625 192.633 l 403.176 189.18 l 428.621 185.375
 l 454.512 181.277 l 480.852 176.883 l 504.062 172.832 l S
  Q
Q
Q q
52 222 414 -48 re W n
q
52 222 414 -48 re W n
  q
0 0 1 rg
58.109 220.129 m 53.109 210.129 l 63.109 210.129 l h
58.109 220.129 m f
0 g
1 w
0 J
0 j
[] 0.0 d
4 M 58.109 220.129 m 53.109 210.129 l 63.109 210.129 l h
58.109 220.129 m S
0 0 1 rg
102.75 219.68 m 97.75 209.68 l 107.75 209.68 l h
102.75 219.68 m f
0 g
102.75 219.68 m 97.75 209.68 l 107.75 209.68 l h
102.75 219.68 m S
0 0 1 rg
147.391 218.336 m 142.391 208.336 l 152.391 208.336 l h
147.391 218.336 m f
0 g
147.391 218.336 m 142.391 208.336 l 152.391 208.336 l h
147.391 218.336 m S
0 0 1 rg
192.031 216.105 m 187.031 206.105 l 197.031 206.105 l h
192.031 216.105 m f
0 g
192.031 216.105 m 187.031 206.105 l 197.031 206.105 l h
192.031 216.105 m S
0 0 1 rg
236.668 213 m 231.668 203 l 241.668 203 l h
236.668 213 m f
0 g
236.668 213 m 231.668 203 l 241.668 203 l h
236.668 213 m S
0 0 1 rg
281.309 209.051 m 276.309 199.051 l 286.309 199.051 l h
281.309 209.051 m f
0 g
281.309 209.051 m 276.309 199.051 l 286.309 199.051 l h
281.309 209.051 m S
0 0 1 rg
325.949 204.273 m 320.949 194.273 l 330.949 194.273 l h
325.949 204.273 m f
0 g
325.949 204.273 m 320.949 194.273 l 330.949 194.273 l h
325.949 204.273 m S
0 0 1 rg
370.59 198.715 m 365.59 188.715 l 375.59 188.715 l h
370.59 198.715 m f
0 g
370.59 198.715 m 365.59 188.715 l 375.59 188.715 l h
370.59 198.715 m S
0 0 1 rg
415.23 192.406 m 410.23 182.406 l 420.23 182.406 l h
415.23 192.406 m f
0 g
415.23 192.406 m 410.23 182.406 l 420.23 182.406 l h
415.23 192.406 m S
0 0 1 rg
459.871 185.398 m 454.871 175.398 l 464.871 175.398 l h
459.871 185.398 m f
0 g
459.871 185.398 m 454.871 175.398 l 464.871 175.398 l h
459.871 185.398 m S
  Q
Q
Q q
57 217 449 -42 re W n
q
57 217 449 -42 re W n
  q
0.74902 0 0.74902 rg
2 w
2 J
1 j
[] 0.0 d
4 M 58.109 215.129 m 81.324 215.02 l 104.535 214.691 l 127.746 214.141 l 151.406
 213.355 l 175.066 212.348 l 198.727 211.113 l 222.383 209.66 l 246.492 
207.953 l 270.594 206.023 l 295.148 203.828 l 319.699 201.41 l 344.699 198.727
 l 370.145 195.766 l 395.586 192.582 l 421.926 189.059 l 448.711 185.25 
l 475.941 181.152 l 504.062 176.695 l S
  Q
Q
Q q
53 221 412 -42 re W n
q
53 221 412 -42 re W n
  q
0.74902 0 0.74902 rg
58.109 220.129 m 56.988 216.676 l 53.355 216.676 l 56.293 214.539 l 55.172
 211.086 l 58.109 213.219 l 61.047 211.086 l 59.926 214.539 l 62.863 216.676
 l 59.23 216.676 l h
58.109 220.129 m f
0 g
1 w
0 J
2 j
[] 0.0 d
4 M 58.109 220.129 m 56.988 216.676 l 53.355 216.676 l 56.293 214.539 l 55.172
 211.086 l 58.109 213.219 l 61.047 211.086 l 59.926 214.539 l 62.863 216.676
 l 59.23 216.676 l h
58.109 220.129 m S
0.74902 0 0.74902 rg
102.75 219.723 m 101.629 216.27 l 97.996 216.27 l 100.934 214.133 l 99.812
 210.68 l 102.75 212.812 l 105.688 210.68 l 104.566 214.133 l 107.504 216.27
 l 103.871 216.27 l h
102.75 219.723 m f
0 g
102.75 219.723 m 101.629 216.27 l 97.996 216.27 l 100.934 214.133 l 99.812
 210.68 l 102.75 212.812 l 105.688 210.68 l 104.566 214.133 l 107.504 216.27
 l 103.871 216.27 l h
102.75 219.723 m S
0.74902 0 0.74902 rg
147.391 218.508 m 146.266 215.051 l 142.633 215.051 l 145.574 212.914 l
 144.449 209.461 l 147.391 211.598 l 150.328 209.461 l 149.207 212.914 l
 152.145 215.051 l 148.512 215.051 l h
147.391 218.508 m f
0 g
147.391 218.508 m 146.266 215.051 l 142.633 215.051 l 145.574 212.914 l
 144.449 209.461 l 147.391 211.598 l 150.328 209.461 l 149.207 212.914 l
 152.145 215.051 l 148.512 215.051 l h
147.391 218.508 m S
0.74902 0 0.74902 rg
192.031 216.484 m 190.906 213.031 l 187.273 213.031 l 190.215 210.895 l
 189.09 207.441 l 192.031 209.574 l 194.969 207.441 l 193.848 210.895 l 
196.785 213.031 l 193.152 213.031 l h
192.031 216.484 m f
0 g
192.031 216.484 m 190.906 213.031 l 187.273 213.031 l 190.215 210.895 l
 189.09 207.441 l 192.031 209.574 l 194.969 207.441 l 193.848 210.895 l 
196.785 213.031 l 193.152 213.031 l h
192.031 216.484 m S
0.74902 0 0.74902 rg
236.668 213.676 m 235.547 210.219 l 231.914 210.219 l 234.852 208.086 l
 233.73 204.629 l 236.668 206.766 l 239.609 204.629 l 238.484 208.086 l 
241.426 210.219 l 237.793 210.219 l h
236.668 213.676 m f
0 g
236.668 213.676 m 235.547 210.219 l 231.914 210.219 l 234.852 208.086 l
 233.73 204.629 l 236.668 206.766 l 239.609 204.629 l 238.484 208.086 l 
241.426 210.219 l 237.793 210.219 l h
236.668 213.676 m S
0.74902 0 0.74902 rg
281.309 210.094 m 280.188 206.637 l 276.555 206.637 l 279.492 204.504 l
 278.371 201.047 l 281.309 203.184 l 284.25 201.047 l 283.125 204.504 l 
286.066 206.637 l 282.434 206.637 l h
281.309 210.094 m f
0 g
281.309 210.094 m 280.188 206.637 l 276.555 206.637 l 279.492 204.504 l
 278.371 201.047 l 281.309 203.184 l 284.25 201.047 l 283.125 204.504 l 
286.066 206.637 l 282.434 206.637 l h
281.309 210.094 m S
0.74902 0 0.74902 rg
325.949 205.762 m 324.828 202.309 l 321.195 202.309 l 324.133 200.172 l
 323.012 196.715 l 325.949 198.852 l 328.887 196.715 l 327.766 200.172 l
 330.703 202.309 l 327.07 202.309 l h
325.949 205.762 m f
0 g
325.949 205.762 m 324.828 202.309 l 321.195 202.309 l 324.133 200.172 l
 323.012 196.715 l 325.949 198.852 l 328.887 196.715 l 327.766 200.172 l
 330.703 202.309 l 327.07 202.309 l h
325.949 205.762 m S
0.74902 0 0.74902 rg
370.59 200.711 m 369.469 197.254 l 365.836 197.254 l 368.773 195.121 l 
367.652 191.664 l 370.59 193.801 l 373.527 191.664 l 372.406 195.121 l 375.344
 197.254 l 371.711 197.254 l h
370.59 200.711 m f
0 g
370.59 200.711 m 369.469 197.254 l 365.836 197.254 l 368.773 195.121 l 
367.652 191.664 l 370.59 193.801 l 373.527 191.664 l 372.406 195.121 l 375.344
 197.254 l 371.711 197.254 l h
370.59 200.711 m S
0.74902 0 0.74902 rg
415.23 194.977 m 414.105 191.52 l 410.473 191.52 l 413.414 189.387 l 412.289
 185.93 l 415.23 188.066 l 418.168 185.93 l 417.047 189.387 l 419.984 191.52
 l 416.352 191.52 l h
415.23 194.977 m f
0 g
415.23 194.977 m 414.105 191.52 l 410.473 191.52 l 413.414 189.387 l 412.289
 185.93 l 415.23 188.066 l 418.168 185.93 l 417.047 189.387 l 419.984 191.52
 l 416.352 191.52 l h
415.23 194.977 m S
0.74902 0 0.74902 rg
459.871 188.598 m 458.746 185.141 l 455.113 185.141 l 458.055 183.008 l
 456.93 179.551 l 459.871 181.688 l 462.809 179.551 l 461.688 183.008 l 
464.625 185.141 l 460.992 185.141 l h
459.871 188.598 m f
0 g
459.871 188.598 m 458.746 185.141 l 455.113 185.141 l 458.055 183.008 l
 456.93 179.551 l 459.871 181.688 l 462.809 179.551 l 461.688 183.008 l 
464.625 185.141 l 460.992 185.141 l h
459.871 188.598 m S
  Q
Q
Q q
57 217 449 -40 re W n
q
57 217 449 -40 re W n
  q
1 0 0 rg
2 w
2 J
1 j
[] 0.0 d
4 M 58.109 215.129 m 82.215 215.02 l 106.32 214.688 l 130.426 214.133 l 154.531
 213.355 l 178.637 212.363 l 203.191 211.125 l 227.742 209.668 l 252.293
 207.988 l 277.293 206.055 l 302.289 203.898 l 327.734 201.484 l 353.625
 198.801 l 379.965 195.844 l 406.746 192.605 l 433.98 189.09 l 461.656 185.289
 l 490.223 181.141 l 504.062 179.051 l S
  Q
Q
Q q
53 221 412 -41 re W n
q
53 221 412 -41 re W n
  q
1 0 0 rg
53.109 215.129 m 63.109 215.129 l 58.109 210.129 m 58.109 220.129 l f
0 g
1 w
0 J
1 j
[] 0.0 d
4 M 53.109 215.129 m 63.109 215.129 l 58.109 210.129 m 58.109 220.129 l S
1 0 0 rg
97.75 214.75 m 107.75 214.75 l 102.75 209.75 m 102.75 219.75 l f
0 g
97.75 214.75 m 107.75 214.75 l 102.75 209.75 m 102.75 219.75 l S
1 0 0 rg
142.391 213.609 m 152.391 213.609 l 147.391 208.609 m 147.391 218.609 l
 f
0 g
142.391 213.609 m 152.391 213.609 l 147.391 208.609 m 147.391 218.609 l
 S
1 0 0 rg
187.031 211.715 m 197.031 211.715 l 192.031 206.715 m 192.031 216.715 l
 f
0 g
187.031 211.715 m 197.031 211.715 l 192.031 206.715 m 192.031 216.715 l
 S
1 0 0 rg
231.668 209.082 m 241.668 209.082 l 236.668 204.082 m 236.668 214.082 l
 f
0 g
231.668 209.082 m 241.668 209.082 l 236.668 204.082 m 236.668 214.082 l
 S
1 0 0 rg
276.309 205.723 m 286.309 205.723 l 281.309 200.723 m 281.309 210.723 l
 f
0 g
276.309 205.723 m 286.309 205.723 l 281.309 200.723 m 281.309 210.723 l
 S
1 0 0 rg
320.949 201.66 m 330.949 201.66 l 325.949 196.66 m 325.949 206.66 l f
0 g
320.949 201.66 m 330.949 201.66 l 325.949 196.66 m 325.949 206.66 l S
1 0 0 rg
365.59 196.922 m 375.59 196.922 l 370.59 191.922 m 370.59 201.922 l f
0 g
365.59 196.922 m 375.59 196.922 l 370.59 191.922 m 370.59 201.922 l S
1 0 0 rg
410.23 191.535 m 420.23 191.535 l 415.23 186.535 m 415.23 196.535 l f
0 g
410.23 191.535 m 420.23 191.535 l 415.23 186.535 m 415.23 196.535 l S
1 0 0 rg
454.871 185.539 m 464.871 185.539 l 459.871 180.539 m 459.871 190.539 l
 f
0 g
454.871 185.539 m 464.871 185.539 l 459.871 180.539 m 459.871 190.539 l
 S
  Q
Q
Q q
57 217 449 -39 re W n
q
57 217 449 -39 re W n
  q
0.74902 0.74902 0 rg
2 w
2 J
1 j
[] 0.0 d
4 M 58.109 215.129 m 82.66 215.016 l 107.215 214.68 l 131.766 214.117 l 156.316
 213.332 l 180.871 212.324 l 205.422 211.098 l 230.418 209.625 l 255.418
 207.93 l 280.418 206.012 l 305.863 203.84 l 331.754 201.402 l 357.645 198.742
 l 383.98 195.812 l 410.766 192.613 l 437.996 189.137 l 466.121 185.32 l
 494.688 181.219 l 504.062 179.824 l S
  Q
Q
Q q
52 221 414 -40 re W n
q
52 221 414 -40 re W n
  q
0.74902 0.74902 0 rg
58.109 220.129 m 53.355 216.676 l 55.172 211.086 l 61.047 211.086 l 62.863
 216.676 l h
58.109 220.129 m f
0 g
1 w
0 J
0 j
[] 0.0 d
4 M 58.109 220.129 m 53.355 216.676 l 55.172 211.086 l 61.047 211.086 l 62.863
 216.676 l h
58.109 220.129 m S
0.74902 0.74902 0 rg
102.75 219.758 m 97.996 216.305 l 99.812 210.715 l 105.688 210.715 l 107.504
 216.305 l h
102.75 219.758 m f
0 g
102.75 219.758 m 97.996 216.305 l 99.812 210.715 l 105.688 210.715 l 107.504
 216.305 l h
102.75 219.758 m S
0.74902 0.74902 0 rg
147.391 218.645 m 142.633 215.188 l 144.449 209.598 l 150.328 209.598 l
 152.145 215.188 l h
147.391 218.645 m f
0 g
147.391 218.645 m 142.633 215.188 l 144.449 209.598 l 150.328 209.598 l
 152.145 215.188 l h
147.391 218.645 m S
0.74902 0.74902 0 rg
192.031 216.797 m 187.273 213.34 l 189.09 207.75 l 194.969 207.75 l 196.785
 213.34 l h
192.031 216.797 m f
0 g
192.031 216.797 m 187.273 213.34 l 189.09 207.75 l 194.969 207.75 l 196.785
 213.34 l h
192.031 216.797 m S
0.74902 0.74902 0 rg
236.668 214.223 m 231.914 210.766 l 233.73 205.176 l 239.609 205.176 l 
241.426 210.766 l h
236.668 214.223 m f
0 g
236.668 214.223 m 231.914 210.766 l 233.73 205.176 l 239.609 205.176 l 
241.426 210.766 l h
236.668 214.223 m S
0.74902 0.74902 0 rg
281.309 210.938 m 276.555 207.484 l 278.371 201.895 l 284.25 201.895 l 
286.066 207.484 l h
281.309 210.938 m f
0 g
281.309 210.938 m 276.555 207.484 l 278.371 201.895 l 284.25 201.895 l 
286.066 207.484 l h
281.309 210.938 m S
0.74902 0.74902 0 rg
325.949 206.965 m 321.195 203.512 l 323.012 197.922 l 328.887 197.922 l
 330.703 203.512 l h
325.949 206.965 m f
0 g
325.949 206.965 m 321.195 203.512 l 323.012 197.922 l 328.887 197.922 l
 330.703 203.512 l h
325.949 206.965 m S
0.74902 0.74902 0 rg
370.59 202.328 m 365.836 198.875 l 367.652 193.285 l 373.527 193.285 l 
375.344 198.875 l h
370.59 202.328 m f
0 g
370.59 202.328 m 365.836 198.875 l 367.652 193.285 l 373.527 193.285 l 
375.344 198.875 l h
370.59 202.328 m S
0.74902 0.74902 0 rg
415.23 197.059 m 410.473 193.602 l 412.289 188.012 l 418.168 188.012 l 
419.984 193.602 l h
415.23 197.059 m f
0 g
415.23 197.059 m 410.473 193.602 l 412.289 188.012 l 418.168 188.012 l 
419.984 193.602 l h
415.23 197.059 m S
0.74902 0.74902 0 rg
459.871 191.188 m 455.113 187.73 l 456.93 182.141 l 462.809 182.141 l 464.625
 187.73 l h
459.871 191.188 m f
0 g
459.871 191.188 m 455.113 187.73 l 456.93 182.141 l 462.809 182.141 l 464.625
 187.73 l h
459.871 191.188 m S
  Q
Q
Q q
57 388 2 -346 re W n
q
57 388 2 -346 re W n
  q
0 g
0.5 w
0 J
1 j
[ 1 3] 0 d
4 M 58.109 42.328 m 58.109 387.93 l S
  Q
Q
  Q
Q
Q q
0 g
0.5 w
0 J
1 j
[] 0.0 d
4 M 58.109 41.777 m 58.109 45.777 l S
58.109 387.379 m 58.109 383.379 l S
55.039 31.859 m 55.039 32.773 55.023 34.324 54.395 35.515 c 53.844 36.562
 52.961 36.933 52.184 36.933 c 51.465 36.933 50.555 36.605 49.988 35.531
 c 49.391 34.414 49.328 33.023 49.328 31.859 c 49.328 31.012 49.344 29.715
 49.809 28.578 c 50.449 27.039 51.602 26.832 52.184 26.832 c 52.871 26.832
 53.918 27.117 54.527 28.531 c 54.977 29.566 55.039 30.773 55.039 31.859
 c 52.184 27.07 m 51.227 27.07 50.66 27.89 50.449 29.027 c 50.285 29.906
 50.285 31.191 50.285 32.027 c 50.285 33.176 50.285 34.129 50.48 35.039 
c 50.766 36.304 51.602 36.695 52.184 36.695 c 52.797 36.695 53.586 36.293
 53.871 35.07 c 54.066 34.222 54.082 33.219 54.082 32.027 c 54.082 31.054
 54.082 29.859 53.902 28.98 c 53.586 27.351 52.707 27.07 52.184 27.07 c f
58.367 27.847 m 58.367 28.281 58.004 28.578 57.645 28.578 c 57.215 28.578
 56.914 28.219 56.914 27.863 c 56.914 27.429 57.273 27.133 57.633 27.133
 c 58.066 27.133 58.367 27.488 58.367 27.847 c f
65.957 31.859 m 65.957 32.773 65.941 34.324 65.312 35.515 c 64.762 36.562
 63.879 36.933 63.102 36.933 c 62.383 36.933 61.473 36.605 60.906 35.531
 c 60.309 34.414 60.246 33.023 60.246 31.859 c 60.246 31.012 60.262 29.715
 60.727 28.578 c 61.367 27.039 62.52 26.832 63.102 26.832 c 63.789 26.832
 64.836 27.117 65.445 28.531 c 65.895 29.566 65.957 30.773 65.957 31.859
 c 63.102 27.07 m 62.145 27.07 61.578 27.89 61.367 29.027 c 61.203 29.906
 61.203 31.191 61.203 32.027 c 61.203 33.176 61.203 34.129 61.398 35.039
 c 61.684 36.304 62.52 36.695 63.102 36.695 c 63.715 36.695 64.504 36.293
 64.789 35.07 c 64.984 34.222 65 33.219 65 32.027 c 65 31.054 65 29.859 
64.82 28.98 c 64.504 27.351 63.625 27.07 63.102 27.07 c f
Q q
58.109 387.379 446.398 -345.602 re W n
q
58 387.449 447 -346 re W n
[ 1 0 0 1 0 -0.550995 ] concat
  q
Q q
147 388 1 -346 re W n
q
147 388 1 -346 re W n
  q
0 g
0.5 w
0 J
1 j
[ 1 3] 0 d
4 M 147.391 42.328 m 147.391 387.93 l S
  Q
Q
  Q
Q
Q q
0 g
0.5 w
0 J
1 j
[] 0.0 d
4 M 147.391 41.777 m 147.391 45.777 l S
147.391 387.379 m 147.391 383.379 l S
144.316 31.859 m 144.316 32.773 144.305 34.324 143.676 35.515 c 143.121
 36.562 142.238 36.933 141.465 36.933 c 140.746 36.933 139.836 36.605 139.266
 35.531 c 138.668 34.414 138.609 33.023 138.609 31.859 c 138.609 31.012 
138.625 29.715 139.086 28.578 c 139.73 27.039 140.879 26.832 141.465 26.832
 c 142.152 26.832 143.195 27.117 143.809 28.531 c 144.258 29.566 144.316
 30.773 144.316 31.859 c 141.465 27.07 m 140.508 27.07 139.938 27.89 139.73
 29.027 c 139.566 29.906 139.566 31.191 139.566 32.027 c 139.566 33.176 
139.566 34.129 139.758 35.039 c 140.043 36.304 140.879 36.695 141.465 36.695
 c 142.074 36.695 142.867 36.293 143.152 35.07 c 143.348 34.222 143.359 
33.219 143.359 32.027 c 143.359 31.054 143.359 29.859 143.184 28.98 c 142.867
 27.351 141.988 27.07 141.465 27.07 c f
147.645 27.847 m 147.645 28.281 147.285 28.578 146.926 28.578 c 146.492
 28.578 146.195 28.219 146.195 27.863 c 146.195 27.429 146.551 27.133 146.91
 27.133 c 147.348 27.133 147.645 27.488 147.645 27.847 c f
155.191 29.441 m 154.922 29.441 l 154.773 28.383 154.652 28.203 154.594
 28.113 c 154.52 27.992 153.441 27.992 153.23 27.992 c 150.363 27.992 l 
150.902 28.578 151.949 29.637 153.219 30.859 c 154.129 31.726 155.191 32.742
 155.191 34.219 c 155.191 35.98 153.785 36.996 152.215 36.996 c 150.574 
36.996 149.57 35.547 149.57 34.207 c 149.57 33.621 150.004 33.547 150.184
 33.547 c 150.336 33.547 150.781 33.64 150.781 34.16 c 150.781 34.621 150.395
 34.754 150.184 34.754 c 150.094 34.754 150.004 34.738 149.945 34.707 c 
150.23 35.98 151.098 36.605 152.008 36.605 c 153.309 36.605 154.16 35.578
 154.16 34.219 c 154.16 32.922 153.398 31.801 152.547 30.832 c 149.57 27.472
 l 149.57 27.133 l 154.832 27.133 l h
155.191 29.441 m f
Q q
58.109 387.379 446.398 -345.602 re W n
q
58 387.449 447 -346 re W n
[ 1 0 0 1 0 -0.550995 ] concat
  q
Q q
236 388 1 -346 re W n
q
236 388 1 -346 re W n
  q
0 g
0.5 w
0 J
1 j
[ 1 3] 0 d
4 M 236.668 42.328 m 236.668 387.93 l S
  Q
Q
  Q
Q
Q q
0 g
0.5 w
0 J
1 j
[] 0.0 d
4 M 236.668 41.777 m 236.668 45.777 l S
236.668 387.379 m 236.668 383.379 l S
233.598 31.859 m 233.598 32.773 233.582 34.324 232.957 35.515 c 232.402
 36.562 231.52 36.933 230.746 36.933 c 230.023 36.933 229.113 36.605 228.547
 35.531 c 227.949 34.414 227.887 33.023 227.887 31.859 c 227.887 31.012 
227.906 29.715 228.367 28.578 c 229.008 27.039 230.16 26.832 230.746 26.832
 c 231.43 26.832 232.477 27.117 233.09 28.531 c 233.535 29.566 233.598 30.773
 233.598 31.859 c 230.746 27.07 m 229.785 27.07 229.219 27.89 229.008 29.027
 c 228.848 29.906 228.848 31.191 228.848 32.027 c 228.848 33.176 228.848
 34.129 229.039 35.039 c 229.324 36.304 230.16 36.695 230.746 36.695 c 231.355
 36.695 232.148 36.293 232.434 35.07 c 232.625 34.222 232.641 33.219 232.641
 32.027 c 232.641 31.054 232.641 29.859 232.461 28.98 c 232.148 27.351 231.266
 27.07 230.746 27.07 c f
236.926 27.847 m 236.926 28.281 236.566 28.578 236.207 28.578 c 235.773
 28.578 235.477 28.219 235.477 27.863 c 235.477 27.429 235.832 27.133 236.191
 27.133 c 236.625 27.133 236.926 27.488 236.926 27.847 c f
243.258 36.746 m 243.258 37.054 243.246 37.07 242.977 37.07 c 238.539 30.058
 l 238.539 29.672 l 242.395 29.672 l 242.395 28.199 l 242.395 27.656 242.363
 27.504 241.316 27.504 c 241.035 27.504 l 241.035 27.133 l 244.621 27.133
 l 244.621 27.504 l 244.336 27.504 l 243.289 27.504 243.258 27.656 243.258
 28.199 c 243.258 29.672 l 244.785 29.672 l 244.785 30.058 l 243.258 30.058
 l h
242.438 35.765 m 242.438 30.058 l 238.836 30.058 l h
242.438 35.765 m f
Q q
58.109 387.379 446.398 -345.602 re W n
q
58 387.449 447 -346 re W n
[ 1 0 0 1 0 -0.550995 ] concat
  q
Q q
325 388 2 -346 re W n
q
325 388 2 -346 re W n
  q
0 g
0.5 w
0 J
1 j
[ 1 3] 0 d
4 M 325.949 42.328 m 325.949 387.93 l S
  Q
Q
  Q
Q
Q q
0 g
0.5 w
0 J
1 j
[] 0.0 d
4 M 325.949 41.777 m 325.949 45.777 l S
325.949 387.379 m 325.949 383.379 l S
322.879 31.859 m 322.879 32.773 322.863 34.324 322.234 35.515 c 321.684
 36.562 320.801 36.933 320.023 36.933 c 319.305 36.933 318.395 36.605 317.828
 35.531 c 317.23 34.414 317.168 33.023 317.168 31.859 c 317.168 31.012 317.184
 29.715 317.648 28.578 c 318.289 27.039 319.441 26.832 320.023 26.832 c 
320.711 26.832 321.758 27.117 322.367 28.531 c 322.816 29.566 322.879 30.773
 322.879 31.859 c 320.023 27.07 m 319.066 27.07 318.5 27.89 318.289 29.027
 c 318.125 29.906 318.125 31.191 318.125 32.027 c 318.125 33.176 318.125
 34.129 318.32 35.039 c 318.605 36.304 319.441 36.695 320.023 36.695 c 320.637
 36.695 321.426 36.293 321.711 35.07 c 321.906 34.222 321.922 33.219 321.922
 32.027 c 321.922 31.054 321.922 29.859 321.742 28.98 c 321.426 27.351 320.547
 27.07 320.023 27.07 c f
326.207 27.847 m 326.207 28.281 325.844 28.578 325.484 28.578 c 325.055
 28.578 324.754 28.219 324.754 27.863 c 324.754 27.429 325.113 27.133 325.473
 27.133 c 325.906 27.133 326.207 27.488 326.207 27.847 c f
329.102 32.211 m 329.102 35.746 330.777 36.547 331.746 36.547 c 332.062
 36.547 332.824 36.492 333.125 35.949 c 332.887 35.949 332.438 35.949 332.438
 35.429 c 332.438 35.027 332.762 34.89 332.973 34.89 c 333.109 34.89 333.512
 34.949 333.512 35.445 c 333.512 36.363 332.762 36.89 331.734 36.89 c 329.953
 36.89 328.086 35.047 328.086 31.765 c 328.086 27.722 329.773 26.832 330.969
 26.832 c 332.422 26.832 333.797 28.129 333.797 30.129 c 333.797 31.992 
332.586 33.347 331.062 33.347 c 330.148 33.347 329.477 32.754 329.102 31.707
 c h
330.969 27.191 m 329.133 27.191 329.133 29.933 329.133 30.484 c 329.133
 31.558 329.641 33.109 331.031 33.109 c 331.285 33.109 332.016 33.109 332.512
 32.082 c 332.781 31.5 332.781 30.89 332.781 30.14 c 332.781 29.336 332.781
 28.742 332.465 28.144 c 332.137 27.531 331.66 27.191 330.969 27.191 c f
Q q
58.109 387.379 446.398 -345.602 re W n
q
58 387.449 447 -346 re W n
[ 1 0 0 1 0 -0.550995 ] concat
  q
Q q
414 388 2 -346 re W n
q
414 388 2 -346 re W n
  q
0 g
0.5 w
0 J
1 j
[ 1 3] 0 d
4 M 415.23 42.328 m 415.23 387.93 l S
  Q
Q
  Q
Q
Q q
0 g
0.5 w
0 J
1 j
[] 0.0 d
4 M 415.23 41.777 m 415.23 45.777 l S
415.23 387.379 m 415.23 383.379 l S
412.156 31.859 m 412.156 32.773 412.145 34.324 411.516 35.515 c 410.961
 36.562 410.078 36.933 409.305 36.933 c 408.586 36.933 407.676 36.605 407.105
 35.531 c 406.508 34.414 406.449 33.023 406.449 31.859 c 406.449 31.012 
406.465 29.715 406.926 28.578 c 407.57 27.039 408.719 26.832 409.305 26.832
 c 409.992 26.832 411.035 27.117 411.648 28.531 c 412.098 29.566 412.156
 30.773 412.156 31.859 c 409.305 27.07 m 408.348 27.07 407.781 27.89 407.57
 29.027 c 407.406 29.906 407.406 31.191 407.406 32.027 c 407.406 33.176 
407.406 34.129 407.602 35.039 c 407.883 36.304 408.719 36.695 409.305 36.695
 c 409.914 36.695 410.707 36.293 410.992 35.07 c 411.188 34.222 411.199 
33.219 411.199 32.027 c 411.199 31.054 411.199 29.859 411.023 28.98 c 410.707
 27.351 409.828 27.07 409.305 27.07 c f
415.484 27.847 m 415.484 28.281 415.125 28.578 414.766 28.578 c 414.336
 28.578 414.035 28.219 414.035 27.863 c 414.035 27.429 414.391 27.133 414.754
 27.133 c 415.188 27.133 415.484 27.488 415.484 27.847 c f
420.863 32.418 m 421.805 32.894 422.762 33.605 422.762 34.75 c 422.762 
36.101 421.445 36.89 420.238 36.89 c 418.879 36.89 417.684 35.91 417.684
 34.558 c 417.684 34.187 417.77 33.547 418.355 32.98 c 418.504 32.832 419.129
 32.387 419.535 32.105 c 418.859 31.762 417.293 30.945 417.293 29.312 c 
417.293 27.781 418.758 26.832 420.207 26.832 c 421.805 26.832 423.152 27.976
 423.152 29.492 c 423.152 30.844 422.238 31.469 421.641 31.871 c h
418.906 33.726 m 418.785 33.801 418.188 34.262 418.188 34.957 c 418.188
 35.863 419.129 36.547 420.207 36.547 c 421.387 36.547 422.254 35.719 422.254
 34.75 c 422.254 33.367 420.699 32.582 420.625 32.582 c 420.609 32.582 420.598
 32.582 420.473 32.672 c h
421.656 30.679 m 421.879 30.515 422.598 30.027 422.598 29.117 c 422.598
 28.019 421.492 27.191 420.238 27.191 c 418.879 27.191 417.844 28.156 417.844
 29.328 c 417.844 30.5 418.758 31.48 419.789 31.941 c h
421.656 30.679 m f
Q q
58.109 387.379 446.398 -345.602 re W n
q
58 387.449 447 -346 re W n
[ 1 0 0 1 0 -0.550995 ] concat
  q
Q q
504 388 1 -346 re W n
q
504 388 1 -346 re W n
  q
0 g
0.5 w
0 J
1 j
[ 1 3] 0 d
4 M 504.508 42.328 m 504.508 387.93 l S
  Q
Q
  Q
Q
Q q
0 g
0.5 w
0 J
1 j
[] 0.0 d
4 M 504.508 41.777 m 504.508 45.777 l S
504.508 387.379 m 504.508 383.379 l S
499.137 36.594 m 499.137 36.906 499.121 36.922 498.91 36.922 c 498.328 
36.277 497.445 36.066 496.609 36.066 c 496.566 36.066 496.492 36.066 496.477
 36.039 c 496.461 36.008 496.461 35.972 496.461 35.648 c 496.926 35.648 
497.703 35.738 498.301 36.097 c 498.301 28.207 l 498.301 27.683 498.27 27.504
 496.984 27.504 c 496.535 27.504 l 496.535 27.133 l 500.902 27.133 l 500.902
 27.504 l 500.453 27.504 l 499.164 27.504 499.137 27.668 499.137 28.199 
c h
499.137 36.594 m f
504.766 27.847 m 504.766 28.281 504.406 28.578 504.047 28.578 c 503.613
 28.578 503.316 28.219 503.316 27.863 c 503.316 27.429 503.672 27.133 504.031
 27.133 c 504.465 27.133 504.766 27.488 504.766 27.847 c f
512.355 31.859 m 512.355 32.773 512.34 34.324 511.715 35.515 c 511.16 36.562
 510.277 36.933 509.504 36.933 c 508.781 36.933 507.871 36.605 507.305 35.531
 c 506.707 34.414 506.648 33.023 506.648 31.859 c 506.648 31.012 506.664
 29.715 507.125 28.578 c 507.766 27.039 508.918 26.832 509.504 26.832 c 
510.188 26.832 511.234 27.117 511.848 28.531 c 512.297 29.566 512.355 30.773
 512.355 31.859 c 509.504 27.07 m 508.547 27.07 507.977 27.89 507.766 29.027
 c 507.605 29.906 507.605 31.191 507.605 32.027 c 507.605 33.176 507.605
 34.129 507.797 35.039 c 508.082 36.304 508.918 36.695 509.504 36.695 c 
510.113 36.695 510.906 36.293 511.191 35.07 c 511.383 34.222 511.398 33.219
 511.398 32.027 c 511.398 31.054 511.398 29.859 511.223 28.98 c 510.906 
27.351 510.023 27.07 509.504 27.07 c f
198.492 10.957 m 205.422 10.957 l 205.422 12.597 l 198.492 12.597 l 198.492
 17.293 l 206.383 17.293 l 206.383 18.929 l 196.637 18.929 l 196.637 4.34
 l 198.492 4.34 l h
198.492 10.957 m f
207.5 14.84 m 207.5 4.383 l 209.172 4.383 l 209.172 9.812 l 209.172 11.308
 209.551 12.289 210.348 12.867 c 210.863 13.246 211.363 13.367 212.516 13.367
 c 212.516 15.082 l 212.238 15.121 212.102 15.144 211.883 15.144 c 210.805
 15.144 209.988 14.5 209.031 12.945 c 209.031 14.84 l h
207.5 14.84 m f
222.98 9.164 m 222.98 10.734 222.859 11.676 222.562 12.437 c 221.883 14.121
 220.289 15.144 218.336 15.144 c 215.43 15.144 213.555 12.922 213.555 9.504
 c 213.555 6.086 215.367 3.984 218.297 3.984 c 220.688 3.984 222.34 5.355
 222.762 7.644 c 221.086 7.644 l 220.629 6.25 219.691 5.519 218.355 5.519
 c 217.301 5.519 216.402 6.004 215.848 6.894 c 215.449 7.504 215.309 8.113
 215.289 9.164 c h
215.328 10.523 m 215.465 12.39 216.645 13.605 218.316 13.605 c 219.949 
13.605 221.207 12.293 221.207 10.64 c 221.207 10.601 221.207 10.562 221.184
 10.523 c h
215.328 10.523 m f
233.699 -0 m 233.699 14.808 l 232.223 14.808 l 232.223 13.41 l 231.449 
14.504 230.27 15.105 228.898 15.105 c 226.145 15.105 224.352 12.836 224.352
 9.344 c 224.352 5.929 226.066 3.824 228.816 3.824 c 230.27 3.824 231.266
 4.34 232.047 5.48 c 232.047 -0 l h
229.133 13.551 m 230.91 13.551 232.047 11.937 232.047 9.402 c 232.047 6.988
 230.891 5.379 229.133 5.379 c 227.305 5.379 226.086 7.008 226.086 9.461
 c 226.086 11.898 227.305 13.551 229.133 13.551 c f
244.52 4.484 m 244.52 14.945 l 242.867 14.945 l 242.867 8.988 l 242.867
 6.844 241.746 5.441 240.016 5.441 c 238.699 5.441 237.863 6.242 237.863
 7.508 c 237.863 14.945 l 236.211 14.945 l 236.211 6.847 l 236.211 5.105
 237.504 3.984 239.539 3.984 c 241.074 3.984 242.047 4.523 243.023 5.902
 c 243.023 4.484 l h
244.52 4.484 m f
256.215 9.164 m 256.215 10.734 256.094 11.676 255.797 12.437 c 255.117 
14.121 253.523 15.144 251.57 15.144 c 248.664 15.144 246.789 12.922 246.789
 9.504 c 246.789 6.086 248.602 3.984 251.531 3.984 c 253.922 3.984 255.574
 5.355 255.996 7.644 c 254.32 7.644 l 253.863 6.25 252.926 5.519 251.59 
5.519 c 250.535 5.519 249.637 6.004 249.082 6.894 c 248.684 7.504 248.543
 8.113 248.523 9.164 c h
248.562 10.523 m 248.699 12.39 249.879 13.605 251.555 13.605 c 253.184 
13.605 254.441 12.293 254.441 10.64 c 254.441 10.601 254.441 10.562 254.422
 10.523 c h
248.562 10.523 m f
258.465 14.84 m 258.465 4.383 l 260.141 4.383 l 260.141 10.152 l 260.141
 12.289 261.254 13.687 262.969 13.687 c 264.285 13.687 265.121 12.887 265.121
 11.629 c 265.121 4.383 l 266.773 4.383 l 266.773 12.289 l 266.773 14.023
 265.48 15.144 263.465 15.144 c 261.91 15.144 260.914 14.543 260 13.09 c
 260 14.84 l h
258.465 14.84 m f
277.531 11.344 m 277.453 12.359 277.234 13.015 276.836 13.594 c 276.121
 14.566 274.863 15.144 273.41 15.144 c 270.598 15.144 268.766 12.922 268.766
 9.465 c 268.766 6.109 270.559 3.984 273.391 3.984 c 275.879 3.984 277.453
 5.472 277.652 8.015 c 275.98 8.015 l 275.703 6.351 274.844 5.519 273.43
 5.519 c 271.594 5.519 270.5 7.008 270.5 9.465 c 270.5 12.062 271.578 13.605
 273.391 13.605 c 274.785 13.605 275.66 12.793 275.859 11.344 c h
277.531 11.344 m f
285.844 14.844 m 282.953 6.679 l 280.285 14.844 l 278.512 14.844 l 282.039
 4.316 l 281.398 2.66 l 281.141 1.918 280.762 1.637 280.062 1.637 c 279.824
 1.637 279.547 1.679 279.188 1.758 c 279.188 0.258 l 279.523 0.082 279.863
 -0 280.305 -0 c 280.844 -0 281.418 0.179 281.855 0.5 c 282.379 0.879 282.676
 1.324 282.992 2.164 c 287.637 14.844 l h
285.844 14.844 m f
298.316 18.929 m 296.32 16.312 295.066 12.679 295.066 9.547 c 295.066 6.394
 296.32 2.762 298.316 0.144 c 299.41 0.144 l 297.656 3 296.684 6.355 296.684
 9.547 c 296.684 12.722 297.656 16.094 299.41 18.929 c h
298.316 18.929 m f
303.238 14.84 m 301.586 14.84 l 301.586 4.383 l 303.238 4.383 l h
303.238 18.929 m 301.562 18.929 l 301.562 16.832 l 303.238 16.832 l h
303.238 18.929 m f
306.066 14.84 m 306.066 4.383 l 307.742 4.383 l 307.742 10.152 l 307.742
 12.289 308.855 13.687 310.57 13.687 c 311.887 13.687 312.723 12.887 312.723
 11.629 c 312.723 4.383 l 314.375 4.383 l 314.375 12.289 l 314.375 14.023
 313.082 15.144 311.066 15.144 c 309.512 15.144 308.516 14.543 307.602 13.09
 c 307.602 14.84 l h
306.066 14.84 m f
335.418 12.152 m 329.359 12.152 l 329.359 10.519 l 333.781 10.519 l 333.781
 10.113 l 333.781 7.508 331.867 5.621 329.219 5.621 c 327.746 5.621 326.41
 6.156 325.555 7.094 c 324.594 8.121 324.02 9.851 324.02 11.637 c 324.02
 15.191 326.051 17.535 329.121 17.535 c 331.332 17.535 332.926 16.414 333.324
 14.57 c 335.219 14.57 l 334.699 17.492 332.465 19.172 329.141 19.172 c 
327.367 19.172 325.93 18.715 324.793 17.781 c 323.121 16.387 322.168 14.144
 322.168 11.539 c 322.168 7.086 324.895 3.984 328.82 3.984 c 330.793 3.984
 332.367 4.722 333.781 6.301 c 334.242 4.363 l 335.418 4.363 l h
335.418 12.152 m f
347.77 10.957 m 347.77 4.379 l 349.625 4.379 l 349.625 18.929 l 347.77 
18.929 l 347.77 12.597 l 340.297 12.597 l 340.297 18.929 l 338.445 18.929
 l 338.445 4.379 l 340.316 4.379 l 340.316 10.957 l h
347.77 10.957 m f
360.004 14.808 m 352.215 14.808 l 352.215 13.351 l 358.031 13.351 l 351.793
 5.879 l 351.793 4.383 l 360.285 4.383 l 360.285 5.84 l 353.809 5.84 l 360.004
 13.332 l h
360.004 14.808 m f
362.992 0.144 m 364.984 2.762 366.238 6.394 366.238 9.527 c 366.238 12.679
 364.984 16.312 362.992 18.929 c 361.895 18.929 l 363.648 16.074 364.625
 12.722 364.625 9.527 c 364.625 6.355 363.648 2.98 361.895 0.144 c h
362.992 0.144 m f
Q q
58.109 387.379 446.398 -345.602 re W n
q
58 387.449 447 -346 re W n
[ 1 0 0 1 0 -0.550995 ] concat
  q
Q q
58 43 446 -1 re W n
q
58 43 446 -1 re W n
  q
0 g
0.5 w
0 J
1 j
[ 1 3] 0 d
4 M 58.109 42.328 m 504.508 42.328 l S
  Q
Q
  Q
Q
Q q
0 g
0.5 w
0 J
1 j
[] 0.0 d
4 M 58.109 41.777 m 62.109 41.777 l S
504.508 41.777 m 500.508 41.777 l S
33.637 41.484 m 33.891 41.484 34.16 41.484 34.16 41.781 c 34.16 42.082 
33.891 42.082 33.637 42.082 c 25.551 42.082 l 25.297 42.082 25.031 42.082
 25.031 41.781 c 25.031 41.484 25.297 41.484 25.551 41.484 c h
33.637 41.484 m f
39.387 47.508 m 39.387 47.82 39.371 47.836 39.164 47.836 c 38.582 47.191
 37.699 46.984 36.863 46.984 c 36.816 46.984 36.742 46.984 36.727 46.953
 c 36.715 46.922 36.715 46.89 36.715 46.566 c 37.176 46.566 37.953 46.652
 38.551 47.012 c 38.551 39.125 l 38.551 38.597 38.52 38.422 37.234 38.422
 c 36.789 38.422 l 36.789 38.047 l 41.152 38.047 l 41.152 38.422 l 40.703
 38.422 l 39.418 38.422 39.387 38.582 39.387 39.117 c h
39.387 47.508 m f
45.016 38.765 m 45.016 39.195 44.656 39.492 44.297 39.492 c 43.867 39.492
 43.566 39.137 43.566 38.777 c 43.566 38.347 43.926 38.047 44.285 38.047
 c 44.719 38.047 45.016 38.402 45.016 38.765 c f
52.605 42.773 m 52.605 43.687 52.594 45.238 51.965 46.433 c 51.41 47.476
 50.527 47.847 49.754 47.847 c 49.035 47.847 48.125 47.523 47.555 46.445
 c 46.957 45.328 46.898 43.941 46.898 42.773 c 46.898 41.926 46.914 40.629
 47.375 39.492 c 48.02 37.957 49.172 37.746 49.754 37.746 c 50.441 37.746
 51.488 38.031 52.098 39.449 c 52.547 40.48 52.605 41.687 52.605 42.773 
c 49.754 37.984 m 48.797 37.984 48.23 38.804 48.02 39.941 c 47.855 40.82
 47.855 42.105 47.855 42.941 c 47.855 44.09 47.855 45.043 48.051 45.957 
c 48.336 47.222 49.172 47.609 49.754 47.609 c 50.367 47.609 51.156 47.207
 51.441 45.984 c 51.637 45.137 51.648 44.133 51.648 42.941 c 51.648 41.969
 51.648 40.777 51.473 39.894 c 51.156 38.269 50.277 37.984 49.754 37.984
 c f
Q q
58.109 387.379 446.398 -345.602 re W n
q
58 387.449 447 -346 re W n
[ 1 0 0 1 0 -0.550995 ] concat
  q
Q q
58 129 446 -1 re W n
q
58 129 446 -1 re W n
  q
0 g
0.5 w
0 J
1 j
[ 1 3] 0 d
4 M 58.109 128.73 m 504.508 128.73 l S
  Q
Q
  Q
Q
Q q
0 g
0.5 w
0 J
1 j
[] 0.0 d
4 M 58.109 128.179 m 62.109 128.179 l S
504.508 128.179 m 500.508 128.179 l S
33.637 127.883 m 33.891 127.883 34.16 127.883 34.16 128.183 c 34.16 128.48
 33.891 128.48 33.637 128.48 c 25.551 128.48 l 25.297 128.48 25.031 128.48
 25.031 128.183 c 25.031 127.883 25.297 127.883 25.551 127.883 c h
33.637 127.883 m f
41.688 129.176 m 41.688 130.09 41.676 131.64 41.047 132.832 c 40.492 133.879
 39.609 134.25 38.836 134.25 c 38.117 134.25 37.207 133.922 36.637 132.847
 c 36.039 131.726 35.98 130.34 35.98 129.176 c 35.98 128.324 35.996 127.031
 36.457 125.89 c 37.102 124.355 38.25 124.148 38.836 124.148 c 39.523 124.148
 40.566 124.429 41.18 125.847 c 41.629 126.879 41.688 128.086 41.688 129.176
 c 38.836 124.387 m 37.879 124.387 37.312 125.207 37.102 126.344 c 36.938
 127.222 36.938 128.504 36.938 129.34 c 36.938 130.488 36.938 131.445 37.133
 132.355 c 37.414 133.621 38.25 134.012 38.836 134.012 c 39.449 134.012 
40.238 133.605 40.523 132.387 c 40.719 131.535 40.73 130.535 40.73 129.34
 c 40.73 128.371 40.73 127.176 40.555 126.297 c 40.238 124.668 39.359 124.387
 38.836 124.387 c f
45.016 125.164 m 45.016 125.597 44.656 125.89 44.297 125.89 c 43.867 125.89
 43.566 125.535 43.566 125.179 c 43.566 124.746 43.926 124.445 44.285 124.445
 c 44.719 124.445 45.016 124.804 45.016 125.164 c f
48.035 133.066 m 48.184 133.008 48.797 132.816 49.426 132.816 c 50.812 
132.816 51.574 133.566 52.008 134 c 52.008 134.121 52.008 134.199 51.922
 134.199 c 51.906 134.199 51.875 134.199 51.754 134.137 c 51.23 133.91 50.621
 133.722 49.871 133.722 c 49.426 133.722 48.754 133.785 48.02 134.121 c 
47.855 134.199 47.824 134.199 47.812 134.199 c 47.738 134.199 47.719 134.179
 47.719 133.887 c 47.719 129.57 l 47.719 129.304 47.719 129.23 47.871 129.23
 c 47.945 129.23 47.973 129.258 48.051 129.363 c 48.527 130.047 49.184 130.336
 49.93 130.336 c 50.453 130.336 51.574 130.008 51.574 127.457 c 51.574 126.98
 51.574 126.117 51.125 125.429 c 50.754 124.816 50.172 124.504 49.531 124.504
 c 48.543 124.504 47.539 125.195 47.273 126.347 c 47.332 126.332 47.453 
126.304 47.512 126.304 c 47.707 126.304 48.078 126.41 48.078 126.871 c 48.078
 127.273 47.793 127.437 47.512 127.437 c 47.168 127.437 46.941 127.226 46.941
 126.808 c 46.941 125.508 47.973 124.148 49.559 124.148 c 51.098 124.148
 52.562 125.472 52.562 127.398 c 52.562 129.187 51.398 130.574 49.949 130.574
 c 49.184 130.574 48.543 130.289 48.035 129.746 c h
48.035 133.066 m f
Q q
58.109 387.379 446.398 -345.602 re W n
q
58 387.449 447 -346 re W n
[ 1 0 0 1 0 -0.550995 ] concat
  q
Q q
58 216 446 -2 re W n
q
58 216 446 -2 re W n
  q
0 g
0.5 w
0 J
1 j
[ 1 3] 0 d
4 M 58.109 215.129 m 504.508 215.129 l S
  Q
Q
  Q
Q
Q q
0 g
0.5 w
0 J
1 j
[] 0.0 d
4 M 58.109 214.578 m 62.109 214.578 l S
504.508 214.578 m 500.508 214.578 l S
41.688 215.574 m 41.688 216.488 41.676 218.039 41.047 219.23 c 40.492 220.277
 39.609 220.648 38.836 220.648 c 38.117 220.648 37.207 220.324 36.637 219.246
 c 36.039 218.129 35.98 216.742 35.98 215.574 c 35.98 214.726 35.996 213.429
 36.457 212.293 c 37.102 210.754 38.25 210.547 38.836 210.547 c 39.523 210.547
 40.566 210.832 41.18 212.246 c 41.629 213.281 41.688 214.488 41.688 215.574
 c 38.836 210.785 m 37.879 210.785 37.312 211.605 37.102 212.742 c 36.938
 213.621 36.938 214.906 36.938 215.742 c 36.938 216.89 36.938 217.844 37.133
 218.754 c 37.414 220.019 38.25 220.41 38.836 220.41 c 39.449 220.41 40.238
 220.008 40.523 218.785 c 40.719 217.937 40.73 216.933 40.73 215.742 c 40.73
 214.769 40.73 213.578 40.555 212.695 c 40.238 211.07 39.359 210.785 38.836
 210.785 c f
45.016 211.562 m 45.016 211.996 44.656 212.293 44.297 212.293 c 43.867 
212.293 43.566 211.933 43.566 211.578 c 43.566 211.144 43.926 210.847 44.285
 210.847 c 44.719 210.847 45.016 211.203 45.016 211.562 c f
52.605 215.574 m 52.605 216.488 52.594 218.039 51.965 219.23 c 51.41 220.277
 50.527 220.648 49.754 220.648 c 49.035 220.648 48.125 220.324 47.555 219.246
 c 46.957 218.129 46.898 216.742 46.898 215.574 c 46.898 214.726 46.914 
213.429 47.375 212.293 c 48.02 210.754 49.172 210.547 49.754 210.547 c 50.441
 210.547 51.488 210.832 52.098 212.246 c 52.547 213.281 52.605 214.488 52.605
 215.574 c 49.754 210.785 m 48.797 210.785 48.23 211.605 48.02 212.742 c
 47.855 213.621 47.855 214.906 47.855 215.742 c 47.855 216.89 47.855 217.844
 48.051 218.754 c 48.336 220.019 49.172 220.41 49.754 220.41 c 50.367 220.41
 51.156 220.008 51.441 218.785 c 51.637 217.937 51.648 216.933 51.648 215.742
 c 51.648 214.769 51.648 213.578 51.473 212.695 c 51.156 211.07 50.277 210.785
 49.754 210.785 c f
Q q
58.109 387.379 446.398 -345.602 re W n
q
58 387.449 447 -346 re W n
[ 1 0 0 1 0 -0.550995 ] concat
  q
Q q
58 302 446 -1 re W n
q
58 302 446 -1 re W n
  q
0 g
0.5 w
0 J
1 j
[ 1 3] 0 d
4 M 58.109 301.531 m 504.508 301.531 l S
  Q
Q
  Q
Q
Q q
0 g
0.5 w
0 J
1 j
[] 0.0 d
4 M 58.109 300.98 m 62.109 300.98 l S
504.508 300.98 m 500.508 300.98 l S
41.688 301.976 m 41.688 302.887 41.676 304.437 41.047 305.633 c 40.492 
306.679 39.609 307.051 38.836 307.051 c 38.117 307.051 37.207 306.722 36.637
 305.644 c 36.039 304.527 35.98 303.14 35.98 301.976 c 35.98 301.125 35.996
 299.828 36.457 298.691 c 37.102 297.156 38.25 296.949 38.836 296.949 c 
39.523 296.949 40.566 297.23 41.18 298.648 c 41.629 299.679 41.688 300.887
 41.688 301.976 c 38.836 297.187 m 37.879 297.187 37.312 298.004 37.102 
299.144 c 36.938 300.019 36.938 301.304 36.938 302.14 c 36.938 303.289 36.938
 304.246 37.133 305.156 c 37.414 306.422 38.25 306.812 38.836 306.812 c 
39.449 306.812 40.238 306.406 40.523 305.187 c 40.719 304.336 40.73 303.336
 40.73 302.14 c 40.73 301.168 40.73 299.976 40.555 299.097 c 40.238 297.469
 39.359 297.187 38.836 297.187 c f
45.016 297.965 m 45.016 298.394 44.656 298.691 44.297 298.691 c 43.867 
298.691 43.566 298.336 43.566 297.976 c 43.566 297.547 43.926 297.246 44.285
 297.246 c 44.719 297.246 45.016 297.605 45.016 297.965 c f
48.035 305.867 m 48.184 305.808 48.797 305.617 49.426 305.617 c 50.812 
305.617 51.574 306.363 52.008 306.801 c 52.008 306.922 52.008 306.996 51.922
 306.996 c 51.906 306.996 51.875 306.996 51.754 306.933 c 51.23 306.707 
50.621 306.523 49.871 306.523 c 49.426 306.523 48.754 306.586 48.02 306.922
 c 47.855 306.996 47.824 306.996 47.812 306.996 c 47.738 306.996 47.719 
306.98 47.719 306.683 c 47.719 302.371 l 47.719 302.105 47.719 302.027 47.871
 302.027 c 47.945 302.027 47.973 302.058 48.051 302.164 c 48.527 302.847
 49.184 303.137 49.93 303.137 c 50.453 303.137 51.574 302.808 51.574 300.258
 c 51.574 299.781 51.574 298.918 51.125 298.23 c 50.754 297.617 50.172 297.304
 49.531 297.304 c 48.543 297.304 47.539 297.992 47.273 299.148 c 47.332 
299.133 47.453 299.101 47.512 299.101 c 47.707 299.101 48.078 299.207 48.078
 299.672 c 48.078 300.07 47.793 300.234 47.512 300.234 c 47.168 300.234 
46.941 300.027 46.941 299.609 c 46.941 298.308 47.973 296.949 49.559 296.949
 c 51.098 296.949 52.562 298.273 52.562 300.199 c 52.562 301.988 51.398 
303.375 49.949 303.375 c 49.184 303.375 48.543 303.09 48.035 302.547 c h
48.035 305.867 m f
Q q
58.109 387.379 446.398 -345.602 re W n
q
58 387.449 447 -346 re W n
[ 1 0 0 1 0 -0.550995 ] concat
  q
Q q
58 389 446 -2 re W n
q
58 389 446 -2 re W n
  q
0 g
0.5 w
0 J
1 j
[ 1 3] 0 d
4 M 58.109 387.93 m 504.508 387.93 l S
  Q
Q
  Q
Q
Q q
0 g
0.5 w
0 J
1 j
[] 0.0 d
4 M 58.109 387.379 m 62.109 387.379 l S
504.508 387.379 m 500.508 387.379 l S
39.387 393.109 m 39.387 393.422 39.371 393.433 39.164 393.433 c 38.582 
392.789 37.699 392.582 36.863 392.582 c 36.816 392.582 36.742 392.582 36.727
 392.554 c 36.715 392.523 36.715 392.488 36.715 392.164 c 37.176 392.164
 37.953 392.254 38.551 392.609 c 38.551 384.722 l 38.551 384.199 38.52 384.019
 37.234 384.019 c 36.789 384.019 l 36.789 383.648 l 41.152 383.648 l 41.152
 384.019 l 40.703 384.019 l 39.418 384.019 39.387 384.183 39.387 384.715
 c h
39.387 393.109 m f
45.016 384.363 m 45.016 384.797 44.656 385.094 44.297 385.094 c 43.867 
385.094 43.566 384.734 43.566 384.379 c 43.566 383.945 43.926 383.648 44.285
 383.648 c 44.719 383.648 45.016 384.004 45.016 384.363 c f
52.605 388.375 m 52.605 389.289 52.594 390.84 51.965 392.031 c 51.41 393.078
 50.527 393.449 49.754 393.449 c 49.035 393.449 48.125 393.121 47.555 392.047
 c 46.957 390.926 46.898 389.539 46.898 388.375 c 46.898 387.523 46.914 
386.23 47.375 385.094 c 48.02 383.554 49.172 383.347 49.754 383.347 c 50.441
 383.347 51.488 383.629 52.098 385.047 c 52.547 386.078 52.605 387.289 52.605
 388.375 c 49.754 383.586 m 48.797 383.586 48.23 384.406 48.02 385.543 c
 47.855 386.422 47.855 387.707 47.855 388.543 c 47.855 389.691 47.855 390.644
 48.051 391.554 c 48.336 392.82 49.172 393.211 49.754 393.211 c 50.367 393.211
 51.156 392.808 51.441 391.586 c 51.637 390.734 51.648 389.734 51.648 388.543
 c 51.648 387.57 51.648 386.375 51.473 385.496 c 51.156 383.867 50.277 383.586
 49.754 383.586 c f
14.551 112.054 m 2.355 116.14 l 14.551 116.14 l 14.551 117.89 l 0 117.89
 l 0 115.324 l 12.676 111.097 l 0 106.797 l 0 104.222 l 14.551 104.222 l
 14.551 105.976 l 2.355 105.976 l 14.551 110.101 l h
14.551 112.054 m f
13.508 129.988 m 13.551 129.808 13.551 129.73 13.551 129.629 c 13.551 129.051
 13.254 128.734 12.738 128.734 c 6.621 128.734 l 4.777 128.734 3.785 127.379
 3.785 124.808 c 3.785 123.293 4.223 122.035 5 121.34 c 5.539 120.863 6.133
 120.664 7.168 120.621 c 7.168 122.297 l 5.898 122.433 5.324 123.195 5.324
 124.746 c 5.324 126.242 5.883 127.078 6.871 127.078 c 7.309 127.078 l 8.004
 127.078 8.301 126.66 8.457 125.344 c 8.754 122.996 8.836 122.633 9.094 
122 c 9.59 120.781 10.523 120.164 11.871 120.164 c 13.754 120.164 14.945
 121.48 14.945 123.594 c 14.945 124.906 14.484 125.961 13.41 127.14 c 14.469
 127.258 14.945 127.777 14.945 128.851 c 14.945 129.191 14.906 129.449 14.762
 129.988 c h
11.207 127.078 m 11.766 127.078 12.102 126.918 12.555 126.418 c 13.172 
125.746 13.488 124.926 13.488 123.949 c 13.488 122.656 12.875 121.898 11.824
 121.898 c 10.73 121.898 10.176 122.633 9.918 124.41 c 9.684 126.16 9.602
 126.519 9.348 127.078 c h
11.207 127.078 m f
4.145 138.617 m 5.66 138.617 l 4.422 137.777 3.844 136.762 3.844 135.426
 c 3.844 132.777 6.164 130.984 9.562 130.984 c 11.281 130.984 12.684 131.441
 13.688 132.301 c 14.566 133.078 15.086 134.191 15.086 135.289 c 15.086 
136.601 14.527 137.519 13.211 138.457 c 13.742 138.457 l 15.145 138.457 
15.992 138.277 16.566 137.859 c 17.172 137.422 17.531 136.562 17.531 135.547
 c 17.531 134.789 17.336 134.109 16.984 133.652 c 16.688 133.277 16.414 
133.113 15.809 133.015 c 15.809 131.32 l 17.762 131.5 18.93 133.035 18.93
 135.488 c 18.93 137.039 18.43 138.375 17.594 139.054 c 16.633 139.851 15.32
 140.152 12.871 140.152 c 4.145 140.152 l h
5.379 135.605 m 5.379 137.398 6.898 138.457 9.523 138.457 c 12.031 138.457
 13.551 137.379 13.551 135.629 c 13.551 133.812 12.004 132.715 9.465 132.715
 c 6.941 132.715 5.379 133.832 5.379 135.605 c f
4.086 142.879 m 14.547 142.879 l 14.547 144.554 l 8.777 144.554 l 6.641
 144.554 5.242 145.668 5.242 147.383 c 5.242 148.699 6.043 149.535 7.301
 149.535 c 14.547 149.535 l 14.547 151.187 l 6.641 151.187 l 4.902 151.187
 3.785 149.894 3.785 147.879 c 3.785 146.324 4.387 145.328 5.84 144.414 
c 4.086 144.414 l h
4.086 142.879 m f
4.086 155.551 m 4.086 153.898 l 14.547 153.898 l 14.547 155.551 l h
0 155.551 m 0 153.875 l 2.094 153.875 l 2.094 155.551 l h
0 155.551 m f
4.023 162.047 m 4.023 160.332 l 1.195 160.332 l 1.195 158.679 l 4.023 158.679
 l 4.023 157.265 l 5.379 157.265 l 5.379 158.679 l 13.289 158.679 l 14.348
 158.679 14.945 159.394 14.945 160.691 c 14.945 161.09 14.906 161.488 14.805
 162.047 c 13.406 162.047 l 13.469 161.828 13.488 161.57 13.488 161.25 c
 13.488 160.531 13.289 160.332 12.551 160.332 c 5.379 160.332 l 5.379 162.047
 l h
4.023 162.047 m f
14.441 172.129 m 3.984 172.129 l 3.984 170.476 l 9.941 170.476 l 12.086
 170.476 13.488 169.359 13.488 167.625 c 13.488 166.312 12.688 165.472 11.422
 165.472 c 3.984 165.472 l 3.984 163.82 l 12.078 163.82 l 13.824 163.82 
14.945 165.117 14.945 167.148 c 14.945 168.683 14.406 169.656 13.027 170.637
 c 14.441 170.637 l h
14.441 172.129 m f
0 183.465 m 0 181.812 l 5.402 181.812 l 4.348 181.117 3.785 180 3.785 178.601
 c 3.785 175.894 5.949 174.121 9.27 174.121 c 12.785 174.121 14.945 175.855
 14.945 178.664 c 14.945 180.097 14.406 181.094 13.109 181.992 c 14.551 
181.992 l 14.551 183.465 l h
5.344 178.883 m 5.344 180.676 6.926 181.812 9.406 181.812 c 11.801 181.812
 13.387 180.656 13.387 178.902 c 13.387 177.07 11.785 175.855 9.363 175.855
 c 6.949 175.855 5.344 177.07 5.344 178.883 c f
9.762 194.902 m 8.195 194.902 7.254 194.785 6.492 194.484 c 4.809 193.808
 3.785 192.211 3.785 190.262 c 3.785 187.351 6.008 185.48 9.426 185.48 c
 12.844 185.48 14.945 187.289 14.945 190.219 c 14.945 192.609 13.574 194.265
 11.281 194.683 c 11.281 193.012 l 12.68 192.551 13.41 191.613 13.41 190.281
 c 13.41 189.222 12.922 188.328 12.031 187.769 c 11.426 187.371 10.816 187.23
 9.762 187.211 c h
8.406 187.254 m 6.539 187.39 5.324 188.566 5.324 190.242 c 5.324 191.875
 6.633 193.133 8.289 193.133 c 8.328 193.133 8.367 193.133 8.406 193.109
 c h
8.406 187.254 m f
4.086 202.676 m 14.547 202.676 l 14.547 204.347 l 9.117 204.347 l 7.617
 204.347 6.641 204.726 6.062 205.523 c 5.684 206.039 5.562 206.539 5.562
 207.695 c 3.844 207.695 l 3.809 207.418 3.785 207.277 3.785 207.058 c 3.785
 205.98 4.426 205.164 5.984 204.207 c 4.086 204.207 l h
4.086 202.676 m f
9.762 218.156 m 8.195 218.156 7.254 218.035 6.492 217.738 c 4.809 217.058
 3.785 215.465 3.785 213.512 c 3.785 210.605 6.008 208.73 9.426 208.73 c
 12.844 208.73 14.945 210.543 14.945 213.472 c 14.945 215.863 13.574 217.515
 11.281 217.937 c 11.281 216.262 l 12.68 215.804 13.41 214.867 13.41 213.531
 c 13.41 212.476 12.922 211.578 12.031 211.023 c 11.426 210.625 10.816 210.484
 9.762 210.465 c h
8.406 210.504 m 6.539 210.644 5.324 211.82 5.324 213.496 c 5.324 215.125
 6.633 216.383 8.289 216.383 c 8.328 216.383 8.367 216.383 8.406 216.363
 c h
8.406 210.504 m f
6.988 227.738 m 4.941 227.719 3.785 226.367 3.785 223.953 c 3.785 221.523
 5.039 219.949 6.961 219.949 c 8.59 219.949 9.363 220.785 9.957 223.258 
c 10.332 224.808 l 10.613 225.969 11.027 226.426 11.781 226.426 c 12.754
 226.426 13.41 225.449 13.41 223.992 c 13.41 223.097 13.152 222.34 12.715
 221.922 c 12.414 221.66 12.121 221.543 11.387 221.445 c 11.387 219.691 
l 13.797 219.769 14.945 221.125 14.945 223.855 c 14.945 226.484 13.656 228.16
 11.652 228.16 c 10.105 228.16 9.25 227.281 8.754 225.207 c 8.379 223.613
 l 8.062 222.258 7.625 221.683 6.895 221.683 c 5.941 221.683 5.324 222.539
 5.324 223.894 c 5.324 225.23 5.898 225.945 6.988 225.984 c h
6.988 227.738 m f
18.93 230.051 m 18.93 231.722 l 13.551 231.722 l 14.629 232.601 15.105 
233.578 15.105 234.933 c 15.105 237.625 12.922 239.394 9.566 239.394 c 6.035
 239.394 3.824 237.683 3.824 234.914 c 3.824 233.5 4.465 232.363 5.699 231.586
 c 4.117 231.586 l 4.117 230.051 l h
5.379 234.637 m 5.379 236.465 7.012 237.66 9.527 237.66 c 11.922 237.66
 13.551 236.445 13.551 234.637 c 13.551 232.879 11.941 231.722 9.469 231.722
 c 6.988 231.722 5.379 232.879 5.379 234.637 c f
3.785 245.472 m 3.785 242.543 5.871 240.769 9.363 240.769 c 12.859 240.769
 14.945 242.523 14.945 245.492 c 14.945 248.422 12.859 250.215 9.445 250.215
 c 5.852 250.215 3.785 248.48 3.785 245.472 c 5.324 245.492 m 5.324 247.367
 6.848 248.48 9.426 248.48 c 11.863 248.48 13.41 247.324 13.41 245.492 c
 13.41 243.64 11.883 242.504 9.363 242.504 c 6.867 242.504 5.324 243.64 
5.324 245.492 c f
4.086 252.527 m 14.547 252.527 l 14.547 254.203 l 8.777 254.203 l 6.641
 254.203 5.242 255.316 5.242 257.027 c 5.242 258.344 6.043 259.183 7.301
 259.183 c 14.547 259.183 l 14.547 260.836 l 6.641 260.836 l 4.902 260.836
 3.785 259.539 3.785 257.527 c 3.785 255.972 4.387 254.976 5.84 254.062 
c 4.086 254.062 l h
4.086 252.527 m f
6.988 270.937 m 4.941 270.918 3.785 269.562 3.785 267.152 c 3.785 264.719
 5.039 263.148 6.961 263.148 c 8.59 263.148 9.363 263.984 9.957 266.453 
c 10.332 268.008 l 10.613 269.164 11.027 269.621 11.781 269.621 c 12.754
 269.621 13.41 268.644 13.41 267.191 c 13.41 266.293 13.152 265.539 12.715
 265.117 c 12.414 264.859 12.121 264.742 11.387 264.64 c 11.387 262.89 l
 13.797 262.965 14.945 264.32 14.945 267.051 c 14.945 269.683 13.656 271.355
 11.652 271.355 c 10.105 271.355 9.25 270.48 8.754 268.406 c 8.379 266.812
 l 8.062 265.457 7.625 264.883 6.895 264.883 c 5.941 264.883 5.324 265.738
 5.324 267.09 c 5.324 268.426 5.898 269.144 6.988 269.183 c h
6.988 270.937 m f
9.762 282.394 m 8.195 282.394 7.254 282.277 6.492 281.976 c 4.809 281.297
 3.785 279.703 3.785 277.75 c 3.785 274.844 6.008 272.969 9.426 272.969 
c 12.844 272.969 14.945 274.781 14.945 277.711 c 14.945 280.101 13.574 281.754
 11.281 282.176 c 11.281 280.5 l 12.68 280.043 13.41 279.105 13.41 277.769
 c 13.41 276.715 12.922 275.82 12.031 275.262 c 11.426 274.863 10.816 274.722
 9.762 274.703 c h
8.406 274.746 m 6.539 274.883 5.324 276.058 5.324 277.734 c 5.324 279.363
 6.633 280.621 8.289 280.621 c 8.328 280.621 8.367 280.621 8.406 280.601
 c h
8.406 274.746 m f
0 293.492 m 2.613 291.5 6.25 290.242 9.383 290.242 c 12.535 290.242 16.168
 291.5 18.781 293.492 c 18.781 294.586 l 15.93 292.836 12.574 291.859 9.383
 291.859 c 6.207 291.859 2.836 292.836 0 294.586 c h
0 293.492 m f
0 305.289 m 0 303.637 l 5.402 303.637 l 4.348 302.937 3.785 301.82 3.785
 300.426 c 3.785 297.715 5.949 295.941 9.27 295.941 c 12.785 295.941 14.945
 297.676 14.945 300.488 c 14.945 301.918 14.406 302.914 13.109 303.812 c
 14.551 303.812 l 14.551 305.289 l h
5.344 300.707 m 5.344 302.5 6.926 303.637 9.406 303.637 c 11.801 303.637
 13.387 302.48 13.387 300.722 c 13.387 298.894 11.785 297.676 9.363 297.676
 c 6.949 297.676 5.344 298.894 5.344 300.707 c f
14.547 308.078 m 14.547 314.633 l 14.547 316.008 14.168 317.023 13.336 
317.801 c 12.586 318.519 11.559 318.918 10.43 318.918 c 8.688 318.918 7.645
 318.121 6.93 316.265 c 6.305 317.582 5.219 318.277 3.727 318.277 c 2.66
 318.277 1.711 317.879 1.027 317.121 c 0.324 316.367 0 315.371 0 313.976
 c 0 308.078 l h
6.332 309.929 m 1.637 309.929 l 1.637 313.519 l 1.637 314.554 1.781 315.129
 2.164 315.629 c 2.57 316.148 3.176 316.426 3.988 316.426 c 4.777 316.426
 5.402 316.148 5.809 315.629 c 6.191 315.129 6.332 314.554 6.332 313.519
 c h
12.906 309.929 m 7.969 309.929 l 7.969 314.453 l 7.969 315.351 8.188 315.949
 8.656 316.387 c 9.113 316.824 9.742 317.062 10.449 317.062 c 11.137 317.062
 11.766 316.824 12.219 316.387 c 12.691 315.949 12.906 315.351 12.906 314.453
 c h
12.906 309.929 m f
18.781 321.644 m 16.168 323.637 12.535 324.894 9.402 324.894 c 6.25 324.894
 2.613 323.637 0 321.644 c 0 320.551 l 2.855 322.304 6.207 323.281 9.402
 323.281 c 12.574 323.281 15.949 322.304 18.781 320.551 c h
18.781 321.644 m f
1 w
58.109 387.379 m 504.508 387.379 l S
504.508 41.777 m 504.508 387.379 l S
58.109 41.777 m 504.508 41.777 l S
58.109 41.777 m 58.109 387.379 l S
1 g
429.137 292.457 m 496.109 292.457 l 497.711 292.457 498.508 293.258 498.508
 294.855 c 498.508 378.98 l 498.508 380.578 497.711 381.379 496.109 381.379
 c 429.137 381.379 l 427.539 381.379 426.738 380.578 426.738 378.98 c 426.738
 294.855 l 426.738 293.258 427.539 292.457 429.137 292.457 c h
429.137 292.457 m f
0 g
429.137 292.457 m 496.109 292.457 l 497.711 292.457 498.508 293.258 498.508
 294.855 c 498.508 378.98 l 498.508 380.578 497.711 381.379 496.109 381.379
 c 429.137 381.379 l 427.539 381.379 426.738 380.578 426.738 378.98 c 426.738
 294.855 l 426.738 293.258 427.539 292.457 429.137 292.457 c h
429.137 292.457 m S
0 0.501961 0 rg
2 w
2 J
431.539 372.262 m 455.539 372.262 l S
443.539 367.262 m 444.863 367.262 446.137 367.789 447.074 368.726 c 448.012
 369.664 448.539 370.933 448.539 372.262 c 448.539 373.586 448.012 374.859
 447.074 375.797 c 446.137 376.734 444.863 377.262 443.539 377.262 c 442.211
 377.262 440.938 376.734 440 375.797 c 439.062 374.859 438.539 373.586 438.539
 372.262 c 438.539 370.933 439.062 369.664 440 368.726 c 440.938 367.789
 442.211 367.262 443.539 367.262 c h
443.539 367.262 m f
0 g
1 w
0 J
443.539 367.262 m 444.863 367.262 446.137 367.789 447.074 368.726 c 448.012
 369.664 448.539 370.933 448.539 372.262 c 448.539 373.586 448.012 374.859
 447.074 375.797 c 446.137 376.734 444.863 377.262 443.539 377.262 c 442.211
 377.262 440.938 376.734 440 375.797 c 439.062 374.859 438.539 373.586 438.539
 372.262 c 438.539 370.933 439.062 369.664 440 368.726 c 440.938 367.789
 442.211 367.262 443.539 367.262 c h
443.539 367.262 m S
469.047 370.094 m 469.047 368.062 l 470.098 368.062 l 470.098 370.094 l
 471.355 370.094 l 471.355 371.039 l 470.098 371.039 l 470.098 376.551 l
 469.32 376.551 l 465.473 371.207 l 465.473 370.094 l h
469.047 371.039 m 466.391 371.039 l 469.047 374.754 l h
469.047 371.039 m f
475.754 376.789 m 475.754 368.058 l 476.652 368.058 l 476.652 368.898 l
 477.129 368.168 477.762 367.82 478.633 367.82 c 480.285 367.82 481.359 
369.168 481.359 371.242 c 481.359 373.265 480.332 374.515 478.684 374.515
 c 477.82 374.515 477.211 374.191 476.746 373.488 c 476.746 376.789 l h
478.492 373.582 m 479.602 373.582 480.32 372.617 480.32 371.133 c 480.32
 369.719 479.578 368.758 478.492 368.758 c 477.438 368.758 476.746 369.707
 476.746 371.168 c 476.746 372.633 477.438 373.582 478.492 373.582 c f
483.547 374.336 m 482.555 374.336 l 482.555 368.062 l 483.547 368.062 l
 h
483.547 376.789 m 482.543 376.789 l 482.543 375.531 l 483.547 375.531 l
 h
483.547 376.789 m f
487.445 374.375 m 486.418 374.375 l 486.418 376.07 l 485.426 376.07 l 485.426
 374.375 l 484.578 374.375 l 484.578 373.562 l 485.426 373.562 l 485.426
 368.816 l 485.426 368.179 485.855 367.82 486.633 367.82 c 486.871 367.82
 487.109 367.844 487.445 367.906 c 487.445 368.746 l 487.312 368.707 487.16
 368.695 486.969 368.695 c 486.535 368.695 486.418 368.816 486.418 369.258
 c 486.418 373.562 l 487.445 373.562 l h
487.445 374.375 m f
492.969 372.594 m 492.957 373.824 492.145 374.515 490.695 374.515 c 489.238
 374.515 488.293 373.765 488.293 372.613 c 488.293 371.633 488.797 371.172
 490.277 370.816 c 491.211 370.59 l 491.906 370.422 492.18 370.172 492.18
 369.719 c 492.18 369.137 491.594 368.742 490.723 368.742 c 490.184 368.742
 489.73 368.898 489.477 369.16 c 489.32 369.34 489.25 369.515 489.191 369.957
 c 488.141 369.957 l 488.188 368.512 489 367.82 490.637 367.82 c 492.215
 367.82 493.219 368.594 493.219 369.797 c 493.219 370.726 492.695 371.238
 491.449 371.535 c 490.492 371.762 l 489.68 371.949 489.336 372.215 489.336
 372.652 c 489.336 373.222 489.848 373.594 490.66 373.594 c 491.461 373.594
 491.891 373.25 491.918 372.594 c h
492.969 372.594 m f
0 0 1 rg
2 w
2 J
431.539 355.195 m 455.539 355.195 l S
443.539 360.195 m 438.539 350.195 l 448.539 350.195 l h
443.539 360.195 m f
0 g
1 w
0 J
0 j
443.539 360.195 m 438.539 350.195 l 448.539 350.195 l h
443.539 360.195 m S
470.828 359.484 m 466.453 359.484 l 465.82 354.894 l 466.785 354.894 l 
467.277 355.476 467.684 355.683 468.34 355.683 c 469.477 355.683 470.195
 354.906 470.195 353.652 c 470.195 352.429 469.488 351.691 468.34 351.691
 c 467.418 351.691 466.859 352.156 466.605 353.113 c 465.555 353.113 l 465.699
 352.422 465.82 352.086 466.07 351.773 c 466.547 351.129 467.41 350.758 
468.363 350.758 c 470.074 350.758 471.27 352 471.27 353.793 c 471.27 355.469
 470.16 356.617 468.535 356.617 c 467.934 356.617 467.457 356.461 466.965
 356.101 c 467.301 358.445 l 470.828 358.445 l h
470.828 359.484 m f
475.754 359.722 m 475.754 350.992 l 476.652 350.992 l 476.652 351.832 l
 477.129 351.101 477.762 350.758 478.633 350.758 c 480.285 350.758 481.359
 352.101 481.359 354.176 c 481.359 356.199 480.332 357.453 478.684 357.453
 c 477.82 357.453 477.211 357.129 476.746 356.422 c 476.746 359.722 l h
478.492 356.519 m 479.602 356.519 480.32 355.554 480.32 354.07 c 480.32
 352.652 479.578 351.691 478.492 351.691 c 477.438 351.691 476.746 352.64
 476.746 354.105 c 476.746 355.566 477.438 356.519 478.492 356.519 c f
483.547 357.269 m 482.555 357.269 l 482.555 350.996 l 483.547 350.996 l
 h
483.547 359.722 m 482.543 359.722 l 482.543 358.469 l 483.547 358.469 l
 h
483.547 359.722 m f
487.445 357.312 m 486.418 357.312 l 486.418 359.008 l 485.426 359.008 l
 485.426 357.312 l 484.578 357.312 l 484.578 356.496 l 485.426 356.496 l
 485.426 351.75 l 485.426 351.117 485.855 350.758 486.633 350.758 c 486.871
 350.758 487.109 350.781 487.445 350.84 c 487.445 351.679 l 487.312 351.644
 487.16 351.633 486.969 351.633 c 486.535 351.633 486.418 351.75 486.418
 352.195 c 486.418 356.496 l 487.445 356.496 l h
487.445 357.312 m f
492.969 355.531 m 492.957 356.758 492.145 357.453 490.695 357.453 c 489.238
 357.453 488.293 356.703 488.293 355.547 c 488.293 354.57 488.797 354.105
 490.277 353.75 c 491.211 353.523 l 491.906 353.355 492.18 353.109 492.18
 352.656 c 492.18 352.074 491.594 351.679 490.723 351.679 c 490.184 351.679
 489.73 351.832 489.477 352.094 c 489.32 352.273 489.25 352.453 489.191 
352.89 c 488.141 352.89 l 488.188 351.445 489 350.758 490.637 350.758 c 
492.215 350.758 493.219 351.527 493.219 352.73 c 493.219 353.66 492.695 
354.176 491.449 354.472 c 490.492 354.699 l 489.68 354.887 489.336 355.148
 489.336 355.59 c 489.336 356.16 489.848 356.531 490.66 356.531 c 491.461
 356.531 491.891 356.183 491.918 355.531 c h
492.969 355.531 m f
0.74902 0 0.74902 rg
2 w
2 J
1 j
431.539 338.133 m 455.539 338.133 l S
443.539 343.133 m 442.414 339.676 l 438.781 339.676 l 441.723 337.543 l
 440.598 334.086 l 443.539 336.222 l 446.477 334.086 l 445.355 337.543 l
 448.293 339.676 l 444.66 339.676 l h
443.539 343.133 m f
0 g
1 w
0 J
2 j
443.539 343.133 m 442.414 339.676 l 438.781 339.676 l 441.723 337.543 l
 440.598 334.086 l 443.539 336.222 l 446.477 334.086 l 445.355 337.543 l
 448.293 339.676 l 444.66 339.676 l h
443.539 343.133 m S
471.09 340.25 m 470.887 341.613 469.98 342.422 468.688 342.422 c 467.758
 342.422 466.918 341.969 466.418 341.219 c 465.891 340.394 465.652 339.355
 465.652 337.82 c 465.652 336.398 465.867 335.492 466.367 334.742 c 466.82
 334.062 467.562 333.691 468.496 333.691 c 470.109 333.691 471.27 334.898
 471.27 336.574 c 471.27 338.168 470.195 339.289 468.676 339.289 c 467.84
 339.289 467.18 338.965 466.727 338.344 c 466.738 340.367 467.41 341.488
 468.617 341.488 c 469.355 341.488 469.871 341.035 470.039 340.25 c h
468.543 338.355 m 469.562 338.355 470.195 337.64 470.195 336.492 c 470.195
 335.414 469.477 334.629 468.508 334.629 c 467.527 334.629 466.785 335.449
 466.785 336.551 c 466.785 337.617 467.504 338.355 468.543 338.355 c f
475.754 342.66 m 475.754 333.929 l 476.652 333.929 l 476.652 334.769 l 
477.129 334.039 477.762 333.691 478.633 333.691 c 480.285 333.691 481.359
 335.039 481.359 337.113 c 481.359 339.137 480.332 340.387 478.684 340.387
 c 477.82 340.387 477.211 340.062 476.746 339.359 c 476.746 342.66 l h
478.492 339.453 m 479.602 339.453 480.32 338.492 480.32 337.004 c 480.32
 335.59 479.578 334.629 478.492 334.629 c 477.438 334.629 476.746 335.578
 476.746 337.039 c 476.746 338.504 477.438 339.453 478.492 339.453 c f
483.547 340.207 m 482.555 340.207 l 482.555 333.933 l 483.547 333.933 l
 h
483.547 342.66 m 482.543 342.66 l 482.543 341.402 l 483.547 341.402 l h
483.547 342.66 m f
487.445 340.246 m 486.418 340.246 l 486.418 341.941 l 485.426 341.941 l
 485.426 340.246 l 484.578 340.246 l 484.578 339.433 l 485.426 339.433 l
 485.426 334.687 l 485.426 334.051 485.855 333.691 486.633 333.691 c 486.871
 333.691 487.109 333.715 487.445 333.777 c 487.445 334.617 l 487.312 334.578
 487.16 334.566 486.969 334.566 c 486.535 334.566 486.418 334.687 486.418
 335.129 c 486.418 339.433 l 487.445 339.433 l h
487.445 340.246 m f
492.969 338.465 m 492.957 339.695 492.145 340.387 490.695 340.387 c 489.238
 340.387 488.293 339.637 488.293 338.484 c 488.293 337.508 488.797 337.043
 490.277 336.687 c 491.211 336.461 l 491.906 336.293 492.18 336.043 492.18
 335.59 c 492.18 335.008 491.594 334.613 490.723 334.613 c 490.184 334.613
 489.73 334.769 489.477 335.031 c 489.32 335.211 489.25 335.387 489.191 
335.828 c 488.141 335.828 l 488.188 334.383 489 333.691 490.637 333.691 
c 492.215 333.691 493.219 334.465 493.219 335.668 c 493.219 336.597 492.695
 337.109 491.449 337.406 c 490.492 337.633 l 489.68 337.82 489.336 338.086
 489.336 338.523 c 489.336 339.094 489.848 339.465 490.66 339.465 c 491.461
 339.465 491.891 339.121 491.918 338.465 c h
492.969 338.465 m f
1 0 0 rg
2 w
2 J
1 j
431.539 321.066 m 455.539 321.066 l S
438.539 321.066 m 448.539 321.066 l 443.539 316.066 m 443.539 326.066 l
 f
0 g
1 w
0 J
438.539 321.066 m 448.539 321.066 l 443.539 316.066 m 443.539 326.066 l
 S
471.355 325.32 m 465.688 325.32 l 465.688 324.281 l 470.266 324.281 l 468.246
 321.387 467.418 319.605 466.785 316.808 c 467.91 316.808 l 468.375 319.535
 469.441 321.875 471.355 324.433 c h
471.355 325.32 m f
475.754 325.594 m 475.754 316.863 l 476.652 316.863 l 476.652 317.703 l
 477.129 316.972 477.762 316.629 478.633 316.629 c 480.285 316.629 481.359
 317.972 481.359 320.047 c 481.359 322.074 480.332 323.324 478.684 323.324
 c 477.82 323.324 477.211 323 476.746 322.293 c 476.746 325.594 l h
478.492 322.39 m 479.602 322.39 480.32 321.426 480.32 319.941 c 480.32 
318.523 479.578 317.562 478.492 317.562 c 477.438 317.562 476.746 318.515
 476.746 319.976 c 476.746 321.437 477.438 322.39 478.492 322.39 c f
483.547 323.144 m 482.555 323.144 l 482.555 316.867 l 483.547 316.867 l
 h
483.547 325.594 m 482.543 325.594 l 482.543 324.34 l 483.547 324.34 l h
483.547 325.594 m f
487.445 323.183 m 486.418 323.183 l 486.418 324.879 l 485.426 324.879 l
 485.426 323.183 l 484.578 323.183 l 484.578 322.367 l 485.426 322.367 l
 485.426 317.621 l 485.426 316.988 485.855 316.629 486.633 316.629 c 486.871
 316.629 487.109 316.652 487.445 316.715 c 487.445 317.551 l 487.312 317.515
 487.16 317.504 486.969 317.504 c 486.535 317.504 486.418 317.621 486.418
 318.066 c 486.418 322.367 l 487.445 322.367 l h
487.445 323.183 m f
492.969 321.402 m 492.957 322.629 492.145 323.324 490.695 323.324 c 489.238
 323.324 488.293 322.574 488.293 321.418 c 488.293 320.441 488.797 319.976
 490.277 319.621 c 491.211 319.394 l 491.906 319.226 492.18 318.98 492.18
 318.527 c 492.18 317.945 491.594 317.551 490.723 317.551 c 490.184 317.551
 489.73 317.703 489.477 317.965 c 489.32 318.144 489.25 318.324 489.191 
318.762 c 488.141 318.762 l 488.188 317.316 489 316.629 490.637 316.629 
c 492.215 316.629 493.219 317.402 493.219 318.601 c 493.219 319.531 492.695
 320.047 491.449 320.344 c 490.492 320.57 l 489.68 320.758 489.336 321.019
 489.336 321.461 c 489.336 322.031 489.848 322.402 490.66 322.402 c 491.461
 322.402 491.891 322.054 491.918 321.402 c h
492.969 321.402 m f
0.74902 0.74902 0 rg
2 w
2 J
431.539 304.004 m 455.539 304.004 l S
443.539 309.004 m 438.781 305.547 l 440.598 299.957 l 446.477 299.957 l
 448.293 305.547 l h
443.539 309.004 m f
0 g
1 w
0 J
0 j
443.539 309.004 m 438.781 305.547 l 440.598 299.957 l 446.477 299.957 l
 448.293 305.547 l h
443.539 309.004 m S
469.812 304.285 m 470.684 304.808 470.973 305.238 470.973 306.039 c 470.973
 307.363 469.93 308.293 468.426 308.293 c 466.93 308.293 465.879 307.363
 465.879 306.039 c 465.879 305.254 466.164 304.824 467.027 304.285 c 466.059
 303.82 465.578 303.117 465.578 302.187 c 465.578 300.637 466.75 299.566
 468.426 299.566 c 470.098 299.566 471.27 300.637 471.27 302.176 c 471.27
 303.117 470.793 303.82 469.812 304.285 c 468.426 307.359 m 469.32 307.359
 469.895 306.836 469.895 306.015 c 469.895 305.226 469.309 304.707 468.426
 304.707 c 467.539 304.707 466.953 305.226 466.953 306.027 c 466.953 306.836
 467.539 307.359 468.426 307.359 c 468.426 303.816 m 469.477 303.816 470.195
 303.152 470.195 302.164 c 470.195 301.164 469.477 300.5 468.402 300.5 c
 467.375 300.5 466.656 301.176 466.656 302.164 c 466.656 303.152 467.375
 303.816 468.426 303.816 c f
475.754 308.531 m 475.754 299.801 l 476.652 299.801 l 476.652 300.64 l 
477.129 299.91 477.762 299.566 478.633 299.566 c 480.285 299.566 481.359
 300.91 481.359 302.984 c 481.359 305.008 480.332 306.258 478.684 306.258
 c 477.82 306.258 477.211 305.933 476.746 305.23 c 476.746 308.531 l h
478.492 305.324 m 479.602 305.324 480.32 304.363 480.32 302.875 c 480.32
 301.461 479.578 300.5 478.492 300.5 c 477.438 300.5 476.746 301.449 476.746
 302.91 c 476.746 304.375 477.438 305.324 478.492 305.324 c f
483.547 306.078 m 482.555 306.078 l 482.555 299.804 l 483.547 299.804 l
 h
483.547 308.531 m 482.543 308.531 l 482.543 307.273 l 483.547 307.273 l
 h
483.547 308.531 m f
487.445 306.117 m 486.418 306.117 l 486.418 307.812 l 485.426 307.812 l
 485.426 306.117 l 484.578 306.117 l 484.578 305.304 l 485.426 305.304 l
 485.426 300.558 l 485.426 299.922 485.855 299.566 486.633 299.566 c 486.871
 299.566 487.109 299.586 487.445 299.648 c 487.445 300.488 l 487.312 300.449
 487.16 300.437 486.969 300.437 c 486.535 300.437 486.418 300.558 486.418
 301 c 486.418 305.304 l 487.445 305.304 l h
487.445 306.117 m f
492.969 304.336 m 492.957 305.566 492.145 306.258 490.695 306.258 c 489.238
 306.258 488.293 305.508 488.293 304.355 c 488.293 303.379 488.797 302.914
 490.277 302.558 c 491.211 302.332 l 491.906 302.164 492.18 301.914 492.18
 301.461 c 492.18 300.879 491.594 300.484 490.723 300.484 c 490.184 300.484
 489.73 300.64 489.477 300.902 c 489.32 301.082 489.25 301.258 489.191 301.699
 c 488.141 301.699 l 488.188 300.254 489 299.566 490.637 299.566 c 492.215
 299.566 493.219 300.336 493.219 301.539 c 493.219 302.469 492.695 302.98
 491.449 303.277 c 490.492 303.504 l 489.68 303.691 489.336 303.957 489.336
 304.394 c 489.336 304.969 489.848 305.336 490.66 305.336 c 491.461 305.336
 491.891 304.992 491.918 304.336 c h
492.969 304.336 m f
Q Q
showpage
%%Trailer
end restore
%%EOF
