%!PS-Adobe-3.0 EPSF-3.0
%%Creator: cairo 1.13.1 (http://cairographics.org)
%%CreationDate: Wed Aug 10 16:10:46 2016
%%Pages: 1
%%DocumentData: Clean7Bit
%%LanguageLevel: 2
%%BoundingBox: 0 -1 501 394
%%EndComments
%%BeginProlog
save
50 dict begin
/q { gsave } bind def
/Q { grestore } bind def
/cm { 6 array astore concat } bind def
/w { setlinewidth } bind def
/J { setlinecap } bind def
/j { setlinejoin } bind def
/M { setmiterlimit } bind def
/d { setdash } bind def
/m { moveto } bind def
/l { lineto } bind def
/c { curveto } bind def
/h { closepath } bind def
/re { exch dup neg 3 1 roll 5 3 roll moveto 0 rlineto
      0 exch rlineto 0 rlineto closepath } bind def
/S { stroke } bind def
/f { fill } bind def
/f* { eofill } bind def
/n { newpath } bind def
/W { clip } bind def
/W* { eoclip } bind def
/BT { } bind def
/ET { } bind def
/pdfmark where { pop globaldict /?pdfmark /exec load put }
    { globaldict begin /?pdfmark /pop load def /pdfmark
    /cleartomark load def end } ifelse
/BDC { mark 3 1 roll /BDC pdfmark } bind def
/EMC { mark /EMC pdfmark } bind def
/cairo_store_point { /cairo_point_y exch def /cairo_point_x exch def } def
/Tj { show currentpoint cairo_store_point } bind def
/TJ {
  {
    dup
    type /stringtype eq
    { show } { -0.001 mul 0 cairo_font_matrix dtransform rmoveto } ifelse
  } forall
  currentpoint cairo_store_point
} bind def
/cairo_selectfont { cairo_font_matrix aload pop pop pop 0 0 6 array astore
    cairo_font exch selectfont cairo_point_x cairo_point_y moveto } bind def
/Tf { pop /cairo_font exch def /cairo_font_matrix where
      { pop cairo_selectfont } if } bind def
/Td { matrix translate cairo_font_matrix matrix concatmatrix dup
      /cairo_font_matrix exch def dup 4 get exch 5 get cairo_store_point
      /cairo_font where { pop cairo_selectfont } if } bind def
/Tm { 2 copy 8 2 roll 6 array astore /cairo_font_matrix exch def
      cairo_store_point /cairo_font where { pop cairo_selectfont } if } bind def
/g { setgray } bind def
/rg { setrgbcolor } bind def
/d1 { setcachedevice } bind def
%%EndProlog
%%BeginSetup
%%EndSetup
%%Page: 1 1
%%BeginPageSetup
%%PageBoundingBox: 0 -1 501 394
%%EndPageSetup
q 0 -1 501 395 rectclip q
1 g
46.73 387.383 446.398 -345.602 re f
Q q
46.73 387.383 446.398 -345.602 re W n
q
46 387.512 448 -346 re W n
[ 1 0 0 1 0 -0.488007 ] concat
  q
Q q
45 251 449 -7 re W n
q
45 251 449 -7 re W n
  q
0 0 1 rg
2 w
2 J
1 j
[] 0.0 d
4 M 46.73 249.629 m 63.246 249.516 l 100.742 249.152 l 120.387 249.305 l 143.152
 249.441 l 159.223 249.297 l 202.074 248.754 l 226.184 248.879 l 244.484
 248.863 l 261.445 248.609 l 295.375 248.031 l 313.676 248.023 l 340.906
 248.012 l 357.871 247.738 l 395.367 247.035 l 415.008 247 l 439.113 246.934
 l 456.078 246.641 l 492.684 245.91 l S
  Q
Q
Q q
40 256 415 -15 re W n
q
40 256 415 -15 re W n
  q
0 0 1 rg
46.73 254.629 m 41.73 244.629 l 51.73 244.629 l h
46.73 254.629 m f
0 g
1 w
0 J
0 j
[] 0.0 d
4 M 46.73 254.629 m 41.73 244.629 l 51.73 244.629 l h
46.73 254.629 m S
0 0 1 rg
91.367 254.172 m 86.367 244.172 l 96.367 244.172 l h
91.367 254.172 m f
0 g
91.367 254.172 m 86.367 244.172 l 96.367 244.172 l h
91.367 254.172 m S
0 0 1 rg
136.008 254.434 m 131.008 244.434 l 141.008 244.434 l h
136.008 254.434 m f
0 g
136.008 254.434 m 131.008 244.434 l 141.008 244.434 l h
136.008 254.434 m S
0 0 1 rg
180.648 253.922 m 175.648 243.922 l 185.648 243.922 l h
180.648 253.922 m f
0 g
180.648 253.922 m 175.648 243.922 l 185.648 243.922 l h
180.648 253.922 m S
0 0 1 rg
225.289 253.875 m 220.289 243.875 l 230.289 243.875 l h
225.289 253.875 m f
0 g
225.289 253.875 m 220.289 243.875 l 230.289 243.875 l h
225.289 253.875 m S
0 0 1 rg
269.93 253.43 m 264.93 243.43 l 274.93 243.43 l h
269.93 253.43 m f
0 g
269.93 253.43 m 264.93 243.43 l 274.93 243.43 l h
269.93 253.43 m S
0 0 1 rg
314.57 253.027 m 309.57 243.027 l 319.57 243.027 l h
314.57 253.027 m f
0 g
314.57 253.027 m 309.57 243.027 l 319.57 243.027 l h
314.57 253.027 m S
0 0 1 rg
359.207 252.707 m 354.207 242.707 l 364.207 242.707 l h
359.207 252.707 m f
0 g
359.207 252.707 m 354.207 242.707 l 364.207 242.707 l h
359.207 252.707 m S
0 0 1 rg
403.848 251.996 m 398.848 241.996 l 408.848 241.996 l h
403.848 251.996 m f
0 g
403.848 251.996 m 398.848 241.996 l 408.848 241.996 l h
403.848 251.996 m S
0 0 1 rg
448.488 251.797 m 443.488 241.797 l 453.488 241.797 l h
448.488 251.797 m f
0 g
448.488 251.797 m 443.488 241.797 l 453.488 241.797 l h
448.488 251.797 m S
  Q
Q
Q q
45 251 449 -24 re W n
q
45 251 449 -24 re W n
  q
0 0.501961 0 rg
2 w
2 J
1 j
[] 0.0 d
4 M 46.73 249.629 m 49.406 249.523 l 52.086 249.219 l 55.211 248.617 l 58.336
 247.781 l 61.906 246.594 l 66.816 244.684 l 75.746 241.141 l 79.316 239.977
 l 82.441 239.184 l 85.117 238.711 l 87.797 238.441 l 90.477 238.395 l 93.156
 238.566 l 95.832 238.949 l 98.957 239.633 l 102.527 240.672 l 106.992 242.234
 l 117.262 245.949 l 120.832 246.973 l 123.957 247.652 l 127.082 248.098
 l 129.758 248.27 l 132.438 248.242 l 135.117 248.012 l 138.242 247.504 
l 141.367 246.75 l 144.938 245.637 l 148.953 244.141 l 163.238 238.555 l
 166.363 237.668 l 169.488 237.012 l 172.168 236.656 l 174.848 236.508 l
 177.523 236.559 l 180.648 236.871 l 183.773 237.422 l 187.344 238.293 l
 191.809 239.625 l 202.523 242.941 l 206.094 243.785 l 209.219 244.316 l
 212.344 244.629 l 215.469 244.699 l 218.594 244.523 l 221.719 244.098 l
 224.844 243.445 l 228.414 242.461 l 232.43 241.105 l 239.125 238.559 l 
244.93 236.422 l 248.949 235.18 l 252.52 234.328 l 255.645 233.816 l 258.77
 233.547 l 261.895 233.523 l 265.02 233.734 l 268.145 234.16 l 271.715 234.852
 l 276.625 236.059 l 287.34 238.785 l 291.355 239.527 l 294.926 239.953 
l 298.051 240.117 l 301.176 240.066 l 304.301 239.805 l 307.426 239.34 l
 310.996 238.582 l 315.016 237.496 l 320.82 235.652 l 329.301 232.953 l 
333.316 231.91 l 336.891 231.199 l 340.016 230.777 l 343.141 230.562 l 346.262
 230.551 l 349.836 230.773 l 353.406 231.223 l 357.871 232.016 l 365.906
 233.742 l 371.707 234.879 l 375.727 235.461 l 379.297 235.777 l 382.867
 235.887 l 386.438 235.766 l 390.012 235.426 l 394.027 234.797 l 398.492
 233.855 l 404.742 232.277 l 413.223 230.156 l 417.688 229.273 l 421.703
 228.719 l 425.277 228.441 l 428.848 228.379 l 432.418 228.527 l 436.438
 228.914 l 441.348 229.629 l 458.309 232.367 l 462.328 232.691 l 466.344
 232.801 l 470.363 232.676 l 474.379 232.328 l 478.844 231.719 l 484.648
 230.676 l 492.684 229.086 l S
  Q
Q
Q q
41 256 413 -31 re W n
q
41 256 413 -31 re W n
  q
0 0.501961 0 rg
46.73 244.629 m 48.055 244.629 49.328 245.156 50.266 246.094 c 51.203 247.031
 51.73 248.305 51.73 249.629 c 51.73 250.957 51.203 252.227 50.266 253.164
 c 49.328 254.102 48.055 254.629 46.73 254.629 c 45.402 254.629 44.133 254.102
 43.191 253.164 c 42.254 252.227 41.73 250.957 41.73 249.629 c 41.73 248.305
 42.254 247.031 43.191 246.094 c 44.133 245.156 45.402 244.629 46.73 244.629
 c h
46.73 244.629 m f
0 g
1 w
0 J
1 j
[] 0.0 d
4 M 46.73 244.629 m 48.055 244.629 49.328 245.156 50.266 246.094 c 51.203 247.031
 51.73 248.305 51.73 249.629 c 51.73 250.957 51.203 252.227 50.266 253.164
 c 49.328 254.102 48.055 254.629 46.73 254.629 c 45.402 254.629 44.133 254.102
 43.191 253.164 c 42.254 252.227 41.73 250.957 41.73 249.629 c 41.73 248.305
 42.254 247.031 43.191 246.094 c 44.133 245.156 45.402 244.629 46.73 244.629
 c h
46.73 244.629 m S
0 0.501961 0 rg
91.367 233.43 m 92.695 233.43 93.965 233.957 94.906 234.895 c 95.844 235.832
 96.367 237.102 96.367 238.43 c 96.367 239.754 95.844 241.027 94.906 241.965
 c 93.965 242.902 92.695 243.43 91.367 243.43 c 90.043 243.43 88.77 242.902
 87.832 241.965 c 86.895 241.027 86.367 239.754 86.367 238.43 c 86.367 237.102
 86.895 235.832 87.832 234.895 c 88.77 233.957 90.043 233.43 91.367 233.43
 c h
91.367 233.43 m f
0 g
91.367 233.43 m 92.695 233.43 93.965 233.957 94.906 234.895 c 95.844 235.832
 96.367 237.102 96.367 238.43 c 96.367 239.754 95.844 241.027 94.906 241.965
 c 93.965 242.902 92.695 243.43 91.367 243.43 c 90.043 243.43 88.77 242.902
 87.832 241.965 c 86.895 241.027 86.367 239.754 86.367 238.43 c 86.367 237.102
 86.895 235.832 87.832 234.895 c 88.77 233.957 90.043 233.43 91.367 233.43
 c h
91.367 233.43 m S
0 0.501961 0 rg
136.008 242.895 m 137.336 242.895 138.605 243.418 139.543 244.355 c 140.48
 245.293 141.008 246.566 141.008 247.895 c 141.008 249.219 140.48 250.492
 139.543 251.43 c 138.605 252.367 137.336 252.895 136.008 252.895 c 134.684
 252.895 133.41 252.367 132.473 251.43 c 131.535 250.492 131.008 249.219
 131.008 247.895 c 131.008 246.566 131.535 245.293 132.473 244.355 c 133.41
 243.418 134.684 242.895 136.008 242.895 c h
136.008 242.895 m f
0 g
136.008 242.895 m 137.336 242.895 138.605 243.418 139.543 244.355 c 140.48
 245.293 141.008 246.566 141.008 247.895 c 141.008 249.219 140.48 250.492
 139.543 251.43 c 138.605 252.367 137.336 252.895 136.008 252.895 c 134.684
 252.895 133.41 252.367 132.473 251.43 c 131.535 250.492 131.008 249.219
 131.008 247.895 c 131.008 246.566 131.535 245.293 132.473 244.355 c 133.41
 243.418 134.684 242.895 136.008 242.895 c h
136.008 242.895 m S
0 0.501961 0 rg
180.648 231.871 m 181.977 231.871 183.246 232.398 184.184 233.336 c 185.121
 234.273 185.648 235.543 185.648 236.871 c 185.648 238.195 185.121 239.469
 184.184 240.406 c 183.246 241.344 181.977 241.871 180.648 241.871 c 179.324
 241.871 178.051 241.344 177.113 240.406 c 176.176 239.469 175.648 238.195
 175.648 236.871 c 175.648 235.543 176.176 234.273 177.113 233.336 c 178.051
 232.398 179.324 231.871 180.648 231.871 c h
180.648 231.871 m f
0 g
180.648 231.871 m 181.977 231.871 183.246 232.398 184.184 233.336 c 185.121
 234.273 185.648 235.543 185.648 236.871 c 185.648 238.195 185.121 239.469
 184.184 240.406 c 183.246 241.344 181.977 241.871 180.648 241.871 c 179.324
 241.871 178.051 241.344 177.113 240.406 c 176.176 239.469 175.648 238.195
 175.648 236.871 c 175.648 235.543 176.176 234.273 177.113 233.336 c 178.051
 232.398 179.324 231.871 180.648 231.871 c h
180.648 231.871 m S
0 0.501961 0 rg
225.289 238.336 m 226.613 238.336 227.887 238.863 228.824 239.801 c 229.762
 240.738 230.289 242.012 230.289 243.336 c 230.289 244.664 229.762 245.934
 228.824 246.871 c 227.887 247.809 226.613 248.336 225.289 248.336 c 223.961
 248.336 222.691 247.809 221.754 246.871 c 220.816 245.934 220.289 244.664
 220.289 243.336 c 220.289 242.012 220.816 240.738 221.754 239.801 c 222.691
 238.863 223.961 238.336 225.289 238.336 c h
225.289 238.336 m f
0 g
225.289 238.336 m 226.613 238.336 227.887 238.863 228.824 239.801 c 229.762
 240.738 230.289 242.012 230.289 243.336 c 230.289 244.664 229.762 245.934
 228.824 246.871 c 227.887 247.809 226.613 248.336 225.289 248.336 c 223.961
 248.336 222.691 247.809 221.754 246.871 c 220.816 245.934 220.289 244.664
 220.289 243.336 c 220.289 242.012 220.816 240.738 221.754 239.801 c 222.691
 238.863 223.961 238.336 225.289 238.336 c h
225.289 238.336 m S
0 0.501961 0 rg
269.93 229.48 m 271.254 229.48 272.527 230.008 273.465 230.945 c 274.402
 231.883 274.93 233.156 274.93 234.48 c 274.93 235.809 274.402 237.078 273.465
 238.016 c 272.527 238.953 271.254 239.48 269.93 239.48 c 268.602 239.48
 267.332 238.953 266.395 238.016 c 265.457 237.078 264.93 235.809 264.93
 234.48 c 264.93 233.156 265.457 231.883 266.395 230.945 c 267.332 230.008
 268.602 229.48 269.93 229.48 c h
269.93 229.48 m f
0 g
269.93 229.48 m 271.254 229.48 272.527 230.008 273.465 230.945 c 274.402
 231.883 274.93 233.156 274.93 234.48 c 274.93 235.809 274.402 237.078 273.465
 238.016 c 272.527 238.953 271.254 239.48 269.93 239.48 c 268.602 239.48
 267.332 238.953 266.395 238.016 c 265.457 237.078 264.93 235.809 264.93
 234.48 c 264.93 233.156 265.457 231.883 266.395 230.945 c 267.332 230.008
 268.602 229.48 269.93 229.48 c h
269.93 229.48 m S
0 0.501961 0 rg
314.57 232.625 m 315.895 232.625 317.168 233.152 318.105 234.09 c 319.043
 235.027 319.57 236.297 319.57 237.625 c 319.57 238.949 319.043 240.223 
318.105 241.16 c 317.168 242.098 315.895 242.625 314.57 242.625 c 313.242
 242.625 311.973 242.098 311.035 241.16 c 310.094 240.223 309.57 238.949
 309.57 237.625 c 309.57 236.297 310.094 235.027 311.035 234.09 c 311.973
 233.152 313.242 232.625 314.57 232.625 c h
314.57 232.625 m f
0 g
314.57 232.625 m 315.895 232.625 317.168 233.152 318.105 234.09 c 319.043
 235.027 319.57 236.297 319.57 237.625 c 319.57 238.949 319.043 240.223 
318.105 241.16 c 317.168 242.098 315.895 242.625 314.57 242.625 c 313.242
 242.625 311.973 242.098 311.035 241.16 c 310.094 240.223 309.57 238.949
 309.57 237.625 c 309.57 236.297 310.094 235.027 311.035 234.09 c 311.973
 233.152 313.242 232.625 314.57 232.625 c h
314.57 232.625 m S
0 0.501961 0 rg
359.207 227.289 m 360.535 227.289 361.809 227.816 362.746 228.754 c 363.684
 229.691 364.207 230.961 364.207 232.289 c 364.207 233.613 363.684 234.887
 362.746 235.824 c 361.809 236.762 360.535 237.289 359.207 237.289 c 357.883
 237.289 356.609 236.762 355.672 235.824 c 354.734 234.887 354.207 233.613
 354.207 232.289 c 354.207 230.961 354.734 229.691 355.672 228.754 c 356.609
 227.816 357.883 227.289 359.207 227.289 c h
359.207 227.289 m f
0 g
359.207 227.289 m 360.535 227.289 361.809 227.816 362.746 228.754 c 363.684
 229.691 364.207 230.961 364.207 232.289 c 364.207 233.613 363.684 234.887
 362.746 235.824 c 361.809 236.762 360.535 237.289 359.207 237.289 c 357.883
 237.289 356.609 236.762 355.672 235.824 c 354.734 234.887 354.207 233.613
 354.207 232.289 c 354.207 230.961 354.734 229.691 355.672 228.754 c 356.609
 227.816 357.883 227.289 359.207 227.289 c h
359.207 227.289 m S
0 0.501961 0 rg
403.848 227.512 m 405.176 227.512 406.445 228.039 407.383 228.977 c 408.32
 229.914 408.848 231.188 408.848 232.512 c 408.848 233.84 408.32 235.113
 407.383 236.051 c 406.445 236.988 405.176 237.512 403.848 237.512 c 402.523
 237.512 401.25 236.988 400.312 236.051 c 399.375 235.113 398.848 233.84
 398.848 232.512 c 398.848 231.188 399.375 229.914 400.312 228.977 c 401.25
 228.039 402.523 227.512 403.848 227.512 c h
403.848 227.512 m f
0 g
403.848 227.512 m 405.176 227.512 406.445 228.039 407.383 228.977 c 408.32
 229.914 408.848 231.188 408.848 232.512 c 408.848 233.84 408.32 235.113
 407.383 236.051 c 406.445 236.988 405.176 237.512 403.848 237.512 c 402.523
 237.512 401.25 236.988 400.312 236.051 c 399.375 235.113 398.848 233.84
 398.848 232.512 c 398.848 231.188 399.375 229.914 400.312 228.977 c 401.25
 228.039 402.523 227.512 403.848 227.512 c h
403.848 227.512 m S
0 0.501961 0 rg
448.488 225.895 m 449.816 225.895 451.086 226.422 452.023 227.359 c 452.961
 228.297 453.488 229.57 453.488 230.895 c 453.488 232.223 452.961 233.496
 452.023 234.434 c 451.086 235.371 449.816 235.895 448.488 235.895 c 447.164
 235.895 445.891 235.371 444.953 234.434 c 444.016 233.496 443.488 232.223
 443.488 230.895 c 443.488 229.57 444.016 228.297 444.953 227.359 c 445.891
 226.422 447.164 225.895 448.488 225.895 c h
448.488 225.895 m f
0 g
448.488 225.895 m 449.816 225.895 451.086 226.422 452.023 227.359 c 452.961
 228.297 453.488 229.57 453.488 230.895 c 453.488 232.223 452.961 233.496
 452.023 234.434 c 451.086 235.371 449.816 235.895 448.488 235.895 c 447.164
 235.895 445.891 235.371 444.953 234.434 c 444.016 233.496 443.488 232.223
 443.488 230.895 c 443.488 229.57 444.016 228.297 444.953 227.359 c 445.891
 226.422 447.164 225.895 448.488 225.895 c h
448.488 225.895 m S
  Q
Q
Q q
45 251 449 -51 re W n
q
45 251 449 -51 re W n
  q
0 0.74902 0.74902 rg
2 w
2 J
1 j
[] 0.0 d
4 M 46.73 249.629 m 47.176 249.535 l 47.621 249.25 l 48.066 248.785 l 48.961
 247.324 l 49.855 245.23 l 51.191 241.176 l 54.766 229.273 l 55.656 227.18
 l 56.551 225.805 l 56.996 225.426 l 57.441 225.262 l 57.891 225.312 l 58.336
 225.578 l 58.781 226.043 l 59.676 227.523 l 60.566 229.605 l 61.906 233.398
 l 64.137 239.746 l 65.031 241.727 l 65.926 243.168 l 66.371 243.648 l 66.816
 243.965 l 67.262 244.102 l 67.711 244.062 l 68.156 243.84 l 68.602 243.438
 l 69.496 242.109 l 70.387 240.137 l 71.281 237.613 l 72.621 233.094 l 75.297
 223.562 l 76.191 220.941 l 77.082 218.879 l 77.977 217.488 l 78.422 217.066
 l 78.871 216.828 l 79.316 216.773 l 79.762 216.895 l 80.207 217.18 l 81.102
 218.195 l 81.996 219.672 l 83.781 223.32 l 85.117 225.934 l 86.012 227.297
 l 86.906 228.203 l 87.352 228.453 l 87.797 228.559 l 88.242 228.512 l 88.691
 228.305 l 89.137 227.941 l 90.031 226.75 l 90.922 224.969 l 91.816 222.672
 l 93.156 218.492 l 97.172 205.125 l 98.066 203.043 l 98.512 202.391 l 99.402
 201.668 l 99.852 201.512 l 100.297 201.484 l 100.742 201.586 l 101.637 
202.156 l 102.527 203.141 l 103.867 205.16 l 106.102 208.812 l 106.992 209.977
 l 107.887 210.809 l 108.777 211.273 l 109.672 211.383 l 110.562 211.102
 l 111.457 210.402 l 113.242 208.492 l 114.582 206.613 l 116.812 203.309
 l 117.707 202.301 l 118.598 201.617 l 119.492 201.316 l 120.387 201.434
 l 121.277 201.957 l 122.172 202.852 l 123.062 204.059 l 124.402 206.262
 l 127.082 210.895 l 128.418 212.691 l 129.312 213.535 l 130.207 214.043
 l 131.098 214.207 l 131.992 214.035 l 132.883 213.57 l 133.777 212.871 
l 135.562 211.086 l 137.348 209.391 l 138.242 208.773 l 139.133 208.398 
l 140.027 208.297 l 140.918 208.484 l 141.812 208.949 l 142.703 209.664 
l 144.043 211.094 l 148.062 215.895 l 148.953 216.645 l 149.848 217.18 l
 150.738 217.48 l 151.633 217.547 l 152.527 217.395 l 153.863 216.84 l 156.098
 215.473 l 157.883 214.516 l 158.773 214.223 l 159.668 214.094 l 160.562
 214.152 l 161.453 214.391 l 162.793 215.062 l 164.133 216.016 l 167.703
 218.797 l 169.043 219.461 l 169.934 219.695 l 170.828 219.75 l 171.723 
219.633 l 173.059 219.176 l 174.848 218.223 l 177.523 216.711 l 178.863 
216.195 l 180.203 215.953 l 181.543 215.984 l 182.879 216.25 l 185.113 216.98
 l 187.344 217.633 l 188.684 217.781 l 190.023 217.641 l 191.363 217.184
 l 192.703 216.438 l 194.488 215.137 l 198.059 212.438 l 199.398 211.617
 l 200.289 211.273 l 201.184 211.242 l 202.969 211.617 l 206.539 212.449
 l 208.324 212.594 l 209.664 212.504 l 211.004 212.223 l 212.344 211.742
 l 214.129 210.859 l 217.699 209.004 l 219.039 208.543 l 220.379 208.281
 l 221.719 208.219 l 223.504 208.387 l 227.965 209.004 l 229.309 208.953
 l 231.09 208.621 l 234.664 207.68 l 237.789 207.465 l 242.25 207.379 l 
242.699 207.453 l 243.59 208.145 l 244.93 209.145 l 246.715 210.129 l 248.5
 210.797 l 250.285 211.195 l 252.52 211.43 l 260.555 211.969 l 262.785 212.441
 l 268.145 213.77 l 269.93 213.902 l 272.605 213.816 l 275.73 213.754 l 
278.855 213.93 l 283.766 214.445 l 287.785 214.855 l 289.57 214.852 l 291.805
 214.586 l 297.16 213.734 l 299.836 213.684 l 303.41 213.887 l 308.32 214.16
 l 310.996 214.09 l 313.676 213.785 l 317.246 213.371 l 319.926 213.352 
l 327.066 213.531 l 330.191 213.266 l 333.766 212.73 l 339.566 211.758 l
 341.797 211.68 l 351.621 211.676 l 356.082 211.254 l 357.871 211.109 l 
359.207 211.234 l 365.012 212.312 l 368.137 212.52 l 370.367 212.492 l 371.707
 212.328 l 372.602 212.051 l 373.047 211.773 l 373.492 211.234 l 373.941
 211.379 l 374.387 211.945 l 375.277 212.512 l 376.617 212.98 l 378.852 
213.453 l 383.316 214.082 l 386.438 214.352 l 390.012 214.406 l 398.938 
214.273 l 402.512 214.191 l 405.637 214.359 l 410.543 214.633 l 415.902 
214.641 l 418.578 214.469 l 424.383 213.953 l 426.613 214.125 l 434.203 
215.059 l 436.883 215.082 l 439.113 214.902 l 442.238 214.391 l 445.363 
213.922 l 447.598 213.801 l 455.629 213.645 l 457.863 213.211 l 459.203 
213 l 463.668 212.684 l 466.789 212.363 l 469.023 212.379 l 471.703 212.645
 l 475.273 212.996 l 477.504 212.973 l 479.289 212.758 l 481.523 212.223
 l 483.309 211.789 l 485.094 211.59 l 488.219 211.484 l 490.004 211.637 
l 492.234 212.09 l 492.684 212.203 l S
  Q
Q
Q q
38 258 419 -58 re W n
q
38 258 419 -58 re W n
  q
0 0.74902 0.74902 rg
46.73 242.559 m 53.801 249.629 l 46.73 256.699 l 39.656 249.629 l h
46.73 242.559 m f
0 g
1 w
0 J
0 j
[] 0.0 d
4 M 46.73 242.559 m 53.801 249.629 l 46.73 256.699 l 39.656 249.629 l h
46.73 242.559 m S
0 0.74902 0.74902 rg
91.367 216.809 m 98.441 223.879 l 91.367 230.949 l 84.297 223.879 l h
91.367 216.809 m f
0 g
91.367 216.809 m 98.441 223.879 l 91.367 230.949 l 84.297 223.879 l h
91.367 216.809 m S
0 0.74902 0.74902 rg
136.008 203.555 m 143.078 210.629 l 136.008 217.699 l 128.938 210.629 l
 h
136.008 203.555 m f
0 g
136.008 203.555 m 143.078 210.629 l 136.008 217.699 l 128.938 210.629 l
 h
136.008 203.555 m S
0 0.74902 0.74902 rg
180.648 208.863 m 187.719 215.934 l 180.648 223.004 l 173.578 215.934 l
 h
180.648 208.863 m f
0 g
180.648 208.863 m 187.719 215.934 l 180.648 223.004 l 173.578 215.934 l
 h
180.648 208.863 m S
0 0.74902 0.74902 rg
225.289 201.625 m 232.359 208.695 l 225.289 215.766 l 218.219 208.695 l
 h
225.289 201.625 m f
0 g
225.289 201.625 m 232.359 208.695 l 225.289 215.766 l 218.219 208.695 l
 h
225.289 201.625 m S
0 0.74902 0.74902 rg
269.93 206.832 m 277 213.902 l 269.93 220.973 l 262.859 213.902 l h
269.93 206.832 m f
0 g
269.93 206.832 m 277 213.902 l 269.93 220.973 l 262.859 213.902 l h
269.93 206.832 m S
0 0.74902 0.74902 rg
314.57 206.586 m 321.641 213.656 l 314.57 220.727 l 307.496 213.656 l h
314.57 206.586 m f
0 g
314.57 206.586 m 321.641 213.656 l 314.57 220.727 l 307.496 213.656 l h
314.57 206.586 m S
0 0.74902 0.74902 rg
359.207 204.164 m 366.281 211.234 l 359.207 218.305 l 352.137 211.234 l
 h
359.207 204.164 m f
0 g
359.207 204.164 m 366.281 211.234 l 359.207 218.305 l 352.137 211.234 l
 h
359.207 204.164 m S
0 0.74902 0.74902 rg
403.848 207.168 m 410.918 214.238 l 403.848 221.309 l 396.777 214.238 l
 h
403.848 207.168 m f
0 g
403.848 207.168 m 410.918 214.238 l 403.848 221.309 l 396.777 214.238 l
 h
403.848 207.168 m S
0 0.74902 0.74902 rg
448.488 206.73 m 455.559 213.801 l 448.488 220.871 l 441.418 213.801 l 
h
448.488 206.73 m f
0 g
448.488 206.73 m 455.559 213.801 l 448.488 220.871 l 441.418 213.801 l 
h
448.488 206.73 m S
  Q
Q
Q q
45 251 450 -85 re W n
q
45 251 450 -85 re W n
  q
0.74902 0 0.74902 rg
2 w
2 J
1 j
[] 0.0 d
4 M 46.73 249.629 m 47.176 249.449 l 47.621 248.914 l 48.066 248.02 l 48.516
 246.777 l 49.406 243.266 l 50.301 238.449 l 51.191 232.426 l 52.531 221.426
 l 54.316 204.047 l 57.441 172.262 l 57.891 169.301 l 58.336 167.621 l 58.781
 167.754 l 59.676 171.711 l 61.461 190.219 l 63.691 211.512 l 65.031 222.43
 l 65.926 228.016 l 66.816 232.145 l 67.711 234.805 l 68.156 235.582 l 68.602
 236 l 69.047 236.062 l 69.496 235.777 l 69.941 235.152 l 70.387 234.203
 l 71.281 231.371 l 72.172 227.402 l 73.066 222.434 l 74.406 213.473 l 76.191
 199.691 l 78.871 178.582 l 79.316 175.703 l 80.207 172.289 l 80.656 171.215
 l 81.102 170.516 l 81.547 170.18 l 81.996 170.512 l 82.441 171.227 l 82.887
 173.062 l 83.781 178.168 l 84.672 182.289 l 85.117 183.797 l 85.566 185.945
 l 86.457 192.145 l 87.352 197.367 l 88.242 201.453 l 89.137 204.434 l 90.031
 206.332 l 90.477 206.844 l 90.922 207.059 l 91.367 206.965 l 91.816 206.578
 l 92.262 205.898 l 92.707 204.938 l 93.602 202.234 l 94.941 196.719 l 98.512
 182.211 l 100.742 173.344 l 101.191 172.301 l 101.637 171.832 l 102.082
 171.566 l 102.527 171.477 l 102.977 171.57 l 103.422 171.898 l 104.762 
173.414 l 105.652 175.441 l 106.547 177.688 l 107.438 181.301 l 108.332 
183.672 l 109.227 185.07 l 109.672 185.484 l 110.117 185.734 l 110.562 185.766
 l 111.012 185.098 l 111.902 187.195 l 113.242 189.23 l 113.688 189.668 
l 114.137 189.898 l 114.582 189.938 l 115.027 189.801 l 115.922 189.125 
l 117.262 187.578 l 118.598 185.672 l 119.938 183.379 l 121.723 179.863 
l 122.617 178.02 l 123.062 177.84 l 123.957 177.918 l 125.742 178.457 l 
127.082 179.336 l 127.527 179.488 l 127.973 179.801 l 129.312 181.926 l 
130.652 183.715 l 131.098 184.887 l 131.543 185.707 l 131.992 186.227 l 
132.438 186.523 l 132.883 186.641 l 133.332 186.605 l 133.777 186.434 l 
134.668 185.723 l 136.008 184.074 l 136.453 183.258 l 136.902 181.797 l 
137.348 182.828 l 137.793 183.059 l 138.688 183.211 l 140.473 183.867 l 
141.367 183.789 l 142.258 183.445 l 143.152 182.832 l 144.043 181.941 l 
144.492 181.949 l 145.383 182.996 l 148.062 186.574 l 149.848 188.512 l 
150.293 188.598 l 151.633 188.141 l 152.078 188.125 l 152.527 187.895 l 
153.418 186.891 l 153.863 186.254 l 154.312 184.961 l 154.758 184.312 l 
155.203 185.688 l 155.652 186.555 l 156.098 186.875 l 156.543 186.844 l 
156.988 186.566 l 157.883 185.512 l 159.223 183.289 l 160.113 181.816 l 
161.898 180.012 l 162.348 179.121 l 162.793 178.645 l 163.238 179.363 l 
163.688 179.523 l 165.473 179.453 l 165.918 179.574 l 169.488 184.859 l 
170.383 185.625 l 171.273 186.262 l 172.168 187.23 l 173.059 187.824 l 173.953
 187.953 l 174.398 187.965 l 176.184 189.188 l 176.629 189.164 l 177.078
 189.27 l 177.523 189.641 l 177.973 189.684 l 178.418 189.582 l 178.863 
190.156 l 179.309 190.508 l 179.754 190.559 l 180.203 190.375 l 181.543 
189.438 l 182.434 188.863 l 183.328 187.969 l 184.219 186.766 l 185.113 
185.199 l 186.453 182.258 l 188.238 177.848 l 189.129 178.715 l 190.023 
178.887 l 190.914 179.078 l 191.809 179.574 l 192.254 180.035 l 194.488 
183.457 l 195.379 184.48 l 195.828 184.746 l 196.719 184.898 l 197.613 184.785
 l 198.059 185.016 l 198.949 185.691 l 199.844 186.082 l 200.289 186.004
 l 200.738 186.062 l 201.184 186.723 l 201.629 187.137 l 202.074 187.219
 l 202.523 187.652 l 202.969 188.496 l 203.414 189.066 l 203.863 189.41 
l 204.309 189.586 l 204.754 189.621 l 205.648 189.375 l 206.539 188.797 
l 207.434 187.922 l 208.324 186.652 l 209.219 184.902 l 211.449 182.926 
l 212.344 182.422 l 213.234 181.906 l 213.684 181.34 l 214.129 180.449 l
 214.574 181.461 l 215.023 181.984 l 215.469 182.234 l 216.359 182.367 l
 216.809 182.738 l 218.594 184.871 l 219.039 185.207 l 219.484 185.395 l
 219.934 185.441 l 221.27 185.25 l 222.164 185.371 l 223.059 185.184 l 223.504
 184.84 l 224.395 183.211 l 225.289 183.871 l 225.734 183.621 l 226.184 
182.852 l 226.629 182.574 l 227.074 183.832 l 227.52 184.445 l 227.965 184.707
 l 228.414 184.746 l 228.859 184.621 l 229.754 183.977 l 231.09 182.363 
l 232.43 182.352 l 234.215 182.07 l 235.109 181.891 l 236.895 181.125 l 
238.68 180.992 l 239.574 180.691 l 240.02 181.102 l 240.465 182.336 l 240.914
 183.086 l 241.359 183.551 l 241.805 183.816 l 242.699 184 l 243.59 184.094
 l 244.039 184.25 l 244.93 185.199 l 245.824 186.062 l 246.715 186.551 l
 247.164 186.539 l 247.609 186.191 l 248.055 185.109 l 248.5 185.953 l 248.949
 186.266 l 249.395 186.133 l 250.285 185.328 l 250.734 185.484 l 251.18 
185.406 l 251.625 185.059 l 252.52 183.758 l 252.965 183.473 l 253.859 183.145
 l 255.645 182.121 l 256.984 181.734 l 258.77 183.477 l 259.66 184.129 l
 260.109 184.332 l 260.555 184.379 l 261 184.242 l 261.445 183.945 l 261.895
 183.816 l 263.234 184.422 l 263.68 184.48 l 264.125 184.383 l 264.57 184.09
 l 265.02 183.531 l 265.465 182.617 l 265.91 182.777 l 266.359 183.09 l 
267.25 183.082 l 268.59 183.152 l 269.484 183.289 l 270.82 183.719 l 271.27
 183.621 l 271.715 182.742 l 272.605 184.113 l 273.055 184.262 l 273.5 184.02
 l 273.945 183.496 l 274.395 183.695 l 275.285 185.34 l 276.18 186.27 l 
277.52 187.02 l 278.855 187.641 l 279.75 187.656 l 280.645 187.34 l 282.875
 186.281 l 283.766 185.32 l 284.215 184.656 l 284.66 184.301 l 285.105 184.172
 l 285.555 183.902 l 286.445 182.977 l 288.23 180.453 l 289.57 178.586 l
 290.016 178.551 l 290.461 178.285 l 291.355 177.414 l 292.25 178.48 l 293.141
 178.992 l 293.586 179.027 l 294.035 178.867 l 294.48 178.492 l 294.926 
177.879 l 295.82 175.984 l 296.711 177.621 l 297.16 178.031 l 297.605 178.176
 l 298.051 178.488 l 300.285 183.641 l 301.176 185.188 l 302.07 186.312 
l 302.961 187.039 l 304.746 188.078 l 305.641 188.227 l 306.086 188.113 
l 306.98 187.5 l 307.426 187.66 l 307.871 187.98 l 308.32 188.105 l 308.766
 188.055 l 309.211 187.848 l 310.105 187.051 l 310.996 185.887 l 312.336
 183.672 l 313.23 182.07 l 313.676 181.504 l 314.121 181.188 l 315.461 180.801
 l 315.906 180.48 l 316.355 179.941 l 316.801 179.09 l 317.246 178.477 l
 317.695 178.512 l 318.586 179.309 l 319.031 179.391 l 319.48 179.148 l 
319.926 179.934 l 320.371 180.457 l 320.82 180.617 l 321.711 180.203 l 323.496
 186 l 324.391 187.875 l 325.281 189.172 l 326.621 190.609 l 327.516 191.234
 l 327.961 191.332 l 328.406 191.273 l 328.855 191.047 l 329.746 190.117
 l 331.086 190.555 l 331.98 190.238 l 332.871 189.523 l 333.766 188.465 
l 334.656 187.051 l 335.551 185.188 l 335.996 183.914 l 336.441 181.391 
l 336.891 182.145 l 337.336 181.91 l 338.227 180.793 l 339.121 179.57 l 
339.566 179.59 l 340.461 180.492 l 340.906 180.793 l 341.352 180.898 l 341.797
 180.77 l 342.246 180.344 l 342.691 179.668 l 343.141 179.418 l 343.586 
179.887 l 344.477 181.453 l 344.922 182 l 345.816 182.496 l 347.156 183.898
 l 348.941 185.254 l 350.281 186.496 l 351.172 186.91 l 351.621 186.898 
l 352.512 186.309 l 352.957 186.691 l 353.406 186.832 l 353.852 186.34 l
 354.297 186.414 l 354.746 187.312 l 355.191 187.691 l 355.637 187.859 l
 356.531 187.871 l 357.422 187.605 l 358.316 187.086 l 359.207 186.273 l
 360.102 185.07 l 360.996 183.77 l 361.887 183.676 l 362.332 183.469 l 363.227
 182.66 l 364.117 181.609 l 364.566 181.27 l 365.012 181.082 l 365.906 180.977
 l 366.352 180.777 l 367.242 179.754 l 367.691 179.57 l 369.031 178.41 l
 369.477 178.141 l 369.922 178.07 l 370.367 178.324 l 370.816 178.812 l 
372.602 181.336 l 373.492 182.086 l 373.941 182.367 l 374.387 182.516 l 
374.832 182.465 l 375.277 182.535 l 376.172 184.383 l 377.066 185.461 l 
377.957 185.945 l 378.852 185.969 l 379.742 185.641 l 380.637 185.023 l 
381.527 184.148 l 382.422 182.996 l 382.867 182.75 l 384.207 183.133 l 384.652
 183.137 l 385.102 183.012 l 385.547 182.695 l 385.992 182.094 l 386.438
 180.609 l 386.887 181.586 l 387.332 182.039 l 387.777 182.207 l 388.227
 182.176 l 388.672 181.902 l 390.012 180.312 l 390.902 180.348 l 391.352
 180.52 l 391.797 180.855 l 392.242 180.941 l 392.688 180.77 l 393.582 180.094
 l 394.027 180.004 l 394.477 180.227 l 394.922 180.629 l 395.367 180.789
 l 395.812 180.652 l 396.262 180.246 l 396.707 179.578 l 397.152 178.262
 l 398.047 179.031 l 398.492 179.961 l 399.387 181.066 l 400.277 181.938
 l 401.172 182.527 l 402.062 182.934 l 402.957 183.043 l 403.402 182.898
 l 404.293 182.312 l 404.742 182.523 l 405.637 183.117 l 408.758 184.465
 l 410.098 184.883 l 410.992 185.102 l 411.438 185.07 l 411.883 184.91 l
 412.332 184.613 l 412.777 184.16 l 413.223 183.535 l 413.668 182.711 l 
414.117 181.613 l 414.562 180.133 l 415.008 177.379 l 415.453 179.57 l 415.902
 180.688 l 416.348 181.383 l 416.793 181.742 l 417.688 181.879 l 418.133
 181.848 l 419.027 180.996 l 419.473 181.312 l 420.367 180.934 l 420.812
 181.121 l 421.258 181.91 l 421.703 182.27 l 422.598 182.391 l 423.938 182.488
 l 424.383 182.352 l 424.828 182.051 l 426.168 180.863 l 429.738 182.227
 l 431.078 182.324 l 431.527 182.246 l 431.973 182.398 l 432.863 184.07 
l 433.758 185.094 l 434.652 185.676 l 435.543 185.828 l 435.988 185.742 
l 436.438 185.535 l 437.328 184.738 l 438.223 183.566 l 439.113 182.078 
l 440.008 181.016 l 440.453 181.156 l 442.238 183.305 l 442.688 183.535 
l 443.133 183.359 l 443.578 183.602 l 444.023 184.312 l 444.473 184.574 
l 444.918 184.508 l 445.812 183.863 l 446.703 183.508 l 447.598 182.59 l
 448.043 182.5 l 448.934 182.469 l 449.828 182.145 l 450.723 181.426 l 451.168
 180.934 l 451.613 180.91 l 452.508 181.625 l 453.398 182.176 l 454.293 
183.098 l 457.863 187.484 l 458.754 188.195 l 459.648 188.469 l 461.434 
188.734 l 461.879 188.539 l 462.773 187.555 l 463.668 187.336 l 464.113 
186.926 l 465.898 184.621 l 466.344 185.441 l 466.789 186.559 l 467.238 
187.18 l 467.684 187.469 l 468.129 187.492 l 468.578 187.262 l 469.469 186.449
 l 469.914 186.434 l 470.363 186.301 l 471.703 185.367 l 472.594 185.141
 l 473.488 184.504 l 475.273 182.812 l 476.613 182.145 l 477.504 181.805
 l 478.398 181.852 l 479.738 182.246 l 480.629 182.703 l 481.523 183.207
 l 483.754 184.062 l 485.094 185.383 l 485.539 185.516 l 485.988 185.395
 l 486.434 184.98 l 486.879 184.785 l 487.324 185.098 l 487.773 185.074 
l 488.219 184.656 l 488.664 183.828 l 489.109 183.801 l 489.559 184.336 
l 490.004 184.695 l 490.449 184.684 l 490.898 184.25 l 491.344 184.125 l
 491.789 185.383 l 492.234 186.207 l 492.684 186.73 l S
  Q
Q
Q q
41 255 413 -79 re W n
q
41 255 413 -79 re W n
  q
0.74902 0 0.74902 rg
46.73 254.629 m 45.605 251.176 l 41.973 251.176 l 44.914 249.039 l 43.789
 245.586 l 46.73 247.719 l 49.668 245.586 l 48.547 249.039 l 51.484 251.176
 l 47.852 251.176 l h
46.73 254.629 m f
0 g
1 w
0 J
2 j
[] 0.0 d
4 M 46.73 254.629 m 45.605 251.176 l 41.973 251.176 l 44.914 249.039 l 43.789
 245.586 l 46.73 247.719 l 49.668 245.586 l 48.547 249.039 l 51.484 251.176
 l 47.852 251.176 l h
46.73 254.629 m S
0.74902 0 0.74902 rg
91.367 211.965 m 90.246 208.512 l 86.613 208.512 l 89.551 206.375 l 88.43
 202.922 l 91.367 205.055 l 94.309 202.922 l 93.184 206.375 l 96.125 208.512
 l 92.492 208.512 l h
91.367 211.965 m f
0 g
91.367 211.965 m 90.246 208.512 l 86.613 208.512 l 89.551 206.375 l 88.43
 202.922 l 91.367 205.055 l 94.309 202.922 l 93.184 206.375 l 96.125 208.512
 l 92.492 208.512 l h
91.367 211.965 m S
0.74902 0 0.74902 rg
136.008 189.074 m 134.887 185.621 l 131.254 185.621 l 134.191 183.484 l
 133.07 180.027 l 136.008 182.164 l 138.949 180.027 l 137.824 183.484 l 
140.766 185.621 l 137.133 185.621 l h
136.008 189.074 m f
0 g
136.008 189.074 m 134.887 185.621 l 131.254 185.621 l 134.191 183.484 l
 133.07 180.027 l 136.008 182.164 l 138.949 180.027 l 137.824 183.484 l 
140.766 185.621 l 137.133 185.621 l h
136.008 189.074 m S
0.74902 0 0.74902 rg
180.648 195.035 m 179.527 191.582 l 175.895 191.582 l 178.832 189.445 l
 177.711 185.992 l 180.648 188.125 l 183.586 185.992 l 182.465 189.445 l
 185.402 191.582 l 181.77 191.582 l h
180.648 195.035 m f
0 g
180.648 195.035 m 179.527 191.582 l 175.895 191.582 l 178.832 189.445 l
 177.711 185.992 l 180.648 188.125 l 183.586 185.992 l 182.465 189.445 l
 185.402 191.582 l 181.77 191.582 l h
180.648 195.035 m S
0.74902 0 0.74902 rg
225.289 188.871 m 224.168 185.414 l 220.535 185.414 l 223.473 183.281 l
 222.352 179.824 l 225.289 181.961 l 228.227 179.824 l 227.105 183.281 l
 230.043 185.414 l 226.41 185.414 l h
225.289 188.871 m f
0 g
225.289 188.871 m 224.168 185.414 l 220.535 185.414 l 223.473 183.281 l
 222.352 179.824 l 225.289 181.961 l 228.227 179.824 l 227.105 183.281 l
 230.043 185.414 l 226.41 185.414 l h
225.289 188.871 m S
0.74902 0 0.74902 rg
269.93 188.434 m 268.805 184.977 l 265.172 184.977 l 268.113 182.84 l 266.988
 179.387 l 269.93 181.523 l 272.867 179.387 l 271.746 182.84 l 274.684 184.977
 l 271.051 184.977 l h
269.93 188.434 m f
0 g
269.93 188.434 m 268.805 184.977 l 265.172 184.977 l 268.113 182.84 l 266.988
 179.387 l 269.93 181.523 l 272.867 179.387 l 271.746 182.84 l 274.684 184.977
 l 271.051 184.977 l h
269.93 188.434 m S
0.74902 0 0.74902 rg
314.57 186.062 m 313.445 182.605 l 309.812 182.605 l 312.754 180.473 l 
311.629 177.016 l 314.57 179.152 l 317.508 177.016 l 316.387 180.473 l 319.324
 182.605 l 315.691 182.605 l h
314.57 186.062 m f
0 g
314.57 186.062 m 313.445 182.605 l 309.812 182.605 l 312.754 180.473 l 
311.629 177.016 l 314.57 179.152 l 317.508 177.016 l 316.387 180.473 l 319.324
 182.605 l 315.691 182.605 l h
314.57 186.062 m S
0.74902 0 0.74902 rg
359.207 191.273 m 358.086 187.82 l 354.453 187.82 l 357.391 185.684 l 356.27
 182.23 l 359.207 184.363 l 362.148 182.23 l 361.023 185.684 l 363.965 187.82
 l 360.332 187.82 l h
359.207 191.273 m f
0 g
359.207 191.273 m 358.086 187.82 l 354.453 187.82 l 357.391 185.684 l 356.27
 182.23 l 359.207 184.363 l 362.148 182.23 l 361.023 185.684 l 363.965 187.82
 l 360.332 187.82 l h
359.207 191.273 m S
0.74902 0 0.74902 rg
403.848 187.602 m 402.727 184.145 l 399.094 184.145 l 402.031 182.012 l
 400.91 178.555 l 403.848 180.691 l 406.789 178.555 l 405.664 182.012 l 
408.605 184.145 l 404.973 184.145 l h
403.848 187.602 m f
0 g
403.848 187.602 m 402.727 184.145 l 399.094 184.145 l 402.031 182.012 l
 400.91 178.555 l 403.848 180.691 l 406.789 178.555 l 405.664 182.012 l 
408.605 184.145 l 404.973 184.145 l h
403.848 187.602 m S
0.74902 0 0.74902 rg
448.488 187.531 m 447.367 184.074 l 443.734 184.074 l 446.672 181.941 l
 445.551 178.484 l 448.488 180.621 l 451.426 178.484 l 450.305 181.941 l
 453.242 184.074 l 449.613 184.074 l h
448.488 187.531 m f
0 g
448.488 187.531 m 447.367 184.074 l 443.734 184.074 l 446.672 181.941 l
 445.551 178.484 l 448.488 180.621 l 451.426 178.484 l 450.305 181.941 l
 453.242 184.074 l 449.613 184.074 l h
448.488 187.531 m S
  Q
Q
Q q
46 388 1 -346 re W n
q
46 388 1 -346 re W n
  q
0 g
0.5 w
0 J
1 j
[ 1 3] 0 d
4 M 46.73 42.27 m 46.73 387.871 l S
  Q
Q
  Q
Q
Q q
0 g
0.5 w
0 J
1 j
[] 0.0 d
4 M 46.73 41.782 m 46.73 45.782 l S
46.73 387.383 m 46.73 383.383 l S
43.656 31.864 m 43.656 32.774 43.645 34.324 43.016 35.52 c 42.461 36.567
 41.578 36.938 40.805 36.938 c 40.086 36.938 39.172 36.61 38.605 35.532 
c 38.008 34.414 37.949 33.028 37.949 31.864 c 37.949 31.012 37.965 29.715
 38.426 28.578 c 39.07 27.043 40.219 26.836 40.805 26.836 c 41.488 26.836
 42.535 27.117 43.148 28.535 c 43.598 29.567 43.656 30.774 43.656 31.864
 c 40.805 27.074 m 39.848 27.074 39.277 27.891 39.07 29.032 c 38.906 29.907
 38.906 31.192 38.906 32.028 c 38.906 33.176 38.906 34.133 39.098 35.043
 c 39.383 36.309 40.219 36.699 40.805 36.699 c 41.414 36.699 42.207 36.293
 42.492 35.074 c 42.684 34.223 42.699 33.223 42.699 32.028 c 42.699 31.055
 42.699 29.864 42.523 28.985 c 42.207 27.356 41.328 27.074 40.805 27.074
 c f
46.984 27.852 m 46.984 28.282 46.625 28.578 46.266 28.578 c 45.832 28.578
 45.535 28.223 45.535 27.864 c 45.535 27.434 45.891 27.133 46.25 27.133 
c 46.688 27.133 46.984 27.492 46.984 27.852 c f
54.574 31.864 m 54.574 32.774 54.562 34.324 53.934 35.52 c 53.379 36.567
 52.496 36.938 51.723 36.938 c 51.004 36.938 50.09 36.61 49.523 35.532 c
 48.926 34.414 48.867 33.028 48.867 31.864 c 48.867 31.012 48.883 29.715
 49.344 28.578 c 49.988 27.043 51.137 26.836 51.723 26.836 c 52.406 26.836
 53.453 27.117 54.066 28.535 c 54.516 29.567 54.574 30.774 54.574 31.864
 c 51.723 27.074 m 50.766 27.074 50.195 27.891 49.988 29.032 c 49.824 29.907
 49.824 31.192 49.824 32.028 c 49.824 33.176 49.824 34.133 50.016 35.043
 c 50.301 36.309 51.137 36.699 51.723 36.699 c 52.332 36.699 53.125 36.293
 53.41 35.074 c 53.602 34.223 53.617 33.223 53.617 32.028 c 53.617 31.055
 53.617 29.864 53.441 28.985 c 53.125 27.356 52.246 27.074 51.723 27.074
 c f
Q q
46.73 387.383 446.398 -345.602 re W n
q
46 387.512 448 -346 re W n
[ 1 0 0 1 0 -0.488007 ] concat
  q
Q q
135 388 2 -346 re W n
q
135 388 2 -346 re W n
  q
0 g
0.5 w
0 J
1 j
[ 1 3] 0 d
4 M 136.008 42.27 m 136.008 387.871 l S
  Q
Q
  Q
Q
Q q
0 g
0.5 w
0 J
1 j
[] 0.0 d
4 M 136.008 41.782 m 136.008 45.782 l S
136.008 387.383 m 136.008 383.383 l S
132.938 31.864 m 132.938 32.774 132.922 34.324 132.293 35.52 c 131.742 
36.567 130.859 36.938 130.082 36.938 c 129.363 36.938 128.453 36.61 127.887
 35.532 c 127.289 34.414 127.227 33.028 127.227 31.864 c 127.227 31.012 
127.242 29.715 127.707 28.578 c 128.348 27.043 129.5 26.836 130.082 26.836
 c 130.77 26.836 131.816 27.117 132.426 28.535 c 132.875 29.567 132.938 
30.774 132.938 31.864 c 130.082 27.074 m 129.125 27.074 128.559 27.891 128.348
 29.032 c 128.184 29.907 128.184 31.192 128.184 32.028 c 128.184 33.176 
128.184 34.133 128.379 35.043 c 128.664 36.309 129.5 36.699 130.082 36.699
 c 130.695 36.699 131.488 36.293 131.773 35.074 c 131.965 34.223 131.98 
33.223 131.98 32.028 c 131.98 31.055 131.98 29.864 131.801 28.985 c 131.488
 27.356 130.605 27.074 130.082 27.074 c f
136.266 27.852 m 136.266 28.282 135.906 28.578 135.547 28.578 c 135.113
 28.578 134.812 28.223 134.812 27.864 c 134.812 27.434 135.172 27.133 135.531
 27.133 c 135.965 27.133 136.266 27.492 136.266 27.852 c f
143.809 29.442 m 143.543 29.442 l 143.391 28.387 143.27 28.207 143.211 
28.114 c 143.137 27.996 142.062 27.996 141.852 27.996 c 138.984 27.996 l
 139.52 28.578 140.566 29.637 141.836 30.864 c 142.75 31.727 143.809 32.742
 143.809 34.219 c 143.809 35.985 142.406 36.996 140.836 36.996 c 139.191
 36.996 138.191 35.547 138.191 34.207 c 138.191 33.625 138.625 33.551 138.805
 33.551 c 138.953 33.551 139.402 33.641 139.402 34.16 c 139.402 34.621 139.012
 34.754 138.805 34.754 c 138.715 34.754 138.625 34.742 138.562 34.711 c 
138.848 35.985 139.715 36.61 140.629 36.61 c 141.926 36.61 142.777 35.578
 142.777 34.219 c 142.777 32.922 142.016 31.805 141.164 30.832 c 138.191
 27.473 l 138.191 27.133 l 143.449 27.133 l h
143.809 29.442 m f
Q q
46.73 387.383 446.398 -345.602 re W n
q
46 387.512 448 -346 re W n
[ 1 0 0 1 0 -0.488007 ] concat
  q
Q q
225 388 1 -346 re W n
q
225 388 1 -346 re W n
  q
0 g
0.5 w
0 J
1 j
[ 1 3] 0 d
4 M 225.289 42.27 m 225.289 387.871 l S
  Q
Q
  Q
Q
Q q
0 g
0.5 w
0 J
1 j
[] 0.0 d
4 M 225.289 41.782 m 225.289 45.782 l S
225.289 387.383 m 225.289 383.383 l S
222.215 31.864 m 222.215 32.774 222.203 34.324 221.574 35.52 c 221.02 36.567
 220.137 36.938 219.363 36.938 c 218.645 36.938 217.734 36.61 217.168 35.532
 c 216.57 34.414 216.508 33.028 216.508 31.864 c 216.508 31.012 216.523 
29.715 216.988 28.578 c 217.629 27.043 218.781 26.836 219.363 26.836 c 220.051
 26.836 221.098 27.117 221.707 28.535 c 222.156 29.567 222.215 30.774 222.215
 31.864 c 219.363 27.074 m 218.406 27.074 217.84 27.891 217.629 29.032 c
 217.465 29.907 217.465 31.192 217.465 32.028 c 217.465 33.176 217.465 34.133
 217.66 35.043 c 217.945 36.309 218.781 36.699 219.363 36.699 c 219.977 
36.699 220.766 36.293 221.051 35.074 c 221.246 34.223 221.258 33.223 221.258
 32.028 c 221.258 31.055 221.258 29.864 221.082 28.985 c 220.766 27.356 
219.887 27.074 219.363 27.074 c f
225.543 27.852 m 225.543 28.282 225.184 28.578 224.824 28.578 c 224.395
 28.578 224.094 28.223 224.094 27.864 c 224.094 27.434 224.453 27.133 224.812
 27.133 c 225.246 27.133 225.543 27.492 225.543 27.852 c f
231.879 36.746 m 231.879 37.059 231.863 37.071 231.598 37.071 c 227.156
 30.063 l 227.156 29.676 l 231.012 29.676 l 231.012 28.199 l 231.012 27.657
 230.98 27.508 229.938 27.508 c 229.652 27.508 l 229.652 27.133 l 233.238
 27.133 l 233.238 27.508 l 232.953 27.508 l 231.91 27.508 231.879 27.657
 231.879 28.199 c 231.879 29.676 l 233.402 29.676 l 233.402 30.063 l 231.879
 30.063 l h
231.059 35.766 m 231.059 30.063 l 227.457 30.063 l h
231.059 35.766 m f
Q q
46.73 387.383 446.398 -345.602 re W n
q
46 387.512 448 -346 re W n
[ 1 0 0 1 0 -0.488007 ] concat
  q
Q q
314 388 1 -346 re W n
q
314 388 1 -346 re W n
  q
0 g
0.5 w
0 J
1 j
[ 1 3] 0 d
4 M 314.57 42.27 m 314.57 387.871 l S
  Q
Q
  Q
Q
Q q
0 g
0.5 w
0 J
1 j
[] 0.0 d
4 M 314.57 41.782 m 314.57 45.782 l S
314.57 387.383 m 314.57 383.383 l S
311.496 31.864 m 311.496 32.774 311.484 34.324 310.855 35.52 c 310.301 
36.567 309.418 36.938 308.645 36.938 c 307.926 36.938 307.012 36.61 306.445
 35.532 c 305.848 34.414 305.789 33.028 305.789 31.864 c 305.789 31.012 
305.805 29.715 306.266 28.578 c 306.91 27.043 308.059 26.836 308.645 26.836
 c 309.328 26.836 310.375 27.117 310.988 28.535 c 311.438 29.567 311.496
 30.774 311.496 31.864 c 308.645 27.074 m 307.688 27.074 307.117 27.891 
306.91 29.032 c 306.746 29.907 306.746 31.192 306.746 32.028 c 306.746 33.176
 306.746 34.133 306.938 35.043 c 307.223 36.309 308.059 36.699 308.645 36.699
 c 309.254 36.699 310.047 36.293 310.332 35.074 c 310.523 34.223 310.539
 33.223 310.539 32.028 c 310.539 31.055 310.539 29.864 310.363 28.985 c 
310.047 27.356 309.168 27.074 308.645 27.074 c f
314.824 27.852 m 314.824 28.282 314.465 28.578 314.105 28.578 c 313.672
 28.578 313.375 28.223 313.375 27.864 c 313.375 27.434 313.73 27.133 314.09
 27.133 c 314.527 27.133 314.824 27.492 314.824 27.852 c f
317.723 32.215 m 317.723 35.75 319.395 36.547 320.367 36.547 c 320.684 
36.547 321.445 36.496 321.742 35.949 c 321.504 35.949 321.055 35.949 321.055
 35.43 c 321.055 35.028 321.383 34.895 321.594 34.895 c 321.727 34.895 322.129
 34.949 322.129 35.446 c 322.129 36.367 321.383 36.891 320.352 36.891 c 
318.574 36.891 316.707 35.051 316.707 31.766 c 316.707 27.723 318.395 26.836
 319.59 26.836 c 321.039 26.836 322.414 28.129 322.414 30.129 c 322.414 
31.992 321.207 33.348 319.68 33.348 c 318.77 33.348 318.094 32.754 317.723
 31.711 c h
319.59 27.192 m 317.75 27.192 317.75 29.934 317.75 30.489 c 317.75 31.563
 318.262 33.11 319.648 33.11 c 319.906 33.11 320.637 33.11 321.129 32.082
 c 321.398 31.5 321.398 30.891 321.398 30.145 c 321.398 29.336 321.398 28.746
 321.082 28.149 c 320.758 27.532 320.277 27.192 319.59 27.192 c f
Q q
46.73 387.383 446.398 -345.602 re W n
q
46 387.512 448 -346 re W n
[ 1 0 0 1 0 -0.488007 ] concat
  q
Q q
403 388 2 -346 re W n
q
403 388 2 -346 re W n
  q
0 g
0.5 w
0 J
1 j
[ 1 3] 0 d
4 M 403.848 42.27 m 403.848 387.871 l S
  Q
Q
  Q
Q
Q q
0 g
0.5 w
0 J
1 j
[] 0.0 d
4 M 403.848 41.782 m 403.848 45.782 l S
403.848 387.383 m 403.848 383.383 l S
400.777 31.864 m 400.777 32.774 400.762 34.324 400.133 35.52 c 399.582 
36.567 398.699 36.938 397.922 36.938 c 397.203 36.938 396.293 36.61 395.727
 35.532 c 395.129 34.414 395.066 33.028 395.066 31.864 c 395.066 31.012 
395.086 29.715 395.547 28.578 c 396.188 27.043 397.34 26.836 397.922 26.836
 c 398.609 26.836 399.656 27.117 400.27 28.535 c 400.715 29.567 400.777 
30.774 400.777 31.864 c 397.922 27.074 m 396.965 27.074 396.398 27.891 396.188
 29.032 c 396.023 29.907 396.023 31.192 396.023 32.028 c 396.023 33.176 
396.023 34.133 396.219 35.043 c 396.504 36.309 397.34 36.699 397.922 36.699
 c 398.535 36.699 399.328 36.293 399.613 35.074 c 399.805 34.223 399.82 
33.223 399.82 32.028 c 399.82 31.055 399.82 29.864 399.641 28.985 c 399.328
 27.356 398.445 27.074 397.922 27.074 c f
404.105 27.852 m 404.105 28.282 403.746 28.578 403.387 28.578 c 402.953
 28.578 402.656 28.223 402.656 27.864 c 402.656 27.434 403.012 27.133 403.371
 27.133 c 403.805 27.133 404.105 27.492 404.105 27.852 c f
409.484 32.418 m 410.426 32.895 411.383 33.61 411.383 34.754 c 411.383 
36.106 410.066 36.891 408.855 36.891 c 407.496 36.891 406.301 35.91 406.301
 34.559 c 406.301 34.188 406.391 33.547 406.973 32.985 c 407.121 32.836 
407.75 32.391 408.152 32.106 c 407.48 31.766 405.91 30.949 405.91 29.313
 c 405.91 27.785 407.375 26.836 408.824 26.836 c 410.426 26.836 411.77 27.981
 411.77 29.496 c 411.77 30.848 410.859 31.473 410.262 31.871 c h
407.523 33.727 m 407.406 33.801 406.809 34.262 406.809 34.961 c 406.809
 35.867 407.75 36.547 408.824 36.547 c 410.008 36.547 410.871 35.719 410.871
 34.754 c 410.871 33.371 409.316 32.582 409.242 32.582 c 409.23 32.582 409.215
 32.582 409.094 32.676 c h
410.273 30.68 m 410.5 30.516 411.215 30.028 411.215 29.121 c 411.215 28.024
 410.113 27.192 408.855 27.192 c 407.496 27.192 406.465 28.157 406.465 29.328
 c 406.465 30.504 407.375 31.481 408.406 31.946 c h
410.273 30.68 m f
Q q
46.73 387.383 446.398 -345.602 re W n
q
46 387.512 448 -346 re W n
[ 1 0 0 1 0 -0.488007 ] concat
  q
Q q
492 388 2 -346 re W n
q
492 388 2 -346 re W n
  q
0 g
0.5 w
0 J
1 j
[ 1 3] 0 d
4 M 493.129 42.27 m 493.129 387.871 l S
  Q
Q
  Q
Q
Q q
0 g
0.5 w
0 J
1 j
[] 0.0 d
4 M 493.129 41.782 m 493.129 45.782 l S
493.129 387.383 m 493.129 383.383 l S
487.754 36.594 m 487.754 36.907 487.742 36.922 487.531 36.922 c 486.949
 36.278 486.066 36.071 485.23 36.071 c 485.188 36.071 485.109 36.071 485.094
 36.043 c 485.082 36.008 485.082 35.977 485.082 35.653 c 485.543 35.653 
486.32 35.742 486.918 36.098 c 486.918 28.211 l 486.918 27.684 486.887 27.508
 485.605 27.508 c 485.156 27.508 l 485.156 27.133 l 489.52 27.133 l 489.52
 27.508 l 489.07 27.508 l 487.785 27.508 487.754 27.672 487.754 28.203 c
 h
487.754 36.594 m f
493.383 27.852 m 493.383 28.282 493.023 28.578 492.664 28.578 c 492.234
 28.578 491.934 28.223 491.934 27.864 c 491.934 27.434 492.293 27.133 492.652
 27.133 c 493.086 27.133 493.383 27.492 493.383 27.852 c f
500.977 31.864 m 500.977 32.774 500.961 34.324 500.332 35.52 c 499.781 
36.567 498.898 36.938 498.121 36.938 c 497.402 36.938 496.492 36.61 495.926
 35.532 c 495.328 34.414 495.266 33.028 495.266 31.864 c 495.266 31.012 
495.281 29.715 495.746 28.578 c 496.387 27.043 497.539 26.836 498.121 26.836
 c 498.809 26.836 499.855 27.117 500.465 28.535 c 500.914 29.567 500.977
 30.774 500.977 31.864 c 498.121 27.074 m 497.164 27.074 496.598 27.891 
496.387 29.032 c 496.223 29.907 496.223 31.192 496.223 32.028 c 496.223 
33.176 496.223 34.133 496.418 35.043 c 496.703 36.309 497.539 36.699 498.121
 36.699 c 498.734 36.699 499.523 36.293 499.809 35.074 c 500.004 34.223 
500.016 33.223 500.016 32.028 c 500.016 31.055 500.016 29.864 499.84 28.985
 c 499.523 27.356 498.645 27.074 498.121 27.074 c f
187.109 10.961 m 194.043 10.961 l 194.043 12.598 l 187.109 12.598 l 187.109
 17.293 l 195 17.293 l 195 18.93 l 185.258 18.93 l 185.258 4.34 l 187.109
 4.34 l h
187.109 10.961 m f
196.117 14.844 m 196.117 4.387 l 197.789 4.387 l 197.789 9.817 l 197.789
 11.313 198.168 12.289 198.965 12.867 c 199.484 13.25 199.98 13.367 201.137
 13.367 c 201.137 15.086 l 200.859 15.121 200.719 15.145 200.5 15.145 c 
199.426 15.145 198.609 14.504 197.648 12.946 c 197.648 14.844 l h
196.117 14.844 m f
211.598 9.168 m 211.598 10.735 211.48 11.676 211.18 12.438 c 210.5 14.125
 208.906 15.145 206.957 15.145 c 204.047 15.145 202.172 12.922 202.172 9.508
 c 202.172 6.09 203.984 3.989 206.914 3.989 c 209.305 3.989 210.961 5.356
 211.379 7.649 c 209.703 7.649 l 209.246 6.25 208.309 5.524 206.973 5.524
 c 205.918 5.524 205.023 6.008 204.465 6.899 c 204.066 7.504 203.926 8.114
 203.906 9.168 c h
203.949 10.524 m 204.086 12.395 205.262 13.606 206.938 13.606 c 208.57 
13.606 209.828 12.297 209.828 10.645 c 209.828 10.602 209.828 10.567 209.805
 10.524 c h
203.949 10.524 m f
222.316 0 m 222.316 14.813 l 220.844 14.813 l 220.844 13.41 l 220.066 14.508
 218.891 15.106 217.516 15.106 c 214.766 15.106 212.973 12.836 212.973 9.344
 c 212.973 5.934 214.688 3.824 217.438 3.824 c 218.891 3.824 219.887 4.34
 220.664 5.481 c 220.664 0 l h
217.754 13.551 m 219.527 13.551 220.664 11.942 220.664 9.403 c 220.664 
6.992 219.512 5.383 217.754 5.383 c 215.922 5.383 214.707 7.008 214.707 
9.465 c 214.707 11.903 215.922 13.551 217.754 13.551 c f
233.137 4.489 m 233.137 14.946 l 231.484 14.946 l 231.484 8.989 l 231.484
 6.844 230.367 5.446 228.633 5.446 c 227.32 5.446 226.48 6.242 226.48 7.508
 c 226.48 14.946 l 224.828 14.946 l 224.828 6.852 l 224.828 5.106 226.125
 3.989 228.156 3.989 c 229.691 3.989 230.664 4.524 231.645 5.907 c 231.645
 4.489 l h
233.137 4.489 m f
244.832 9.168 m 244.832 10.735 244.715 11.676 244.414 12.438 c 243.738 
14.125 242.145 15.145 240.191 15.145 c 237.281 15.145 235.41 12.922 235.41
 9.508 c 235.41 6.09 237.219 3.989 240.148 3.989 c 242.543 3.989 244.195
 5.356 244.613 7.649 c 242.941 7.649 l 242.48 6.25 241.547 5.524 240.211
 5.524 c 239.152 5.524 238.258 6.008 237.699 6.899 c 237.301 7.504 237.16
 8.114 237.145 9.168 c h
237.184 10.524 m 237.32 12.395 238.496 13.606 240.172 13.606 c 241.805 
13.606 243.062 12.297 243.062 10.645 c 243.062 10.602 243.062 10.567 243.039
 10.524 c h
237.184 10.524 m f
247.086 14.844 m 247.086 4.387 l 248.758 4.387 l 248.758 10.153 l 248.758
 12.289 249.875 13.688 251.586 13.688 c 252.902 13.688 253.742 12.887 253.742
 11.629 c 253.742 4.387 l 255.395 4.387 l 255.395 12.289 l 255.395 14.028
 254.098 15.145 252.086 15.145 c 250.531 15.145 249.535 14.543 248.621 13.09
 c 248.621 14.844 l h
247.086 14.844 m f
266.152 11.348 m 266.074 12.364 265.852 13.02 265.453 13.594 c 264.738 
14.571 263.484 15.145 262.031 15.145 c 259.219 15.145 257.387 12.922 257.387
 9.465 c 257.387 6.11 259.18 3.989 262.008 3.989 c 264.5 3.989 266.074 5.477
 266.273 8.02 c 264.598 8.02 l 264.32 6.352 263.461 5.524 262.047 5.524 
c 260.215 5.524 259.117 7.008 259.117 9.465 c 259.117 12.063 260.195 13.606
 262.008 13.606 c 263.402 13.606 264.281 12.793 264.48 11.348 c h
266.152 11.348 m f
274.461 14.848 m 271.57 6.684 l 268.902 14.848 l 267.129 14.848 l 270.656
 4.321 l 270.02 2.66 l 269.762 1.918 269.379 1.641 268.684 1.641 c 268.441
 1.641 268.168 1.68 267.809 1.762 c 267.809 0.262 l 268.145 0.082 268.484
 0 268.922 0 c 269.461 0 270.039 0.184 270.477 0.504 c 270.996 0.883 271.297
 1.324 271.613 2.164 c 276.254 14.848 l h
274.461 14.848 m f
286.934 18.93 m 284.941 16.317 283.688 12.684 283.688 9.547 c 283.688 6.395
 284.941 2.762 286.934 0.149 c 288.031 0.149 l 286.277 3.004 285.301 6.356
 285.301 9.547 c 285.301 12.723 286.277 16.094 288.031 18.93 c h
286.934 18.93 m f
291.855 14.844 m 290.203 14.844 l 290.203 4.387 l 291.855 4.387 l h
291.855 18.93 m 290.18 18.93 l 290.18 16.836 l 291.855 16.836 l h
291.855 18.93 m f
294.688 14.844 m 294.688 4.387 l 296.359 4.387 l 296.359 10.153 l 296.359
 12.289 297.477 13.688 299.188 13.688 c 300.504 13.688 301.344 12.887 301.344
 11.629 c 301.344 4.387 l 302.996 4.387 l 302.996 12.289 l 302.996 14.028
 301.699 15.145 299.688 15.145 c 298.133 15.145 297.137 14.543 296.223 13.09
 c 296.223 14.844 l h
294.688 14.844 m f
324.035 12.157 m 317.977 12.157 l 317.977 10.524 l 322.402 10.524 l 322.402
 10.117 l 322.402 7.508 320.488 5.621 317.84 5.621 c 316.367 5.621 315.031
 6.157 314.172 7.094 c 313.215 8.125 312.641 9.852 312.641 11.641 c 312.641
 15.192 314.672 17.535 317.738 17.535 c 319.953 17.535 321.547 16.414 321.945
 14.571 c 323.836 14.571 l 323.316 17.496 321.086 19.172 317.762 19.172 
c 315.984 19.172 314.551 18.715 313.414 17.782 c 311.742 16.391 310.785 
14.145 310.785 11.539 c 310.785 7.086 313.516 3.989 317.441 3.989 c 319.414
 3.989 320.984 4.723 322.402 6.305 c 322.859 4.364 l 324.035 4.364 l h
324.035 12.157 m f
336.387 10.961 m 336.387 4.379 l 338.242 4.379 l 338.242 18.93 l 336.387
 18.93 l 336.387 12.598 l 328.914 12.598 l 328.914 18.93 l 327.062 18.93
 l 327.062 4.379 l 328.938 4.379 l 328.938 10.961 l h
336.387 10.961 m f
348.621 14.809 m 340.832 14.809 l 340.832 13.352 l 346.652 13.352 l 340.414
 5.883 l 340.414 4.387 l 348.902 4.387 l 348.902 5.844 l 342.426 5.844 l
 348.621 13.332 l h
348.621 14.809 m f
351.609 0.149 m 353.605 2.762 354.859 6.395 354.859 9.528 c 354.859 12.684
 353.605 16.317 351.609 18.93 c 350.516 18.93 l 352.27 16.074 353.246 12.723
 353.246 9.528 c 353.246 6.356 352.27 2.981 350.516 0.149 c h
351.609 0.149 m f
Q q
46.73 387.383 446.398 -345.602 re W n
q
46 387.512 448 -346 re W n
[ 1 0 0 1 0 -0.488007 ] concat
  q
Q q
46 43 446 -1 re W n
q
46 43 446 -1 re W n
  q
0 g
0.5 w
0 J
1 j
[ 1 3] 0 d
4 M 46.73 42.27 m 493.129 42.27 l S
  Q
Q
  Q
Q
Q q
0 g
0.5 w
0 J
1 j
[] 0.0 d
4 M 46.73 41.782 m 50.73 41.782 l S
493.129 41.782 m 489.129 41.782 l S
33.637 41.485 m 33.891 41.485 34.16 41.485 34.16 41.785 c 34.16 42.082 
33.891 42.082 33.637 42.082 c 25.551 42.082 l 25.297 42.082 25.031 42.082
 25.031 41.785 c 25.031 41.485 25.297 41.485 25.551 41.485 c h
33.637 41.485 m f
38.715 43.086 m 40.047 43.086 40.629 41.93 40.629 40.594 c 40.629 38.797
 39.672 38.106 38.805 38.106 c 38.016 38.106 36.727 38.5 36.324 39.668 c
 36.398 39.637 36.473 39.637 36.547 39.637 c 36.906 39.637 37.176 39.875
 37.176 40.262 c 37.176 40.696 36.848 40.887 36.547 40.887 c 36.297 40.887
 35.906 40.77 35.906 40.211 c 35.906 38.832 37.25 37.75 38.836 37.75 c 40.492
 37.75 41.766 39.055 41.766 40.582 c 41.766 42.035 40.566 43.082 39.148 
43.25 c 40.285 43.485 41.375 44.485 41.375 45.821 c 41.375 46.969 40.195
 47.809 38.852 47.809 c 37.492 47.809 36.297 46.989 36.297 45.821 c 36.297
 45.313 36.684 45.223 36.875 45.223 c 37.191 45.223 37.461 45.414 37.461
 45.805 c 37.461 46.188 37.191 46.383 36.875 46.383 c 36.816 46.383 36.742
 46.383 36.684 46.352 c 37.117 47.293 38.297 47.465 38.82 47.465 c 39.344
 47.465 40.328 47.215 40.328 45.801 c 40.328 45.387 40.27 44.653 39.762 
44.004 c 39.312 43.43 38.805 43.43 38.312 43.367 c 37.832 43.367 l 37.73
 43.352 37.668 43.336 37.668 43.219 c 37.668 43.102 37.684 43.086 37.984
 43.086 c h
38.715 43.086 m f
Q q
46.73 387.383 446.398 -345.602 re W n
q
46 387.512 448 -346 re W n
[ 1 0 0 1 0 -0.488007 ] concat
  q
Q q
46 112 446 -1 re W n
q
46 112 446 -1 re W n
  q
0 g
0.5 w
0 J
1 j
[ 1 3] 0 d
4 M 46.73 111.391 m 493.129 111.391 l S
  Q
Q
  Q
Q
Q q
0 g
0.5 w
0 J
1 j
[] 0.0 d
4 M 46.73 110.903 m 50.73 110.903 l S
493.129 110.903 m 489.129 110.903 l S
33.637 110.606 m 33.891 110.606 34.16 110.606 34.16 110.907 c 34.16 111.203
 33.891 111.203 33.637 111.203 c 25.551 111.203 l 25.297 111.203 25.031 
111.203 25.031 110.907 c 25.031 110.606 25.297 110.606 25.551 110.606 c 
h
33.637 110.606 m f
41.645 109.477 m 41.375 109.477 l 41.227 108.422 41.105 108.242 41.047 
108.149 c 40.973 108.032 39.895 108.032 39.688 108.032 c 36.816 108.032 
l 37.355 108.614 38.402 109.672 39.672 110.899 c 40.582 111.762 41.645 112.778
 41.645 114.254 c 41.645 116.02 40.238 117.032 38.668 117.032 c 37.027 117.032
 36.023 115.586 36.023 114.242 c 36.023 113.66 36.457 113.586 36.637 113.586
 c 36.789 113.586 37.234 113.676 37.234 114.196 c 37.234 114.657 36.848 
114.789 36.637 114.789 c 36.547 114.789 36.457 114.778 36.398 114.746 c 
36.684 116.02 37.551 116.645 38.461 116.645 c 39.762 116.645 40.613 115.614
 40.613 114.254 c 40.613 112.957 39.852 111.84 39 110.867 c 36.023 107.508
 l 36.023 107.168 l 41.285 107.168 l h
41.645 109.477 m f
Q q
46.73 387.383 446.398 -345.602 re W n
q
46 387.512 448 -346 re W n
[ 1 0 0 1 0 -0.488007 ] concat
  q
Q q
46 181 446 -1 re W n
q
46 181 446 -1 re W n
  q
0 g
0.5 w
0 J
1 j
[ 1 3] 0 d
4 M 46.73 180.508 m 493.129 180.508 l S
  Q
Q
  Q
Q
Q q
0 g
0.5 w
0 J
1 j
[] 0.0 d
4 M 46.73 180.02 m 50.73 180.02 l S
493.129 180.02 m 489.129 180.02 l S
33.637 179.727 m 33.891 179.727 34.16 179.727 34.16 180.024 c 34.16 180.324
 33.891 180.324 33.637 180.324 c 25.551 180.324 l 25.297 180.324 25.031 
180.324 25.031 180.024 c 25.031 179.727 25.297 179.727 25.551 179.727 c 
h
33.637 179.727 m f
39.387 185.75 m 39.387 186.063 39.371 186.078 39.164 186.078 c 38.582 185.434
 37.699 185.227 36.863 185.227 c 36.816 185.227 36.742 185.227 36.727 185.196
 c 36.715 185.164 36.715 185.133 36.715 184.809 c 37.176 184.809 37.953 
184.895 38.551 185.254 c 38.551 177.364 l 38.551 176.84 38.52 176.664 37.234
 176.664 c 36.789 176.664 l 36.789 176.289 l 41.152 176.289 l 41.152 176.664
 l 40.703 176.664 l 39.418 176.664 39.387 176.824 39.387 177.36 c h
39.387 185.75 m f
Q q
46.73 387.383 446.398 -345.602 re W n
q
46 387.512 448 -346 re W n
[ 1 0 0 1 0 -0.488007 ] concat
  q
Q q
46 250 446 -1 re W n
q
46 250 446 -1 re W n
  q
0 g
0.5 w
0 J
1 j
[ 1 3] 0 d
4 M 46.73 249.629 m 493.129 249.629 l S
  Q
Q
  Q
Q
Q q
0 g
0.5 w
0 J
1 j
[] 0.0 d
4 M 46.73 249.141 m 50.73 249.141 l S
493.129 249.141 m 489.129 249.141 l S
41.688 250.137 m 41.688 251.051 41.676 252.602 41.047 253.793 c 40.492 
254.84 39.609 255.211 38.836 255.211 c 38.117 255.211 37.207 254.883 36.637
 253.809 c 36.039 252.688 35.98 251.301 35.98 250.137 c 35.98 249.289 35.996
 247.992 36.457 246.856 c 37.102 245.317 38.25 245.11 38.836 245.11 c 39.523
 245.11 40.566 245.391 41.18 246.809 c 41.629 247.84 41.688 249.051 41.688
 250.137 c 38.836 245.348 m 37.879 245.348 37.312 246.168 37.102 247.305
 c 36.938 248.184 36.938 249.469 36.938 250.305 c 36.938 251.453 36.938 
252.407 37.133 253.317 c 37.414 254.582 38.25 254.973 38.836 254.973 c 39.449
 254.973 40.238 254.571 40.523 253.348 c 40.719 252.496 40.73 251.496 40.73
 250.305 c 40.73 249.332 40.73 248.137 40.555 247.258 c 40.238 245.629 39.359
 245.348 38.836 245.348 c f
Q q
46.73 387.383 446.398 -345.602 re W n
q
46 387.512 448 -346 re W n
[ 1 0 0 1 0 -0.488007 ] concat
  q
Q q
46 319 446 -1 re W n
q
46 319 446 -1 re W n
  q
0 g
0.5 w
0 J
1 j
[ 1 3] 0 d
4 M 46.73 318.75 m 493.129 318.75 l S
  Q
Q
  Q
Q
Q q
0 g
0.5 w
0 J
1 j
[] 0.0 d
4 M 46.73 318.262 m 50.73 318.262 l S
493.129 318.262 m 489.129 318.262 l S
39.387 323.989 m 39.387 324.305 39.371 324.317 39.164 324.317 c 38.582 
323.672 37.699 323.465 36.863 323.465 c 36.816 323.465 36.742 323.465 36.727
 323.438 c 36.715 323.403 36.715 323.371 36.715 323.047 c 37.176 323.047
 37.953 323.137 38.551 323.492 c 38.551 315.606 l 38.551 315.078 38.52 314.903
 37.234 314.903 c 36.789 314.903 l 36.789 314.528 l 41.152 314.528 l 41.152
 314.903 l 40.703 314.903 l 39.418 314.903 39.387 315.067 39.387 315.598
 c h
39.387 323.989 m f
Q q
46.73 387.383 446.398 -345.602 re W n
q
46 387.512 448 -346 re W n
[ 1 0 0 1 0 -0.488007 ] concat
  q
Q q
46 389 446 -2 re W n
q
46 389 446 -2 re W n
  q
0 g
0.5 w
0 J
1 j
[ 1 3] 0 d
4 M 46.73 387.871 m 493.129 387.871 l S
  Q
Q
  Q
Q
Q q
0 g
0.5 w
0 J
1 j
[] 0.0 d
4 M 46.73 387.383 m 50.73 387.383 l S
493.129 387.383 m 489.129 387.383 l S
41.645 385.957 m 41.375 385.957 l 41.227 384.899 41.105 384.719 41.047 
384.629 c 40.973 384.512 39.895 384.512 39.688 384.512 c 36.816 384.512 
l 37.355 385.094 38.402 386.153 39.672 387.379 c 40.582 388.242 41.645 389.258
 41.645 390.735 c 41.645 392.5 40.238 393.512 38.668 393.512 c 37.027 393.512
 36.023 392.063 36.023 390.723 c 36.023 390.141 36.457 390.067 36.637 390.067
 c 36.789 390.067 37.234 390.157 37.234 390.676 c 37.234 391.137 36.848 
391.27 36.637 391.27 c 36.547 391.27 36.457 391.258 36.398 391.227 c 36.684
 392.5 37.551 393.125 38.461 393.125 c 39.762 393.125 40.613 392.094 40.613
 390.735 c 40.613 389.438 39.852 388.321 39 387.348 c 36.023 383.989 l 36.023
 383.649 l 41.285 383.649 l h
41.645 385.957 m f
14.551 112.055 m 2.355 116.141 l 14.551 116.141 l 14.551 117.895 l 0 117.895
 l 0 115.324 l 12.676 111.102 l 0 106.797 l 0 104.227 l 14.551 104.227 l
 14.551 105.981 l 2.355 105.981 l 14.551 110.106 l h
14.551 112.055 m f
13.508 129.989 m 13.551 129.809 13.551 129.731 13.551 129.633 c 13.551 
129.051 13.254 128.735 12.738 128.735 c 6.621 128.735 l 4.777 128.735 3.785
 127.379 3.785 124.809 c 3.785 123.297 4.223 122.039 5 121.34 c 5.539 120.864
 6.133 120.664 7.168 120.625 c 7.168 122.301 l 5.898 122.438 5.324 123.196
 5.324 124.75 c 5.324 126.242 5.883 127.082 6.871 127.082 c 7.309 127.082
 l 8.004 127.082 8.301 126.66 8.457 125.348 c 8.754 122.996 8.836 122.637
 9.094 122 c 9.59 120.785 10.523 120.168 11.871 120.168 c 13.754 120.168
 14.945 121.481 14.945 123.594 c 14.945 124.91 14.484 125.965 13.41 127.141
 c 14.469 127.258 14.945 127.778 14.945 128.852 c 14.945 129.192 14.906 
129.449 14.762 129.989 c h
11.207 127.082 m 11.766 127.082 12.102 126.918 12.555 126.422 c 13.172 
125.746 13.488 124.926 13.488 123.953 c 13.488 122.657 12.875 121.903 11.824
 121.903 c 10.73 121.903 10.176 122.637 9.918 124.41 c 9.684 126.164 9.602
 126.52 9.348 127.082 c h
11.207 127.082 m f
4.145 138.617 m 5.66 138.617 l 4.422 137.782 3.844 136.766 3.844 135.43
 c 3.844 132.782 6.164 130.989 9.562 130.989 c 11.281 130.989 12.684 131.446
 13.688 132.301 c 14.566 133.078 15.086 134.196 15.086 135.289 c 15.086 
136.602 14.527 137.524 13.211 138.457 c 13.742 138.457 l 15.145 138.457 
15.992 138.278 16.566 137.86 c 17.172 137.422 17.531 136.567 17.531 135.547
 c 17.531 134.793 17.336 134.114 16.984 133.657 c 16.688 133.278 16.414 
133.117 15.809 133.016 c 15.809 131.324 l 17.762 131.504 18.93 133.039 18.93
 135.489 c 18.93 137.043 18.43 138.379 17.594 139.055 c 16.633 139.856 15.32
 140.153 12.871 140.153 c 4.145 140.153 l h
5.379 135.606 m 5.379 137.399 6.898 138.457 9.523 138.457 c 12.031 138.457
 13.551 137.383 13.551 135.629 c 13.551 133.813 12.004 132.719 9.465 132.719
 c 6.941 132.719 5.379 133.836 5.379 135.606 c f
4.086 142.879 m 14.547 142.879 l 14.547 144.555 l 8.777 144.555 l 6.641
 144.555 5.242 145.672 5.242 147.383 c 5.242 148.699 6.043 149.539 7.301
 149.539 c 14.547 149.539 l 14.547 151.192 l 6.641 151.192 l 4.902 151.192
 3.785 149.895 3.785 147.879 c 3.785 146.328 4.387 145.332 5.84 144.414 
c 4.086 144.414 l h
4.086 142.879 m f
4.086 155.555 m 4.086 153.899 l 14.547 153.899 l 14.547 155.555 l h
0 155.555 m 0 153.879 l 2.094 153.879 l 2.094 155.555 l h
0 155.555 m f
4.023 162.051 m 4.023 160.336 l 1.195 160.336 l 1.195 158.68 l 4.023 158.68
 l 4.023 157.27 l 5.379 157.27 l 5.379 158.68 l 13.289 158.68 l 14.348 158.68
 14.945 159.399 14.945 160.692 c 14.945 161.09 14.906 161.489 14.805 162.051
 c 13.406 162.051 l 13.469 161.828 13.488 161.571 13.488 161.254 c 13.488
 160.535 13.289 160.336 12.551 160.336 c 5.379 160.336 l 5.379 162.051 l
 h
4.023 162.051 m f
14.441 172.133 m 3.984 172.133 l 3.984 170.477 l 9.941 170.477 l 12.086
 170.477 13.488 169.36 13.488 167.625 c 13.488 166.313 12.688 165.477 11.422
 165.477 c 3.984 165.477 l 3.984 163.821 l 12.078 163.821 l 13.824 163.821
 14.945 165.117 14.945 167.149 c 14.945 168.684 14.406 169.66 13.027 170.637
 c 14.441 170.637 l h
14.441 172.133 m f
0 183.469 m 0 181.817 l 5.402 181.817 l 4.348 181.117 3.785 180 3.785 178.606
 c 3.785 175.899 5.949 174.121 9.27 174.121 c 12.785 174.121 14.945 175.856
 14.945 178.668 c 14.945 180.098 14.406 181.098 13.109 181.992 c 14.551 
181.992 l 14.551 183.469 l h
5.344 178.887 m 5.344 180.68 6.926 181.817 9.406 181.817 c 11.801 181.817
 13.387 180.66 13.387 178.903 c 13.387 177.074 11.785 175.856 9.363 175.856
 c 6.949 175.856 5.344 177.074 5.344 178.887 c f
9.762 194.907 m 8.195 194.907 7.254 194.785 6.492 194.489 c 4.809 193.809
 3.785 192.215 3.785 190.262 c 3.785 187.356 6.008 185.481 9.426 185.481
 c 12.844 185.481 14.945 187.293 14.945 190.223 c 14.945 192.614 13.574 
194.266 11.281 194.688 c 11.281 193.012 l 12.68 192.555 13.41 191.617 13.41
 190.282 c 13.41 189.227 12.922 188.328 12.031 187.774 c 11.426 187.375 
10.816 187.235 9.762 187.215 c h
8.406 187.254 m 6.539 187.391 5.324 188.571 5.324 190.242 c 5.324 191.875
 6.633 193.133 8.289 193.133 c 8.328 193.133 8.367 193.133 8.406 193.11 
c h
8.406 187.254 m f
4.086 202.676 m 14.547 202.676 l 14.547 204.348 l 9.117 204.348 l 7.617
 204.348 6.641 204.731 6.062 205.528 c 5.684 206.043 5.562 206.539 5.562
 207.696 c 3.844 207.696 l 3.809 207.418 3.785 207.278 3.785 207.059 c 3.785
 205.985 4.426 205.168 5.984 204.207 c 4.086 204.207 l h
4.086 202.676 m f
9.762 218.157 m 8.195 218.157 7.254 218.039 6.492 217.739 c 4.809 217.063
 3.785 215.469 3.785 213.516 c 3.785 210.606 6.008 208.735 9.426 208.735
 c 12.844 208.735 14.945 210.543 14.945 213.473 c 14.945 215.867 13.574 
217.52 11.281 217.938 c 11.281 216.266 l 12.68 215.805 13.41 214.871 13.41
 213.535 c 13.41 212.477 12.922 211.582 12.031 211.024 c 11.426 210.625 
10.816 210.485 9.762 210.469 c h
8.406 210.508 m 6.539 210.645 5.324 211.821 5.324 213.496 c 5.324 215.129
 6.633 216.387 8.289 216.387 c 8.328 216.387 8.367 216.387 8.406 216.364
 c h
8.406 210.508 m f
6.988 227.742 m 4.941 227.723 3.785 226.367 3.785 223.953 c 3.785 221.524
 5.039 219.953 6.961 219.953 c 8.59 219.953 9.363 220.789 9.957 223.258 
c 10.332 224.813 l 10.613 225.969 11.027 226.426 11.781 226.426 c 12.754
 226.426 13.41 225.449 13.41 223.996 c 13.41 223.098 13.152 222.344 12.715
 221.922 c 12.414 221.664 12.121 221.547 11.387 221.446 c 11.387 219.692
 l 13.797 219.77 14.945 221.125 14.945 223.856 c 14.945 226.485 13.656 228.16
 11.652 228.16 c 10.105 228.16 9.25 227.282 8.754 225.211 c 8.379 223.617
 l 8.062 222.262 7.625 221.684 6.895 221.684 c 5.941 221.684 5.324 222.543
 5.324 223.895 c 5.324 225.231 5.898 225.949 6.988 225.989 c h
6.988 227.742 m f
18.93 230.055 m 18.93 231.727 l 13.551 231.727 l 14.629 232.606 15.105 
233.578 15.105 234.938 c 15.105 237.625 12.922 239.399 9.566 239.399 c 6.035
 239.399 3.824 237.684 3.824 234.914 c 3.824 233.5 4.465 232.364 5.699 231.586
 c 4.117 231.586 l 4.117 230.055 l h
5.379 234.637 m 5.379 236.469 7.012 237.664 9.527 237.664 c 11.922 237.664
 13.551 236.449 13.551 234.637 c 13.551 232.883 11.941 231.727 9.469 231.727
 c 6.988 231.727 5.379 232.883 5.379 234.637 c f
3.785 245.477 m 3.785 242.547 5.871 240.77 9.363 240.77 c 12.859 240.77
 14.945 242.528 14.945 245.496 c 14.945 248.422 12.859 250.219 9.445 250.219
 c 5.852 250.219 3.785 248.485 3.785 245.477 c 5.324 245.496 m 5.324 247.367
 6.848 248.485 9.426 248.485 c 11.863 248.485 13.41 247.328 13.41 245.496
 c 13.41 243.641 11.883 242.504 9.363 242.504 c 6.867 242.504 5.324 243.641
 5.324 245.496 c f
4.086 252.528 m 14.547 252.528 l 14.547 254.203 l 8.777 254.203 l 6.641
 254.203 5.242 255.317 5.242 257.032 c 5.242 258.348 6.043 259.184 7.301
 259.184 c 14.547 259.184 l 14.547 260.836 l 6.641 260.836 l 4.902 260.836
 3.785 259.543 3.785 257.528 c 3.785 255.977 4.387 254.977 5.84 254.063 
c 4.086 254.063 l h
4.086 252.528 m f
6.988 270.938 m 4.941 270.918 3.785 269.567 3.785 267.153 c 3.785 264.723
 5.039 263.149 6.961 263.149 c 8.59 263.149 9.363 263.989 9.957 266.457 
c 10.332 268.008 l 10.613 269.168 11.027 269.625 11.781 269.625 c 12.754
 269.625 13.41 268.649 13.41 267.192 c 13.41 266.297 13.152 265.539 12.715
 265.121 c 12.414 264.86 12.121 264.742 11.387 264.645 c 11.387 262.891 
l 13.797 262.969 14.945 264.324 14.945 267.055 c 14.945 269.684 13.656 271.36
 11.652 271.36 c 10.105 271.36 9.25 270.481 8.754 268.407 c 8.379 266.813
 l 8.062 265.461 7.625 264.883 6.895 264.883 c 5.941 264.883 5.324 265.739
 5.324 267.094 c 5.324 268.43 5.898 269.145 6.988 269.188 c h
6.988 270.938 m f
9.762 282.395 m 8.195 282.395 7.254 282.278 6.492 281.977 c 4.809 281.301
 3.785 279.707 3.785 277.754 c 3.785 274.848 6.008 272.973 9.426 272.973
 c 12.844 272.973 14.945 274.785 14.945 277.715 c 14.945 280.106 13.574 
281.758 11.281 282.176 c 11.281 280.504 l 12.68 280.047 13.41 279.11 13.41
 277.774 c 13.41 276.719 12.922 275.821 12.031 275.262 c 11.426 274.864 
10.816 274.723 9.762 274.707 c h
8.406 274.746 m 6.539 274.883 5.324 276.059 5.324 277.735 c 5.324 279.367
 6.633 280.625 8.289 280.625 c 8.328 280.625 8.367 280.625 8.406 280.602
 c h
8.406 274.746 m f
0 293.492 m 2.613 291.5 6.25 290.246 9.383 290.246 c 12.535 290.246 16.168
 291.5 18.781 293.492 c 18.781 294.59 l 15.93 292.836 12.574 291.864 9.383
 291.864 c 6.207 291.864 2.836 292.836 0 294.59 c h
0 293.492 m f
0 305.289 m 0 303.637 l 5.402 303.637 l 4.348 302.938 3.785 301.821 3.785
 300.426 c 3.785 297.719 5.949 295.946 9.27 295.946 c 12.785 295.946 14.945
 297.68 14.945 300.489 c 14.945 301.922 14.406 302.918 13.109 303.813 c 
14.551 303.813 l 14.551 305.289 l h
5.344 300.707 m 5.344 302.5 6.926 303.637 9.406 303.637 c 11.801 303.637
 13.387 302.481 13.387 300.727 c 13.387 298.895 11.785 297.68 9.363 297.68
 c 6.949 297.68 5.344 298.895 5.344 300.707 c f
14.547 308.082 m 14.547 314.633 l 14.547 316.012 14.168 317.024 13.336 
317.805 c 12.586 318.52 11.559 318.918 10.43 318.918 c 8.688 318.918 7.645
 318.121 6.93 316.27 c 6.305 317.582 5.219 318.282 3.727 318.282 c 2.66 
318.282 1.711 317.883 1.027 317.125 c 0.324 316.367 0 315.371 0 313.977 
c 0 308.082 l h
6.332 309.934 m 1.637 309.934 l 1.637 313.52 l 1.637 314.555 1.781 315.133
 2.164 315.629 c 2.57 316.149 3.176 316.426 3.988 316.426 c 4.777 316.426
 5.402 316.149 5.809 315.629 c 6.191 315.133 6.332 314.555 6.332 313.52 
c h
12.906 309.934 m 7.969 309.934 l 7.969 314.457 l 7.969 315.352 8.188 315.949
 8.656 316.387 c 9.113 316.824 9.742 317.067 10.449 317.067 c 11.137 317.067
 11.766 316.824 12.219 316.387 c 12.691 315.949 12.906 315.352 12.906 314.457
 c h
12.906 309.934 m f
18.781 321.649 m 16.168 323.641 12.535 324.895 9.402 324.895 c 6.25 324.895
 2.613 323.641 0 321.649 c 0 320.551 l 2.855 322.305 6.207 323.282 9.402
 323.282 c 12.574 323.282 15.949 322.305 18.781 320.551 c h
18.781 321.649 m f
1 w
46.73 387.383 m 493.129 387.383 l S
493.129 41.782 m 493.129 387.383 l S
46.73 41.782 m 493.129 41.782 l S
46.73 41.782 m 46.73 387.383 l S
1 g
399.824 309.524 m 484.73 309.524 l 486.328 309.524 487.129 310.324 487.129
 311.926 c 487.129 378.981 l 487.129 380.582 486.328 381.383 484.73 381.383
 c 399.824 381.383 l 398.223 381.383 397.422 380.582 397.422 378.981 c 397.422
 311.926 l 397.422 310.324 398.223 309.524 399.824 309.524 c h
399.824 309.524 m f
0 g
399.824 309.524 m 484.73 309.524 l 486.328 309.524 487.129 310.324 487.129
 311.926 c 487.129 378.981 l 487.129 380.582 486.328 381.383 484.73 381.383
 c 399.824 381.383 l 398.223 381.383 397.422 380.582 397.422 378.981 c 397.422
 311.926 l 397.422 310.324 398.223 309.524 399.824 309.524 c h
399.824 309.524 m S
0 0 1 rg
2 w
2 J
402.223 372.262 m 426.223 372.262 l S
414.223 377.262 m 409.223 367.262 l 419.223 367.262 l h
414.223 377.262 m f
0 g
1 w
0 J
0 j
414.223 377.262 m 409.223 367.262 l 419.223 367.262 l h
414.223 377.262 m S
438.922 374.114 m 438.922 368.063 l 439.973 368.063 l 439.973 376.555 l
 439.281 376.555 l 438.906 375.25 438.668 375.071 437.043 374.867 c 437.043
 374.114 l h
438.922 374.114 m f
451.031 372.598 m 451.02 373.824 450.207 374.52 448.758 374.52 c 447.301
 374.52 446.355 373.77 446.355 372.614 c 446.355 371.637 446.859 371.172
 448.34 370.817 c 449.273 370.59 l 449.969 370.422 450.242 370.172 450.242
 369.723 c 450.242 369.141 449.656 368.746 448.781 368.746 c 448.246 368.746
 447.789 368.899 447.539 369.16 c 447.383 369.34 447.312 369.52 447.254 
369.957 c 446.203 369.957 l 446.246 368.512 447.062 367.824 448.699 367.824
 c 450.277 367.824 451.281 368.594 451.281 369.797 c 451.281 370.727 450.754
 371.242 449.512 371.539 c 448.555 371.762 l 447.742 371.953 447.398 372.215
 447.398 372.657 c 447.398 373.227 447.91 373.598 448.723 373.598 c 449.523
 373.598 449.953 373.25 449.977 372.598 c h
451.031 372.598 m f
452.418 365.434 m 453.422 365.434 l 453.422 368.66 l 453.949 368.012 454.531
 367.727 455.348 367.727 c 456.961 367.727 458.023 369.039 458.023 371.051
 c 458.023 373.172 456.996 374.496 455.332 374.496 c 454.484 374.496 453.805
 374.114 453.336 373.371 c 453.336 374.321 l 452.418 374.321 l h
455.168 373.563 m 456.266 373.563 456.984 372.582 456.984 371.074 c 456.984
 369.637 456.254 368.66 455.168 368.66 c 454.113 368.66 453.422 369.625 
453.422 371.11 c 453.422 372.598 454.113 373.563 455.168 373.563 c f
459.23 376.789 1.004 -8.73 re f
462.867 374.336 m 461.875 374.336 l 461.875 368.063 l 462.867 368.063 l
 h
462.867 376.789 m 461.859 376.789 l 461.859 375.532 l 462.867 375.532 l
 h
462.867 376.789 m f
469.355 372.239 m 469.309 372.848 469.176 373.242 468.938 373.59 c 468.508
 374.172 467.758 374.52 466.883 374.52 c 465.195 374.52 464.098 373.184 
464.098 371.114 c 464.098 369.098 465.172 367.824 466.871 367.824 c 468.363
 367.824 469.309 368.715 469.43 370.242 c 468.426 370.242 l 468.258 369.242
 467.742 368.746 466.895 368.746 c 465.793 368.746 465.137 369.637 465.137
 371.114 c 465.137 372.668 465.785 373.598 466.871 373.598 c 467.707 373.598
 468.234 373.11 468.355 372.239 c h
469.355 372.239 m f
475.836 370.934 m 475.836 371.875 475.766 372.438 475.586 372.895 c 475.18
 373.907 474.223 374.52 473.051 374.52 c 471.309 374.52 470.184 373.184 
470.184 371.137 c 470.184 369.086 471.27 367.824 473.027 367.824 c 474.461
 367.824 475.453 368.645 475.707 370.02 c 474.699 370.02 l 474.426 369.184
 473.863 368.746 473.062 368.746 c 472.43 368.746 471.891 369.035 471.559
 369.571 c 471.316 369.934 471.234 370.301 471.223 370.934 c h
471.246 371.746 m 471.328 372.867 472.035 373.598 473.039 373.598 c 474.02
 373.598 474.773 372.809 474.773 371.817 c 474.773 371.793 474.773 371.77
 474.762 371.746 c h
471.246 371.746 m f
481.586 372.598 m 481.574 373.824 480.762 374.52 479.316 374.52 c 477.855
 374.52 476.914 373.77 476.914 372.614 c 476.914 371.637 477.414 371.172
 478.898 370.817 c 479.828 370.59 l 480.523 370.422 480.801 370.172 480.801
 369.723 c 480.801 369.141 480.211 368.746 479.34 368.746 c 478.801 368.746
 478.348 368.899 478.098 369.16 c 477.941 369.34 477.871 369.52 477.809 
369.957 c 476.758 369.957 l 476.805 368.512 477.617 367.824 479.258 367.824
 c 480.836 367.824 481.84 368.594 481.84 369.797 c 481.84 370.727 481.312
 371.242 480.07 371.539 c 479.113 371.762 l 478.301 371.953 477.953 372.215
 477.953 372.657 c 477.953 373.227 478.469 373.598 479.281 373.598 c 480.082
 373.598 480.512 373.25 480.535 372.598 c h
481.586 372.598 m f
0 0.501961 0 rg
2 w
2 J
1 j
402.223 355.199 m 426.223 355.199 l S
414.223 350.199 m 415.551 350.199 416.82 350.727 417.758 351.664 c 418.695
 352.602 419.223 353.871 419.223 355.199 c 419.223 356.524 418.695 357.797
 417.758 358.735 c 416.82 359.672 415.551 360.199 414.223 360.199 c 412.898
 360.199 411.625 359.672 410.688 358.735 c 409.75 357.797 409.223 356.524
 409.223 355.199 c 409.223 353.871 409.75 352.602 410.688 351.664 c 411.625
 350.727 412.898 350.199 414.223 350.199 c h
414.223 350.199 m f
0 g
1 w
0 J
414.223 350.199 m 415.551 350.199 416.82 350.727 417.758 351.664 c 418.695
 352.602 419.223 353.871 419.223 355.199 c 419.223 356.524 418.695 357.797
 417.758 358.735 c 416.82 359.672 415.551 360.199 414.223 360.199 c 412.898
 360.199 411.625 359.672 410.688 358.735 c 409.75 357.797 409.223 356.524
 409.223 355.199 c 409.223 353.871 409.75 352.602 410.688 351.664 c 411.625
 350.727 412.898 350.199 414.223 350.199 c h
414.223 350.199 m S
438.465 354.946 m 439.039 354.946 l 440.199 354.946 440.797 354.418 440.797
 353.399 c 440.797 352.328 440.141 351.696 439.039 351.696 c 437.891 351.696
 437.328 352.27 437.258 353.512 c 436.207 353.512 l 436.254 352.824 436.371
 352.383 436.578 351.996 c 437.008 351.18 437.844 350.758 439.004 350.758
 c 440.75 350.758 441.871 351.805 441.871 353.414 c 441.871 354.496 441.453
 355.098 440.438 355.446 c 441.227 355.754 441.621 356.344 441.621 357.184
 c 441.621 358.625 440.652 359.489 439.039 359.489 c 437.328 359.489 436.422
 358.563 436.387 356.782 c 437.438 356.782 l 437.449 357.285 437.496 357.567
 437.629 357.824 c 437.867 358.285 438.395 358.567 439.051 358.567 c 439.984
 358.567 440.547 358.024 440.547 357.141 c 440.547 356.547 440.332 356.196
 439.863 356.008 c 439.578 355.891 439.207 355.84 438.465 355.84 c h
438.465 354.946 m f
451.031 355.532 m 451.02 356.762 450.207 357.453 448.758 357.453 c 447.301
 357.453 446.355 356.703 446.355 355.551 c 446.355 354.571 446.859 354.11
 448.34 353.754 c 449.273 353.528 l 449.969 353.36 450.242 353.11 450.242
 352.657 c 450.242 352.074 449.656 351.68 448.781 351.68 c 448.246 351.68
 447.789 351.836 447.539 352.098 c 447.383 352.278 447.312 352.453 447.254
 352.895 c 446.203 352.895 l 446.246 351.449 447.062 350.758 448.699 350.758
 c 450.277 350.758 451.281 351.532 451.281 352.735 c 451.281 353.664 450.754
 354.176 449.512 354.473 c 448.555 354.699 l 447.742 354.887 447.398 355.153
 447.398 355.59 c 447.398 356.16 447.91 356.532 448.723 356.532 c 449.523
 356.532 449.953 356.188 449.977 355.532 c h
451.031 355.532 m f
452.418 348.367 m 453.422 348.367 l 453.422 351.598 l 453.949 350.949 454.531
 350.664 455.348 350.664 c 456.961 350.664 458.023 351.973 458.023 353.985
 c 458.023 356.106 456.996 357.434 455.332 357.434 c 454.484 357.434 453.805
 357.047 453.336 356.305 c 453.336 357.254 l 452.418 357.254 l h
455.168 356.496 m 456.266 356.496 456.984 355.52 456.984 354.012 c 456.984
 352.574 456.254 351.598 455.168 351.598 c 454.113 351.598 453.422 352.563
 453.422 354.047 c 453.422 355.532 454.113 356.496 455.168 356.496 c f
459.23 359.727 1.004 -8.73 re f
462.867 357.274 m 461.875 357.274 l 461.875 351 l 462.867 351 l h
462.867 359.727 m 461.859 359.727 l 461.859 358.469 l 462.867 358.469 l
 h
462.867 359.727 m f
469.355 355.176 m 469.309 355.785 469.176 356.18 468.938 356.524 c 468.508
 357.11 467.758 357.453 466.883 357.453 c 465.195 357.453 464.098 356.121
 464.098 354.047 c 464.098 352.035 465.172 350.758 466.871 350.758 c 468.363
 350.758 469.309 351.653 469.43 353.18 c 468.426 353.18 l 468.258 352.18
 467.742 351.68 466.895 351.68 c 465.793 351.68 465.137 352.574 465.137 
354.047 c 465.137 355.606 465.785 356.532 466.871 356.532 c 467.707 356.532
 468.234 356.043 468.355 355.176 c h
469.355 355.176 m f
475.836 353.867 m 475.836 354.809 475.766 355.375 475.586 355.832 c 475.18
 356.84 474.223 357.453 473.051 357.453 c 471.309 357.453 470.184 356.121
 470.184 354.071 c 470.184 352.02 471.27 350.758 473.027 350.758 c 474.461
 350.758 475.453 351.582 475.707 352.957 c 474.699 352.957 l 474.426 352.117
 473.863 351.68 473.062 351.68 c 472.43 351.68 471.891 351.973 471.559 352.508
 c 471.316 352.871 471.234 353.239 471.223 353.867 c h
471.246 354.684 m 471.328 355.805 472.035 356.532 473.039 356.532 c 474.02
 356.532 474.773 355.746 474.773 354.754 c 474.773 354.731 474.773 354.707
 474.762 354.684 c h
471.246 354.684 m f
481.586 355.532 m 481.574 356.762 480.762 357.453 479.316 357.453 c 477.855
 357.453 476.914 356.703 476.914 355.551 c 476.914 354.571 477.414 354.11
 478.898 353.754 c 479.828 353.528 l 480.523 353.36 480.801 353.11 480.801
 352.657 c 480.801 352.074 480.211 351.68 479.34 351.68 c 478.801 351.68
 478.348 351.836 478.098 352.098 c 477.941 352.278 477.871 352.453 477.809
 352.895 c 476.758 352.895 l 476.805 351.449 477.617 350.758 479.258 350.758
 c 480.836 350.758 481.84 351.532 481.84 352.735 c 481.84 353.664 481.312
 354.176 480.07 354.473 c 479.113 354.699 l 478.301 354.887 477.953 355.153
 477.953 355.59 c 477.953 356.16 478.469 356.532 479.281 356.532 c 480.082
 356.532 480.512 356.188 480.535 355.532 c h
481.586 355.532 m f
0 0.74902 0.74902 rg
2 w
2 J
402.223 338.133 m 426.223 338.133 l S
414.223 331.063 m 421.293 338.133 l 414.223 345.207 l 407.152 338.133 l
 h
414.223 331.063 m f
0 g
1 w
0 J
0 j
414.223 331.063 m 421.293 338.133 l 414.223 345.207 l 407.152 338.133 l
 h
414.223 331.063 m S
441.512 342.422 m 437.141 342.422 l 436.504 337.832 l 437.473 337.832 l
 437.965 338.414 438.371 338.621 439.027 338.621 c 440.164 338.621 440.879
 337.844 440.879 336.59 c 440.879 335.367 440.176 334.629 439.027 334.629
 c 438.105 334.629 437.547 335.094 437.293 336.051 c 436.242 336.051 l 436.387
 335.36 436.504 335.02 436.754 334.711 c 437.234 334.067 438.094 333.696
 439.051 333.696 c 440.762 333.696 441.957 334.938 441.957 336.731 c 441.957
 338.407 440.844 339.555 439.219 339.555 c 438.621 339.555 438.145 339.399
 437.652 339.039 c 437.988 341.383 l 441.512 341.383 l h
441.512 342.422 m f
451.031 338.469 m 451.02 339.696 450.207 340.391 448.758 340.391 c 447.301
 340.391 446.355 339.641 446.355 338.485 c 446.355 337.508 446.859 337.043
 448.34 336.688 c 449.273 336.461 l 449.969 336.293 450.242 336.047 450.242
 335.594 c 450.242 335.012 449.656 334.617 448.781 334.617 c 448.246 334.617
 447.789 334.77 447.539 335.032 c 447.383 335.211 447.312 335.391 447.254
 335.828 c 446.203 335.828 l 446.246 334.383 447.062 333.696 448.699 333.696
 c 450.277 333.696 451.281 334.465 451.281 335.668 c 451.281 336.598 450.754
 337.114 449.512 337.41 c 448.555 337.633 l 447.742 337.824 447.398 338.086
 447.398 338.528 c 447.398 339.098 447.91 339.469 448.723 339.469 c 449.523
 339.469 449.953 339.121 449.977 338.469 c h
451.031 338.469 m f
452.418 331.305 m 453.422 331.305 l 453.422 334.532 l 453.949 333.883 454.531
 333.598 455.348 333.598 c 456.961 333.598 458.023 334.91 458.023 336.922
 c 458.023 339.043 456.996 340.367 455.332 340.367 c 454.484 340.367 453.805
 339.985 453.336 339.242 c 453.336 340.192 l 452.418 340.192 l h
455.168 339.434 m 456.266 339.434 456.984 338.453 456.984 336.946 c 456.984
 335.508 456.254 334.532 455.168 334.532 c 454.113 334.532 453.422 335.496
 453.422 336.981 c 453.422 338.469 454.113 339.434 455.168 339.434 c f
459.23 342.66 1.004 -8.73 re f
462.867 340.207 m 461.875 340.207 l 461.875 333.934 l 462.867 333.934 l
 h
462.867 342.66 m 461.859 342.66 l 461.859 341.407 l 462.867 341.407 l h
462.867 342.66 m f
469.355 338.11 m 469.309 338.719 469.176 339.114 468.938 339.461 c 468.508
 340.043 467.758 340.391 466.883 340.391 c 465.195 340.391 464.098 339.055
 464.098 336.985 c 464.098 334.969 465.172 333.696 466.871 333.696 c 468.363
 333.696 469.309 334.59 469.43 336.114 c 468.426 336.114 l 468.258 335.114
 467.742 334.617 466.895 334.617 c 465.793 334.617 465.137 335.508 465.137
 336.985 c 465.137 338.539 465.785 339.469 466.871 339.469 c 467.707 339.469
 468.234 338.981 468.355 338.11 c h
469.355 338.11 m f
475.836 336.805 m 475.836 337.746 475.766 338.309 475.586 338.766 c 475.18
 339.778 474.223 340.391 473.051 340.391 c 471.309 340.391 470.184 339.055
 470.184 337.008 c 470.184 334.957 471.27 333.696 473.027 333.696 c 474.461
 333.696 475.453 334.516 475.707 335.891 c 474.699 335.891 l 474.426 335.055
 473.863 334.617 473.062 334.617 c 472.43 334.617 471.891 334.907 471.559
 335.442 c 471.316 335.805 471.234 336.172 471.223 336.805 c h
471.246 337.617 m 471.328 338.739 472.035 339.469 473.039 339.469 c 474.02
 339.469 474.773 338.68 474.773 337.688 c 474.773 337.664 474.773 337.641
 474.762 337.617 c h
471.246 337.617 m f
481.586 338.469 m 481.574 339.696 480.762 340.391 479.316 340.391 c 477.855
 340.391 476.914 339.641 476.914 338.485 c 476.914 337.508 477.414 337.043
 478.898 336.688 c 479.828 336.461 l 480.523 336.293 480.801 336.047 480.801
 335.594 c 480.801 335.012 480.211 334.617 479.34 334.617 c 478.801 334.617
 478.348 334.77 478.098 335.032 c 477.941 335.211 477.871 335.391 477.809
 335.828 c 476.758 335.828 l 476.805 334.383 477.617 333.696 479.258 333.696
 c 480.836 333.696 481.84 334.465 481.84 335.668 c 481.84 336.598 481.312
 337.114 480.07 337.41 c 479.113 337.633 l 478.301 337.824 477.953 338.086
 477.953 338.528 c 477.953 339.098 478.469 339.469 479.281 339.469 c 480.082
 339.469 480.512 339.121 480.535 338.469 c h
481.586 338.469 m f
0.74902 0 0.74902 rg
2 w
2 J
1 j
402.223 321.071 m 426.223 321.071 l S
414.223 326.071 m 413.102 322.614 l 409.469 322.614 l 412.406 320.481 l
 411.285 317.024 l 414.223 319.16 l 417.164 317.024 l 416.039 320.481 l 
418.98 322.614 l 415.348 322.614 l h
414.223 326.071 m f
0 g
1 w
0 J
2 j
414.223 326.071 m 413.102 322.614 l 409.469 322.614 l 412.406 320.481 l
 411.285 317.024 l 414.223 319.16 l 417.164 317.024 l 416.039 320.481 l 
418.98 322.614 l 415.348 322.614 l h
414.223 326.071 m S
442.039 325.324 m 436.371 325.324 l 436.371 324.282 l 440.953 324.282 l
 438.934 321.387 438.105 319.61 437.473 316.809 c 438.598 316.809 l 439.062
 319.535 440.129 321.879 442.039 324.438 c h
442.039 325.324 m f
451.031 321.403 m 451.02 322.633 450.207 323.324 448.758 323.324 c 447.301
 323.324 446.355 322.574 446.355 321.422 c 446.355 320.446 446.859 319.981
 448.34 319.625 c 449.273 319.399 l 449.969 319.231 450.242 318.981 450.242
 318.528 c 450.242 317.946 449.656 317.551 448.781 317.551 c 448.246 317.551
 447.789 317.707 447.539 317.969 c 447.383 318.149 447.312 318.324 447.254
 318.766 c 446.203 318.766 l 446.246 317.321 447.062 316.629 448.699 316.629
 c 450.277 316.629 451.281 317.403 451.281 318.606 c 451.281 319.535 450.754
 320.047 449.512 320.344 c 448.555 320.571 l 447.742 320.758 447.398 321.024
 447.398 321.461 c 447.398 322.032 447.91 322.403 448.723 322.403 c 449.523
 322.403 449.953 322.059 449.977 321.403 c h
451.031 321.403 m f
452.418 314.239 m 453.422 314.239 l 453.422 317.469 l 453.949 316.821 454.531
 316.535 455.348 316.535 c 456.961 316.535 458.023 317.844 458.023 319.856
 c 458.023 321.977 456.996 323.305 455.332 323.305 c 454.484 323.305 453.805
 322.918 453.336 322.176 c 453.336 323.125 l 452.418 323.125 l h
455.168 322.371 m 456.266 322.371 456.984 321.391 456.984 319.883 c 456.984
 318.446 456.254 317.469 455.168 317.469 c 454.113 317.469 453.422 318.434
 453.422 319.918 c 453.422 321.403 454.113 322.371 455.168 322.371 c f
459.23 325.598 1.004 -8.73 re f
462.867 323.145 m 461.875 323.145 l 461.875 316.871 l 462.867 316.871 l
 h
462.867 325.598 m 461.859 325.598 l 461.859 324.34 l 462.867 324.34 l h
462.867 325.598 m f
469.355 321.047 m 469.309 321.657 469.176 322.051 468.938 322.395 c 468.508
 322.981 467.758 323.324 466.883 323.324 c 465.195 323.324 464.098 321.992
 464.098 319.918 c 464.098 317.907 465.172 316.629 466.871 316.629 c 468.363
 316.629 469.309 317.524 469.43 319.051 c 468.426 319.051 l 468.258 318.051
 467.742 317.551 466.895 317.551 c 465.793 317.551 465.137 318.446 465.137
 319.918 c 465.137 321.477 465.785 322.403 466.871 322.403 c 467.707 322.403
 468.234 321.914 468.355 321.047 c h
469.355 321.047 m f
475.836 319.739 m 475.836 320.68 475.766 321.246 475.586 321.703 c 475.18
 322.715 474.223 323.324 473.051 323.324 c 471.309 323.324 470.184 321.992
 470.184 319.942 c 470.184 317.891 471.27 316.629 473.027 316.629 c 474.461
 316.629 475.453 317.453 475.707 318.828 c 474.699 318.828 l 474.426 317.989
 473.863 317.551 473.062 317.551 c 472.43 317.551 471.891 317.844 471.559
 318.379 c 471.316 318.742 471.234 319.11 471.223 319.739 c h
471.246 320.555 m 471.328 321.676 472.035 322.403 473.039 322.403 c 474.02
 322.403 474.773 321.617 474.773 320.625 c 474.773 320.602 474.773 320.578
 474.762 320.555 c h
471.246 320.555 m f
481.586 321.403 m 481.574 322.633 480.762 323.324 479.316 323.324 c 477.855
 323.324 476.914 322.574 476.914 321.422 c 476.914 320.446 477.414 319.981
 478.898 319.625 c 479.828 319.399 l 480.523 319.231 480.801 318.981 480.801
 318.528 c 480.801 317.946 480.211 317.551 479.34 317.551 c 478.801 317.551
 478.348 317.707 478.098 317.969 c 477.941 318.149 477.871 318.324 477.809
 318.766 c 476.758 318.766 l 476.805 317.321 477.617 316.629 479.258 316.629
 c 480.836 316.629 481.84 317.403 481.84 318.606 c 481.84 319.535 481.312
 320.047 480.07 320.344 c 479.113 320.571 l 478.301 320.758 477.953 321.024
 477.953 321.461 c 477.953 322.032 478.469 322.403 479.281 322.403 c 480.082
 322.403 480.512 322.059 480.535 321.403 c h
481.586 321.403 m f
Q Q
showpage
%%Trailer
end restore
%%EOF
