%!PS-Adobe-3.0 EPSF-3.0
%%Creator: cairo 1.13.1 (http://cairographics.org)
%%CreationDate: Wed Aug 10 16:07:13 2016
%%Pages: 1
%%DocumentData: Clean7Bit
%%LanguageLevel: 2
%%BoundingBox: 0 -1 501 394
%%EndComments
%%BeginProlog
save
50 dict begin
/q { gsave } bind def
/Q { grestore } bind def
/cm { 6 array astore concat } bind def
/w { setlinewidth } bind def
/J { setlinecap } bind def
/j { setlinejoin } bind def
/M { setmiterlimit } bind def
/d { setdash } bind def
/m { moveto } bind def
/l { lineto } bind def
/c { curveto } bind def
/h { closepath } bind def
/re { exch dup neg 3 1 roll 5 3 roll moveto 0 rlineto
      0 exch rlineto 0 rlineto closepath } bind def
/S { stroke } bind def
/f { fill } bind def
/f* { eofill } bind def
/n { newpath } bind def
/W { clip } bind def
/W* { eoclip } bind def
/BT { } bind def
/ET { } bind def
/pdfmark where { pop globaldict /?pdfmark /exec load put }
    { globaldict begin /?pdfmark /pop load def /pdfmark
    /cleartomark load def end } ifelse
/BDC { mark 3 1 roll /BDC pdfmark } bind def
/EMC { mark /EMC pdfmark } bind def
/cairo_store_point { /cairo_point_y exch def /cairo_point_x exch def } def
/Tj { show currentpoint cairo_store_point } bind def
/TJ {
  {
    dup
    type /stringtype eq
    { show } { -0.001 mul 0 cairo_font_matrix dtransform rmoveto } ifelse
  } forall
  currentpoint cairo_store_point
} bind def
/cairo_selectfont { cairo_font_matrix aload pop pop pop 0 0 6 array astore
    cairo_font exch selectfont cairo_point_x cairo_point_y moveto } bind def
/Tf { pop /cairo_font exch def /cairo_font_matrix where
      { pop cairo_selectfont } if } bind def
/Td { matrix translate cairo_font_matrix matrix concatmatrix dup
      /cairo_font_matrix exch def dup 4 get exch 5 get cairo_store_point
      /cairo_font where { pop cairo_selectfont } if } bind def
/Tm { 2 copy 8 2 roll 6 array astore /cairo_font_matrix exch def
      cairo_store_point /cairo_font where { pop cairo_selectfont } if } bind def
/g { setgray } bind def
/rg { setrgbcolor } bind def
/d1 { setcachedevice } bind def
%%EndProlog
%%BeginSetup
%%EndSetup
%%Page: 1 1
%%BeginPageSetup
%%PageBoundingBox: 0 -1 501 394
%%EndPageSetup
q 0 -1 501 395 rectclip q
1 g
46.73 387.383 446.398 -345.602 re f
Q q
46.73 387.383 446.398 -345.602 re W n
q
46 387.512 448 -346 re W n
[ 1 0 0 1 0 -0.488007 ] concat
  q
Q q
45 251 449 -133 re W n
q
45 251 449 -133 re W n
  q
0 0.501961 0 rg
2 w
2 J
1 j
[] 0.0 d
4 M 46.73 249.629 m 47.176 249.461 l 47.621 248.953 l 48.066 248.113 l 48.516
 246.953 l 49.406 243.703 l 50.301 239.348 l 51.641 231.172 l 55.211 207.07
 l 56.102 202.652 l 56.996 199.734 l 57.441 198.953 l 57.891 198.664 l 58.336
 198.891 l 58.781 199.617 l 59.227 200.812 l 60.121 204.395 l 61.012 209.129
 l 64.586 229.609 l 65.477 233.215 l 66.371 235.719 l 66.816 236.52 l 67.262
 236.996 l 67.711 237.152 l 68.156 236.977 l 68.602 236.473 l 69.047 235.645
 l 69.496 234.5 l 70.387 231.305 l 71.281 227 l 72.621 218.879 l 74.852 
203.008 l 76.637 191.031 l 77.531 186.191 l 78.422 182.48 l 79.316 180.098
 l 79.762 179.441 l 80.207 179.16 l 80.656 179.258 l 81.102 179.715 l 81.547
 180.508 l 82.441 182.918 l 83.781 187.852 l 85.566 194.75 l 86.457 197.492
 l 87.352 199.391 l 87.797 199.965 l 88.242 200.266 l 88.691 200.285 l 89.137
 200.012 l 89.582 199.445 l 90.031 198.59 l 90.922 196.016 l 91.816 192.375
 l 92.707 187.793 l 94.047 179.559 l 98.066 152.891 l 99.402 146.152 l 100.297
 142.742 l 101.191 140.238 l 101.637 139.344 l 102.082 138.734 l 102.527
 138.469 l 102.977 138.531 l 103.422 138.855 l 104.316 139.98 l 105.652 
142.25 l 107.887 146.969 l 108.777 148.273 l 109.227 148.754 l 109.672 149.066
 l 110.117 149.219 l 110.562 149.219 l 111.012 149.035 l 111.457 148.633
 l 111.902 148.008 l 112.797 146.156 l 113.688 143.715 l 115.027 139.305
 l 119.047 124.98 l 119.938 122.633 l 120.832 120.871 l 121.723 119.801 
l 122.172 119.57 l 122.617 119.609 l 123.062 120.012 l 123.957 121.605 l
 124.402 122.68 l 125.293 125.859 l 127.527 135.117 l 128.867 139.844 l 
129.758 142.434 l 130.652 144.453 l 131.543 145.824 l 131.992 146.254 l 
132.438 146.52 l 132.883 146.625 l 133.332 146.586 l 133.777 146.41 l 134.668
 145.703 l 135.562 144.605 l 136.902 142.508 l 138.688 139.645 l 139.578
 138.52 l 140.473 137.766 l 141.367 137.465 l 141.812 137.504 l 142.258 
137.676 l 143.152 138.391 l 144.043 139.543 l 145.383 141.793 l 145.828 
142.68 l 146.723 145.199 l 148.508 150.461 l 149.402 152.617 l 150.293 154.348
 l 151.188 155.621 l 152.078 156.438 l 152.973 156.824 l 153.863 156.82 
l 154.758 156.473 l 155.652 155.832 l 156.988 154.488 l 159.223 152.078 
l 160.113 151.348 l 161.008 150.855 l 161.898 150.652 l 162.793 150.766 
l 163.688 151.184 l 164.578 151.867 l 165.918 153.223 l 167.258 154.836 
l 168.148 156.289 l 169.488 158.48 l 170.383 159.488 l 171.273 160.078 l
 172.168 160.262 l 173.059 160.086 l 173.953 159.586 l 174.848 158.824 l
 176.184 157.328 l 180.203 152.504 l 181.543 151.359 l 182.434 150.84 l 
183.328 150.555 l 184.219 150.484 l 186.898 150.574 l 188.238 151.195 l 
189.578 151.426 l 190.914 152.168 l 191.809 152.301 l 192.703 152.078 l 
193.594 151.551 l 194.488 150.777 l 195.828 149.316 l 200.289 144.09 l 202.074
 142.48 l 202.969 141.832 l 203.414 141.602 l 203.863 141.52 l 204.754 141.715
 l 207.879 142.602 l 208.773 142.66 l 209.664 142.516 l 210.559 142.129 
l 211.449 141.469 l 212.344 140.469 l 212.789 139.684 l 213.234 138.355 
l 213.684 139.188 l 214.129 139.199 l 215.023 138.781 l 216.359 137.746 
l 221.719 133.176 l 223.059 132 l 223.504 131.535 l 223.949 131.297 l 226.184
 132.031 l 227.52 132.227 l 228.414 132.188 l 229.309 131.938 l 230.199 
131.453 l 231.984 130.25 l 233.77 129.586 l 235.109 128.785 l 235.555 128.414
 l 236.449 127.27 l 236.895 127.602 l 237.34 127.785 l 238.234 127.754 l
 239.574 127.336 l 242.25 126.406 l 243.145 126.082 l 243.59 125.809 l 244.039
 125.211 l 244.484 125.152 l 244.93 125.93 l 245.824 126.598 l 247.164 127.148
 l 248.5 127.426 l 249.84 127.465 l 252.074 127.492 l 255.199 128 l 259.215
 127.84 l 260.109 127.66 l 261.445 127.289 l 261.895 127.434 l 263.68 128.617
 l 265.465 129.387 l 267.25 129.965 l 268.59 130.121 l 269.93 130.023 l 
273.5 129.383 l 274.84 129.598 l 278.41 130.48 l 279.305 130.602 l 280.195
 131.141 l 281.09 132.016 l 284.215 135.586 l 286.891 138.164 l 288.23 139.375
 l 289.57 140.25 l 290.461 140.59 l 291.355 140.715 l 292.25 140.648 l 294.035
 140.164 l 295.375 139.941 l 298.051 139.957 l 301.176 140.016 l 301.621
 140.121 l 302.516 140.633 l 303.855 141.418 l 306.086 142.465 l 307.871
 143.777 l 309.211 144.539 l 310.551 145.062 l 311.445 145.238 l 312.336
 145.246 l 315.461 144.785 l 317.246 144.375 l 319.031 143.715 l 320.82 
142.797 l 322.156 141.926 l 323.051 141.312 l 323.496 141.262 l 325.281 
141.656 l 326.176 142.305 l 327.516 143.465 l 329.301 144.676 l 331.531 
145.855 l 333.316 146.609 l 334.656 146.922 l 335.996 146.914 l 337.336 
146.633 l 338.676 146.137 l 339.566 145.637 l 340.461 144.922 l 340.906 
144.414 l 341.797 142.957 l 342.246 143.379 l 342.691 143.387 l 343.586 
142.996 l 344.477 142.414 l 344.922 142.246 l 345.371 142.266 l 346.262 
142.711 l 349.387 144.504 l 351.172 145.266 l 352.512 145.539 l 353.406 
145.508 l 354.746 145.16 l 355.637 145.461 l 356.531 145.715 l 357.422 145.773
 l 358.762 145.59 l 359.656 145.266 l 360.547 144.699 l 361.441 143.988 
l 363.227 143.902 l 364.566 143.414 l 365.906 142.91 l 366.797 142.836 l
 367.691 142.977 l 369.031 143.43 l 370.367 144.086 l 374.387 146.328 l 
375.727 146.711 l 377.066 146.789 l 378.402 146.586 l 380.637 145.891 l 
383.316 144.902 l 385.547 143.859 l 386.438 143.758 l 389.562 143.82 l 390.902
 144.145 l 392.688 144.848 l 394.922 145.789 l 396.262 146.066 l 397.598
 146.047 l 398.938 145.785 l 400.723 145.199 l 405.637 143.371 l 407.418
 143.016 l 410.992 142.621 l 412.332 142.629 l 413.668 142.82 l 417.242 
143.688 l 418.578 143.555 l 419.918 143.102 l 421.258 142.34 l 423.492 140.918
 l 424.383 140.586 l 425.277 140.434 l 426.613 140.492 l 428.402 140.926
 l 430.633 141.418 l 431.973 141.754 l 433.758 142.5 l 438.668 144.82 l 
440.008 145.234 l 441.348 145.355 l 442.688 145.258 l 444.473 144.867 l 
446.703 144.328 l 447.598 144.445 l 448.934 145.066 l 450.273 145.645 l 
452.059 146.133 l 453.398 146.32 l 454.738 146.328 l 458.309 146.023 l 459.203
 145.883 l 460.988 146.215 l 461.879 146.098 l 462.773 145.789 l 464.113
 145.008 l 465.453 143.902 l 466.789 142.773 l 467.684 142.73 l 471.254 
143.121 l 473.488 143.621 l 474.379 143.648 l 475.273 143.512 l 476.164 
143.164 l 477.059 142.543 l 477.504 142.066 l 477.949 141.281 l 478.398 
141.023 l 478.844 141.613 l 479.738 142.145 l 480.629 142.43 l 481.523 142.523
 l 482.414 142.426 l 483.309 142.117 l 484.199 141.57 l 485.094 140.734 
l 485.988 139.715 l 487.324 139.699 l 490.004 139.605 l 491.344 139.84 l
 492.684 140.195 l S
  Q
Q
Q q
41 256 413 -132 re W n
q
41 256 413 -132 re W n
  q
0 0.501961 0 rg
46.73 244.629 m 48.055 244.629 49.328 245.156 50.266 246.094 c 51.203 247.031
 51.73 248.305 51.73 249.629 c 51.73 250.957 51.203 252.227 50.266 253.164
 c 49.328 254.102 48.055 254.629 46.73 254.629 c 45.402 254.629 44.133 254.102
 43.191 253.164 c 42.254 252.227 41.73 250.957 41.73 249.629 c 41.73 248.305
 42.254 247.031 43.191 246.094 c 44.133 245.156 45.402 244.629 46.73 244.629
 c h
46.73 244.629 m f
0 g
1 w
0 J
1 j
[] 0.0 d
4 M 46.73 244.629 m 48.055 244.629 49.328 245.156 50.266 246.094 c 51.203 247.031
 51.73 248.305 51.73 249.629 c 51.73 250.957 51.203 252.227 50.266 253.164
 c 49.328 254.102 48.055 254.629 46.73 254.629 c 45.402 254.629 44.133 254.102
 43.191 253.164 c 42.254 252.227 41.73 250.957 41.73 249.629 c 41.73 248.305
 42.254 247.031 43.191 246.094 c 44.133 245.156 45.402 244.629 46.73 244.629
 c h
46.73 244.629 m S
0 0.501961 0 rg
91.367 189.32 m 92.695 189.32 93.965 189.848 94.906 190.785 c 95.844 191.723
 96.367 192.996 96.367 194.32 c 96.367 195.648 95.844 196.918 94.906 197.855
 c 93.965 198.793 92.695 199.32 91.367 199.32 c 90.043 199.32 88.77 198.793
 87.832 197.855 c 86.895 196.918 86.367 195.648 86.367 194.32 c 86.367 192.996
 86.895 191.723 87.832 190.785 c 88.77 189.848 90.043 189.32 91.367 189.32
 c h
91.367 189.32 m f
0 g
91.367 189.32 m 92.695 189.32 93.965 189.848 94.906 190.785 c 95.844 191.723
 96.367 192.996 96.367 194.32 c 96.367 195.648 95.844 196.918 94.906 197.855
 c 93.965 198.793 92.695 199.32 91.367 199.32 c 90.043 199.32 88.77 198.793
 87.832 197.855 c 86.895 196.918 86.367 195.648 86.367 194.32 c 86.367 192.996
 86.895 191.723 87.832 190.785 c 88.77 189.848 90.043 189.32 91.367 189.32
 c h
91.367 189.32 m S
0 0.501961 0 rg
136.008 138.949 m 137.336 138.949 138.605 139.477 139.543 140.414 c 140.48
 141.352 141.008 142.625 141.008 143.949 c 141.008 145.277 140.48 146.547
 139.543 147.484 c 138.605 148.422 137.336 148.949 136.008 148.949 c 134.684
 148.949 133.41 148.422 132.473 147.484 c 131.535 146.547 131.008 145.277
 131.008 143.949 c 131.008 142.625 131.535 141.352 132.473 140.414 c 133.41
 139.477 134.684 138.949 136.008 138.949 c h
136.008 138.949 m f
0 g
136.008 138.949 m 137.336 138.949 138.605 139.477 139.543 140.414 c 140.48
 141.352 141.008 142.625 141.008 143.949 c 141.008 145.277 140.48 146.547
 139.543 147.484 c 138.605 148.422 137.336 148.949 136.008 148.949 c 134.684
 148.949 133.41 148.422 132.473 147.484 c 131.535 146.547 131.008 145.277
 131.008 143.949 c 131.008 142.625 131.535 141.352 132.473 140.414 c 133.41
 139.477 134.684 138.949 136.008 138.949 c h
136.008 138.949 m S
0 0.501961 0 rg
180.648 147.078 m 181.977 147.078 183.246 147.605 184.184 148.543 c 185.121
 149.48 185.648 150.754 185.648 152.078 c 185.648 153.406 185.121 154.676
 184.184 155.613 c 183.246 156.551 181.977 157.078 180.648 157.078 c 179.324
 157.078 178.051 156.551 177.113 155.613 c 176.176 154.676 175.648 153.406
 175.648 152.078 c 175.648 150.754 176.176 149.48 177.113 148.543 c 178.051
 147.605 179.324 147.078 180.648 147.078 c h
180.648 147.078 m f
0 g
180.648 147.078 m 181.977 147.078 183.246 147.605 184.184 148.543 c 185.121
 149.48 185.648 150.754 185.648 152.078 c 185.648 153.406 185.121 154.676
 184.184 155.613 c 183.246 156.551 181.977 157.078 180.648 157.078 c 179.324
 157.078 178.051 156.551 177.113 155.613 c 176.176 154.676 175.648 153.406
 175.648 152.078 c 175.648 150.754 176.176 149.48 177.113 148.543 c 178.051
 147.605 179.324 147.078 180.648 147.078 c h
180.648 147.078 m S
0 0.501961 0 rg
225.289 126.797 m 226.613 126.797 227.887 127.32 228.824 128.262 c 229.762
 129.199 230.289 130.469 230.289 131.797 c 230.289 133.121 229.762 134.395
 228.824 135.332 c 227.887 136.27 226.613 136.797 225.289 136.797 c 223.961
 136.797 222.691 136.27 221.754 135.332 c 220.816 134.395 220.289 133.121
 220.289 131.797 c 220.289 130.469 220.816 129.199 221.754 128.262 c 222.691
 127.32 223.961 126.797 225.289 126.797 c h
225.289 126.797 m f
0 g
225.289 126.797 m 226.613 126.797 227.887 127.32 228.824 128.262 c 229.762
 129.199 230.289 130.469 230.289 131.797 c 230.289 133.121 229.762 134.395
 228.824 135.332 c 227.887 136.27 226.613 136.797 225.289 136.797 c 223.961
 136.797 222.691 136.27 221.754 135.332 c 220.816 134.395 220.289 133.121
 220.289 131.797 c 220.289 130.469 220.816 129.199 221.754 128.262 c 222.691
 127.32 223.961 126.797 225.289 126.797 c h
225.289 126.797 m S
0 0.501961 0 rg
269.93 125.023 m 271.254 125.023 272.527 125.551 273.465 126.488 c 274.402
 127.426 274.93 128.695 274.93 130.023 c 274.93 131.348 274.402 132.621 
273.465 133.559 c 272.527 134.496 271.254 135.023 269.93 135.023 c 268.602
 135.023 267.332 134.496 266.395 133.559 c 265.457 132.621 264.93 131.348
 264.93 130.023 c 264.93 128.695 265.457 127.426 266.395 126.488 c 267.332
 125.551 268.602 125.023 269.93 125.023 c h
269.93 125.023 m f
0 g
269.93 125.023 m 271.254 125.023 272.527 125.551 273.465 126.488 c 274.402
 127.426 274.93 128.695 274.93 130.023 c 274.93 131.348 274.402 132.621 
273.465 133.559 c 272.527 134.496 271.254 135.023 269.93 135.023 c 268.602
 135.023 267.332 134.496 266.395 133.559 c 265.457 132.621 264.93 131.348
 264.93 130.023 c 264.93 128.695 265.457 127.426 266.395 126.488 c 267.332
 125.551 268.602 125.023 269.93 125.023 c h
269.93 125.023 m S
0 0.501961 0 rg
314.57 139.926 m 315.895 139.926 317.168 140.453 318.105 141.391 c 319.043
 142.328 319.57 143.602 319.57 144.926 c 319.57 146.254 319.043 147.523 
318.105 148.461 c 317.168 149.398 315.895 149.926 314.57 149.926 c 313.242
 149.926 311.973 149.398 311.035 148.461 c 310.094 147.523 309.57 146.254
 309.57 144.926 c 309.57 143.602 310.094 142.328 311.035 141.391 c 311.973
 140.453 313.242 139.926 314.57 139.926 c h
314.57 139.926 m f
0 g
314.57 139.926 m 315.895 139.926 317.168 140.453 318.105 141.391 c 319.043
 142.328 319.57 143.602 319.57 144.926 c 319.57 146.254 319.043 147.523 
318.105 148.461 c 317.168 149.398 315.895 149.926 314.57 149.926 c 313.242
 149.926 311.973 149.398 311.035 148.461 c 310.094 147.523 309.57 146.254
 309.57 144.926 c 309.57 143.602 310.094 142.328 311.035 141.391 c 311.973
 140.453 313.242 139.926 314.57 139.926 c h
314.57 139.926 m S
0 0.501961 0 rg
359.207 140.453 m 360.535 140.453 361.809 140.977 362.746 141.914 c 363.684
 142.855 364.207 144.125 364.207 145.453 c 364.207 146.777 363.684 148.051
 362.746 148.988 c 361.809 149.926 360.535 150.453 359.207 150.453 c 357.883
 150.453 356.609 149.926 355.672 148.988 c 354.734 148.051 354.207 146.777
 354.207 145.453 c 354.207 144.125 354.734 142.855 355.672 141.914 c 356.609
 140.977 357.883 140.453 359.207 140.453 c h
359.207 140.453 m f
0 g
359.207 140.453 m 360.535 140.453 361.809 140.977 362.746 141.914 c 363.684
 142.855 364.207 144.125 364.207 145.453 c 364.207 146.777 363.684 148.051
 362.746 148.988 c 361.809 149.926 360.535 150.453 359.207 150.453 c 357.883
 150.453 356.609 149.926 355.672 148.988 c 354.734 148.051 354.207 146.777
 354.207 145.453 c 354.207 144.125 354.734 142.855 355.672 141.914 c 356.609
 140.977 357.883 140.453 359.207 140.453 c h
359.207 140.453 m S
0 0.501961 0 rg
403.848 138.945 m 405.176 138.945 406.445 139.473 407.383 140.41 c 408.32
 141.348 408.848 142.621 408.848 143.945 c 408.848 145.273 408.32 146.543
 407.383 147.48 c 406.445 148.418 405.176 148.945 403.848 148.945 c 402.523
 148.945 401.25 148.418 400.312 147.48 c 399.375 146.543 398.848 145.273
 398.848 143.945 c 398.848 142.621 399.375 141.348 400.312 140.41 c 401.25
 139.473 402.523 138.945 403.848 138.945 c h
403.848 138.945 m f
0 g
403.848 138.945 m 405.176 138.945 406.445 139.473 407.383 140.41 c 408.32
 141.348 408.848 142.621 408.848 143.945 c 408.848 145.273 408.32 146.543
 407.383 147.48 c 406.445 148.418 405.176 148.945 403.848 148.945 c 402.523
 148.945 401.25 148.418 400.312 147.48 c 399.375 146.543 398.848 145.273
 398.848 143.945 c 398.848 142.621 399.375 141.348 400.312 140.41 c 401.25
 139.473 402.523 138.945 403.848 138.945 c h
403.848 138.945 m S
0 0.501961 0 rg
448.488 139.84 m 449.816 139.84 451.086 140.367 452.023 141.305 c 452.961
 142.242 453.488 143.516 453.488 144.84 c 453.488 146.168 452.961 147.438
 452.023 148.375 c 451.086 149.312 449.816 149.84 448.488 149.84 c 447.164
 149.84 445.891 149.312 444.953 148.375 c 444.016 147.438 443.488 146.168
 443.488 144.84 c 443.488 143.516 444.016 142.242 444.953 141.305 c 445.891
 140.367 447.164 139.84 448.488 139.84 c h
448.488 139.84 m f
0 g
448.488 139.84 m 449.816 139.84 451.086 140.367 452.023 141.305 c 452.961
 142.242 453.488 143.516 453.488 144.84 c 453.488 146.168 452.961 147.438
 452.023 148.375 c 451.086 149.312 449.816 149.84 448.488 149.84 c 447.164
 149.84 445.891 149.312 444.953 148.375 c 444.016 147.438 443.488 146.168
 443.488 144.84 c 443.488 143.516 444.016 142.242 444.953 141.305 c 445.891
 140.367 447.164 139.84 448.488 139.84 c h
448.488 139.84 m S
  Q
Q
Q q
45 251 449 -107 re W n
q
45 251 449 -107 re W n
  q
0 0 1 rg
2 w
2 J
1 j
[] 0.0 d
4 M 46.73 249.629 m 47.176 249.492 l 47.621 249.078 l 48.066 248.395 l 48.961
 246.258 l 49.855 243.172 l 50.746 239.293 l 52.086 232.426 l 54.766 218.301
 l 55.656 214.613 l 56.551 211.93 l 56.996 211.043 l 57.441 210.5 l 57.891
 210.344 l 58.336 210.594 l 58.781 211.25 l 59.227 212.254 l 60.121 215.109
 l 61.461 220.754 l 63.691 230.805 l 64.586 234.168 l 65.477 236.805 l 66.371
 238.559 l 66.816 239.066 l 67.262 239.316 l 67.711 239.305 l 68.156 239.023
 l 68.602 238.48 l 69.047 237.676 l 69.941 235.309 l 70.836 232.02 l 71.727
 227.953 l 73.066 220.797 l 76.191 203.539 l 77.082 199.66 l 77.977 196.652
 l 78.871 194.625 l 79.316 193.988 l 79.762 193.602 l 80.207 193.48 l 80.656
 193.664 l 81.102 194.172 l 81.996 195.871 l 82.887 198.156 l 85.566 206.184
 l 86.457 208.02 l 86.906 208.664 l 87.352 209.105 l 87.797 209.328 l 88.242
 209.328 l 88.691 209.09 l 89.137 208.621 l 89.582 207.914 l 90.477 205.805
 l 91.367 202.832 l 92.262 199.102 l 93.602 192.418 l 97.617 171.141 l 98.512
 167.527 l 99.402 164.645 l 100.297 162.523 l 101.191 161.117 l 102.082 
160.273 l 102.527 159.973 l 102.977 159.926 l 104.762 162.621 l 106.547 
167.055 l 107.438 168.773 l 108.332 170.023 l 108.777 170.43 l 109.227 170.672
 l 109.672 170.742 l 110.117 170.641 l 110.562 170.359 l 111.012 169.906
 l 111.902 168.512 l 112.797 166.527 l 114.137 162.727 l 117.707 151.68 
l 118.598 149.555 l 119.492 147.902 l 120.387 146.742 l 121.277 145.973 
l 121.723 145.684 l 122.172 145.793 l 123.957 148.07 l 124.402 148.367 l
 124.848 148.887 l 127.973 160.262 l 128.867 162.574 l 129.758 164.324 l
 130.652 165.508 l 131.543 166.125 l 131.992 166.223 l 132.438 166.195 l
 133.332 165.77 l 134.223 164.934 l 135.562 163.137 l 137.793 159.805 l 
138.688 158.941 l 139.578 158.562 l 140.473 158.578 l 141.367 158.973 l 
142.258 159.734 l 143.152 160.805 l 145.828 164.598 l 148.508 170.508 l 
149.402 171.918 l 150.293 173.027 l 151.188 173.801 l 152.078 174.191 l 
152.973 174.215 l 153.863 173.918 l 154.758 173.383 l 156.543 171.934 l 
158.328 170.539 l 159.223 170.051 l 160.113 169.789 l 161.008 169.781 l 
161.898 170.047 l 162.793 170.562 l 164.133 171.699 l 165.918 173.375 l 
166.363 173.695 l 166.812 173.875 l 167.258 173.637 l 167.703 174.27 l 168.148
 175.254 l 169.043 176.375 l 169.934 177.031 l 170.828 177.34 l 171.723 
177.328 l 172.613 177.023 l 173.508 176.484 l 174.848 175.406 l 178.418 
172.324 l 179.754 171.59 l 180.648 171.332 l 181.543 171.277 l 182.434 171.426
 l 183.773 171.957 l 186.898 173.492 l 187.789 173.629 l 188.684 173.48 
l 189.578 173.18 l 190.914 173.062 l 191.809 172.664 l 192.703 172.012 l
 194.039 170.68 l 195.828 168.477 l 198.059 165.609 l 198.949 164.812 l 
199.844 164.262 l 201.184 163.75 l 202.074 163.625 l 202.969 163.676 l 204.309
 164.051 l 207.434 165.23 l 208.324 165.297 l 209.219 165.133 l 210.109 
164.711 l 211.004 164.023 l 217.254 158.34 l 219.484 156.387 l 219.934 155.871
 l 220.379 155.156 l 220.824 155.086 l 221.27 155.41 l 222.164 155.629 l
 223.949 155.875 l 224.844 156.18 l 226.184 156.938 l 227.965 157.996 l 
229.309 158.48 l 230.199 158.582 l 231.09 158.492 l 231.984 158.219 l 233.324
 157.48 l 235.109 156.309 l 238.68 154.688 l 240.465 153.852 l 240.914 153.543
 l 241.359 153.094 l 241.805 152.922 l 242.25 153.332 l 242.699 153.578 
l 243.145 153.672 l 243.59 153.547 l 244.039 152.344 l 244.484 154.191 l
 245.375 155.504 l 246.715 156.855 l 248.055 157.859 l 249.395 158.555 l
 250.734 158.992 l 252.074 159.215 l 253.41 159.203 l 254.75 158.918 l 256.09
 158.336 l 257.43 157.684 l 258.77 157.434 l 261 157.086 l 261.895 157.426
 l 265.91 159.828 l 267.25 160.84 l 268.145 161.332 l 269.035 161.605 l 
269.93 161.621 l 270.82 161.293 l 271.715 160.723 l 272.605 161.012 l 273.055
 161.004 l 273.5 160.879 l 274.395 160.211 l 274.84 160.367 l 275.285 160.684
 l 276.18 160.91 l 277.07 160.824 l 277.965 160.504 l 279.75 159.57 l 280.645
 160.016 l 281.535 160.625 l 284.215 162.887 l 286 164.168 l 287.785 165.551
 l 289.125 166.32 l 290.461 166.871 l 291.805 167.137 l 293.141 167.086 
l 294.48 166.777 l 296.266 166.117 l 298.945 164.832 l 300.285 164.051 l
 300.73 163.703 l 301.176 163.195 l 301.621 161.391 l 302.07 162.918 l 302.516
 163.281 l 303.41 163.52 l 304.746 163.527 l 305.641 163.598 l 308.766 164.859
 l 310.105 165.062 l 311.445 165.023 l 313.23 164.66 l 316.355 163.848 l
 318.141 163.039 l 321.266 161.289 l 322.156 160.676 l 323.051 159.852 l
 324.391 160.273 l 325.281 160.324 l 326.176 160.855 l 327.961 162.062 l
 330.191 163.328 l 331.98 164.094 l 333.316 164.414 l 334.211 164.434 l 
335.102 164.207 l 335.551 163.941 l 336.441 162.969 l 336.891 163.578 l 
337.336 163.816 l 338.227 163.91 l 339.121 163.762 l 340.461 163.301 l 341.797
 162.617 l 343.141 161.645 l 343.586 161.184 l 344.031 160.523 l 344.477
 158.973 l 344.922 160.141 l 346.262 161.117 l 347.602 161.855 l 350.727
 163.246 l 353.406 164.215 l 354.746 164.512 l 355.637 164.535 l 356.531
 164.27 l 356.977 163.859 l 357.422 162.41 l 357.871 163.984 l 358.316 164.363
 l 359.207 164.648 l 360.102 164.672 l 361.441 164.434 l 362.781 163.945
 l 364.117 163.195 l 365.906 162.055 l 366.352 161.926 l 367.242 162.293
 l 368.582 162.789 l 370.816 163.246 l 373.047 163.738 l 377.066 164.848
 l 378.402 164.934 l 383.316 164.699 l 386.438 164.129 l 389.117 164.156
 l 391.352 164.727 l 393.137 164.891 l 394.922 164.832 l 396.707 164.652
 l 398.938 164.934 l 400.277 164.805 l 401.617 164.469 l 406.082 163.062
 l 411.438 162.465 l 415.008 162.676 l 416.793 162.371 l 419.027 161.73 
l 420.812 161.055 l 422.152 160.426 l 423.492 160.496 l 425.723 160.688 
l 427.062 161.094 l 431.527 162.859 l 432.863 163.023 l 434.203 163.129 
l 436.438 163.527 l 439.113 163.586 l 446.703 163.801 l 450.273 164.336 
l 451.168 164.188 l 451.613 164.043 l 452.059 164.02 l 453.398 164.512 l
 454.293 164.562 l 455.184 164.391 l 456.523 163.953 l 459.648 163.77 l 
465.004 162.629 l 466.789 162.535 l 468.578 162.668 l 471.254 162.961 l 
472.148 162.824 l 472.594 162.586 l 473.039 161.961 l 473.488 162.188 l 
473.934 162.781 l 474.379 163.059 l 475.273 163.266 l 476.164 163.188 l 
477.059 162.867 l 477.949 162.234 l 478.398 161.746 l 478.844 161.652 l 
479.738 161.996 l 480.629 161.984 l 481.969 161.691 l 485.094 160.625 l 
488.219 159.621 l 489.559 159.41 l 491.344 159.391 l 492.684 159.426 l S
  Q
Q
Q q
40 256 415 -106 re W n
q
40 256 415 -106 re W n
  q
0 0 1 rg
46.73 254.629 m 41.73 244.629 l 51.73 244.629 l h
46.73 254.629 m f
0 g
1 w
0 J
0 j
[] 0.0 d
4 M 46.73 254.629 m 41.73 244.629 l 51.73 244.629 l h
46.73 254.629 m S
0 0 1 rg
91.367 207.832 m 86.367 197.832 l 96.367 197.832 l h
91.367 207.832 m f
0 g
91.367 207.832 m 86.367 197.832 l 96.367 197.832 l h
91.367 207.832 m S
0 0 1 rg
136.008 167.457 m 131.008 157.457 l 141.008 157.457 l h
136.008 167.457 m f
0 g
136.008 167.457 m 131.008 157.457 l 141.008 157.457 l h
136.008 167.457 m S
0 0 1 rg
180.648 176.332 m 175.648 166.332 l 185.648 166.332 l h
180.648 176.332 m f
0 g
180.648 176.332 m 175.648 166.332 l 185.648 166.332 l h
180.648 176.332 m S
0 0 1 rg
225.289 161.402 m 220.289 151.402 l 230.289 151.402 l h
225.289 161.402 m f
0 g
225.289 161.402 m 220.289 151.402 l 230.289 151.402 l h
225.289 161.402 m S
0 0 1 rg
269.93 166.621 m 264.93 156.621 l 274.93 156.621 l h
269.93 166.621 m f
0 g
269.93 166.621 m 264.93 156.621 l 274.93 156.621 l h
269.93 166.621 m S
0 0 1 rg
314.57 169.375 m 309.57 159.375 l 319.57 159.375 l h
314.57 169.375 m f
0 g
314.57 169.375 m 309.57 159.375 l 319.57 159.375 l h
314.57 169.375 m S
0 0 1 rg
359.207 169.648 m 354.207 159.648 l 364.207 159.648 l h
359.207 169.648 m f
0 g
359.207 169.648 m 354.207 159.648 l 364.207 159.648 l h
359.207 169.648 m S
0 0 1 rg
403.848 168.652 m 398.848 158.652 l 408.848 158.652 l h
403.848 168.652 m f
0 g
403.848 168.652 m 398.848 158.652 l 408.848 158.652 l h
403.848 168.652 m S
0 0 1 rg
448.488 169.145 m 443.488 159.145 l 453.488 159.145 l h
448.488 169.145 m f
0 g
448.488 169.145 m 443.488 159.145 l 453.488 159.145 l h
448.488 169.145 m S
  Q
Q
Q q
45 251 449 -85 re W n
q
45 251 449 -85 re W n
  q
0.74902 0 0.74902 rg
2 w
2 J
1 j
[] 0.0 d
4 M 46.73 249.629 m 47.176 249.504 l 47.621 249.125 l 48.066 248.504 l 48.961
 246.551 l 49.855 243.742 l 50.746 240.227 l 52.531 231.879 l 54.316 223.535
 l 55.211 220.102 l 56.102 217.539 l 56.551 216.648 l 56.996 216.051 l 57.441
 215.754 l 57.891 215.762 l 58.336 216.066 l 58.781 216.66 l 59.227 217.52
 l 60.121 219.938 l 61.461 224.781 l 64.137 235.168 l 65.031 237.852 l 65.926
 239.809 l 66.371 240.473 l 66.816 240.91 l 67.262 241.113 l 67.711 241.074
 l 68.156 240.797 l 68.602 240.273 l 69.047 239.516 l 69.941 237.316 l 70.836
 234.285 l 72.172 228.496 l 76.637 207.254 l 77.531 204.488 l 78.422 202.668
 l 78.871 202.137 l 79.316 201.855 l 79.762 201.82 l 80.207 202.016 l 80.656
 202.43 l 81.547 203.805 l 82.441 205.738 l 85.566 213.238 l 86.457 214.633
 l 86.906 215.086 l 87.352 215.355 l 87.797 215.43 l 88.242 215.297 l 88.691
 214.953 l 89.137 214.398 l 90.031 212.637 l 90.922 210.051 l 91.816 206.719
 l 93.156 200.582 l 95.387 188.758 l 97.172 179.617 l 98.066 176.375 l 98.957
 174.059 l 99.852 172.414 l 100.742 171.473 l 101.191 171.254 l 101.637 
171.18 l 102.527 171.352 l 103.422 171.598 l 104.316 173.535 l 105.207 175.34
 l 106.547 177.48 l 107.438 178.684 l 107.887 179.094 l 108.332 179.332 
l 109.227 179.473 l 109.672 179.441 l 110.117 179.215 l 110.562 178.738 
l 111.012 178.035 l 111.457 177.594 l 111.902 177.422 l 112.352 177.055 
l 113.242 175.883 l 115.027 173 l 116.812 170.008 l 117.707 168.797 l 118.598
 167.93 l 119.492 167.516 l 119.938 167.5 l 120.387 167.625 l 120.832 167.887
 l 121.723 168.832 l 122.617 170.309 l 123.512 172.23 l 125.293 176.871 
l 127.082 181.559 l 128.418 184.449 l 129.312 185.887 l 130.207 186.863 
l 131.098 187.355 l 131.543 187.422 l 132.438 187.215 l 133.332 186.613 
l 134.223 185.699 l 136.008 183.383 l 137.348 181.707 l 138.242 180.84 l
 139.133 180.285 l 140.027 180.105 l 140.918 180.34 l 141.812 180.98 l 142.703
 182 l 143.598 183.336 l 144.938 185.762 l 148.062 191.699 l 148.953 193.023
 l 149.848 194.039 l 150.738 194.703 l 151.633 195.008 l 152.527 194.965
 l 153.418 194.617 l 154.312 194.027 l 156.098 192.445 l 157.883 190.914
 l 158.773 190.367 l 159.668 190.051 l 160.562 190 l 161.453 190.227 l 162.348
 190.719 l 163.238 191.441 l 164.578 192.84 l 168.598 197.395 l 169.488 
198.059 l 170.383 198.48 l 171.273 198.637 l 172.168 198.531 l 173.059 198.18
 l 173.953 197.617 l 175.293 196.492 l 178.418 193.664 l 179.754 192.836
 l 180.648 192.508 l 181.543 192.371 l 182.434 192.422 l 183.773 192.773
 l 188.238 194.371 l 189.129 194.434 l 190.023 194.305 l 190.914 193.969
 l 191.809 193.418 l 193.148 192.227 l 194.488 190.676 l 196.719 187.625
 l 198.059 185.809 l 198.949 184.938 l 200.289 184.16 l 201.629 183.68 l
 202.969 183.508 l 204.309 183.637 l 207.434 184.223 l 208.773 184.141 l
 209.664 183.887 l 211.004 183.195 l 212.789 181.91 l 214.129 180.719 l 
215.914 178.773 l 216.809 177.402 l 217.254 176.391 l 217.699 176.961 l 
218.148 177.082 l 219.039 177 l 224.844 175.789 l 225.289 175.621 l 225.734
 175.266 l 226.184 174.219 l 226.629 175.508 l 227.074 175.965 l 227.965
 176.383 l 228.859 176.48 l 229.754 176.34 l 230.645 175.961 l 231.539 175.297
 l 232.43 174.188 l 232.879 173.344 l 233.324 172.977 l 234.215 173.551 
l 235.109 173.73 l 236.004 173.633 l 237.34 173.223 l 240.02 172.109 l 240.465
 172.121 l 241.359 172.449 l 242.699 172.992 l 243.145 173.07 l 243.59 173.004
 l 244.039 172.309 l 244.93 174.059 l 245.824 175.02 l 247.164 176.254 l
 248.5 177.594 l 249.84 178.547 l 251.18 179.133 l 252.52 179.473 l 254.75
 179.777 l 261 180.383 l 261.895 180.883 l 264.125 182.824 l 265.91 184.262
 l 267.25 185.105 l 268.59 185.668 l 269.93 185.941 l 271.27 185.973 l 273.055
 185.75 l 275.285 185.238 l 277.52 184.52 l 279.305 183.836 l 280.195 184.121
 l 283.32 185.457 l 287.34 187.164 l 288.68 187.438 l 290.016 187.43 l 291.355
 187.133 l 292.695 186.594 l 294.926 185.383 l 298.051 183.66 l 299.391 
183.148 l 300.73 182.906 l 302.516 182.895 l 304.301 183.133 l 306.086 183.621
 l 309.211 184.559 l 310.996 184.824 l 312.336 184.793 l 313.676 184.523
 l 315.461 183.867 l 319.926 181.977 l 321.711 181.512 l 323.941 181.188
 l 325.73 181.188 l 327.961 181.516 l 329.301 181.695 l 330.191 181.609 
l 331.086 181.094 l 331.531 181.934 l 332.426 182.777 l 333.316 183.262 
l 334.211 183.555 l 335.551 183.715 l 336.891 183.621 l 338.676 183.223 
l 341.352 182.34 l 344.477 181.234 l 345.371 181.117 l 346.262 181.223 l
 348.047 181.785 l 352.957 183.527 l 354.297 183.754 l 355.637 183.715 l
 356.531 183.453 l 356.977 183.191 l 357.422 182.797 l 357.871 182.684 l
 358.762 183.266 l 359.656 183.465 l 360.996 183.469 l 362.781 183.219 l
 367.242 182.402 l 368.582 182.477 l 369.477 182.719 l 370.816 183.332 l
 374.387 185.152 l 376.172 185.785 l 377.512 186.027 l 378.852 185.988 l
 380.191 185.809 l 383.316 186.902 l 385.547 187.215 l 389.117 187.695 l
 392.242 188.352 l 395.812 189.109 l 398.047 189.348 l 400.723 189.387 l
 411.438 189.301 l 414.117 189.414 l 416.793 189.801 l 419.473 190.125 l
 421.703 190.141 l 426.168 190.047 l 431.527 190.301 l 433.758 190.098 l
 436.438 189.602 l 438.668 188.973 l 441.348 187.977 l 443.133 187.164 l
 444.023 186.605 l 444.918 186 l 445.812 186.332 l 447.148 186.77 l 449.828
 187.402 l 451.613 187.605 l 453.398 187.527 l 455.184 187.207 l 459.203
 186.156 l 465.004 184.617 l 466.789 184.363 l 468.578 184.379 l 473.488
 184.781 l 474.828 184.605 l 476.164 184.246 l 477.949 183.523 l 479.738
 182.57 l 480.629 181.941 l 481.074 181.523 l 481.523 180.891 l 481.969 
179.879 l 482.414 180.785 l 482.863 181.02 l 483.754 181.121 l 485.539 180.93
 l 488.219 180.582 l 490.004 180.59 l 492.684 180.785 l S
  Q
Q
Q q
41 255 413 -84 re W n
q
41 255 413 -84 re W n
  q
0.74902 0 0.74902 rg
46.73 254.629 m 45.605 251.176 l 41.973 251.176 l 44.914 249.039 l 43.789
 245.586 l 46.73 247.719 l 49.668 245.586 l 48.547 249.039 l 51.484 251.176
 l 47.852 251.176 l h
46.73 254.629 m f
0 g
1 w
0 J
2 j
[] 0.0 d
4 M 46.73 254.629 m 45.605 251.176 l 41.973 251.176 l 44.914 249.039 l 43.789
 245.586 l 46.73 247.719 l 49.668 245.586 l 48.547 249.039 l 51.484 251.176
 l 47.852 251.176 l h
46.73 254.629 m S
0.74902 0 0.74902 rg
91.367 213.473 m 90.246 210.016 l 86.613 210.016 l 89.551 207.883 l 88.43
 204.426 l 91.367 206.562 l 94.309 204.426 l 93.184 207.883 l 96.125 210.016
 l 92.492 210.016 l h
91.367 213.473 m f
0 g
91.367 213.473 m 90.246 210.016 l 86.613 210.016 l 89.551 207.883 l 88.43
 204.426 l 91.367 206.562 l 94.309 204.426 l 93.184 207.883 l 96.125 210.016
 l 92.492 210.016 l h
91.367 213.473 m S
0.74902 0 0.74902 rg
136.008 188.383 m 134.887 184.926 l 131.254 184.926 l 134.191 182.793 l
 133.07 179.336 l 136.008 181.473 l 138.949 179.336 l 137.824 182.793 l 
140.766 184.926 l 137.133 184.926 l h
136.008 188.383 m f
0 g
136.008 188.383 m 134.887 184.926 l 131.254 184.926 l 134.191 182.793 l
 133.07 179.336 l 136.008 181.473 l 138.949 179.336 l 137.824 182.793 l 
140.766 184.926 l 137.133 184.926 l h
136.008 188.383 m S
0.74902 0 0.74902 rg
180.648 197.508 m 179.527 194.051 l 175.895 194.051 l 178.832 191.918 l
 177.711 188.461 l 180.648 190.598 l 183.586 188.461 l 182.465 191.918 l
 185.402 194.051 l 181.77 194.051 l h
180.648 197.508 m f
0 g
180.648 197.508 m 179.527 194.051 l 175.895 194.051 l 178.832 191.918 l
 177.711 188.461 l 180.648 190.598 l 183.586 188.461 l 182.465 191.918 l
 185.402 194.051 l 181.77 194.051 l h
180.648 197.508 m S
0.74902 0 0.74902 rg
225.289 180.621 m 224.168 177.164 l 220.535 177.164 l 223.473 175.031 l
 222.352 171.574 l 225.289 173.711 l 228.227 171.574 l 227.105 175.031 l
 230.043 177.164 l 226.41 177.164 l h
225.289 180.621 m f
0 g
225.289 180.621 m 224.168 177.164 l 220.535 177.164 l 223.473 175.031 l
 222.352 171.574 l 225.289 173.711 l 228.227 171.574 l 227.105 175.031 l
 230.043 177.164 l 226.41 177.164 l h
225.289 180.621 m S
0.74902 0 0.74902 rg
269.93 190.941 m 268.805 187.488 l 265.172 187.488 l 268.113 185.352 l 
266.988 181.898 l 269.93 184.031 l 272.867 181.898 l 271.746 185.352 l 274.684
 187.488 l 271.051 187.488 l h
269.93 190.941 m f
0 g
269.93 190.941 m 268.805 187.488 l 265.172 187.488 l 268.113 185.352 l 
266.988 181.898 l 269.93 184.031 l 272.867 181.898 l 271.746 185.352 l 274.684
 187.488 l 271.051 187.488 l h
269.93 190.941 m S
0.74902 0 0.74902 rg
314.57 189.23 m 313.445 185.773 l 309.812 185.773 l 312.754 183.641 l 311.629
 180.184 l 314.57 182.32 l 317.508 180.184 l 316.387 183.641 l 319.324 185.773
 l 315.691 185.773 l h
314.57 189.23 m f
0 g
314.57 189.23 m 313.445 185.773 l 309.812 185.773 l 312.754 183.641 l 311.629
 180.184 l 314.57 182.32 l 317.508 180.184 l 316.387 183.641 l 319.324 185.773
 l 315.691 185.773 l h
314.57 189.23 m S
0.74902 0 0.74902 rg
359.207 188.395 m 358.086 184.941 l 354.453 184.941 l 357.391 182.805 l
 356.27 179.352 l 359.207 181.484 l 362.148 179.352 l 361.023 182.805 l 
363.965 184.941 l 360.332 184.941 l h
359.207 188.395 m f
0 g
359.207 188.395 m 358.086 184.941 l 354.453 184.941 l 357.391 182.805 l
 356.27 179.352 l 359.207 181.484 l 362.148 179.352 l 361.023 182.805 l 
363.965 184.941 l 360.332 184.941 l h
359.207 188.395 m S
0.74902 0 0.74902 rg
403.848 194.332 m 402.727 190.879 l 399.094 190.879 l 402.031 188.742 l
 400.91 185.289 l 403.848 187.426 l 406.789 185.289 l 405.664 188.742 l 
408.605 190.879 l 404.973 190.879 l h
403.848 194.332 m f
0 g
403.848 194.332 m 402.727 190.879 l 399.094 190.879 l 402.031 188.742 l
 400.91 185.289 l 403.848 187.426 l 406.789 185.289 l 405.664 188.742 l 
408.605 190.879 l 404.973 190.879 l h
403.848 194.332 m S
0.74902 0 0.74902 rg
448.488 192.113 m 447.367 188.656 l 443.734 188.656 l 446.672 186.52 l 
445.551 183.066 l 448.488 185.203 l 451.426 183.066 l 450.305 186.52 l 453.242
 188.656 l 449.613 188.656 l h
448.488 192.113 m f
0 g
448.488 192.113 m 447.367 188.656 l 443.734 188.656 l 446.672 186.52 l 
445.551 183.066 l 448.488 185.203 l 451.426 183.066 l 450.305 186.52 l 453.242
 188.656 l 449.613 188.656 l h
448.488 192.113 m S
  Q
Q
Q q
45 251 449 -67 re W n
q
45 251 449 -67 re W n
  q
1 0 0 rg
2 w
2 J
1 j
[] 0.0 d
4 M 46.73 249.629 m 47.176 249.516 l 47.621 249.176 l 48.066 248.609 l 48.961
 246.848 l 49.855 244.312 l 50.746 241.145 l 52.531 233.641 l 54.316 226.168
 l 55.211 223.105 l 56.102 220.836 l 56.551 220.055 l 56.996 219.539 l 57.441
 219.297 l 57.891 219.328 l 58.336 219.629 l 58.781 220.191 l 59.676 222.02
 l 60.566 224.605 l 61.906 229.328 l 63.691 235.758 l 64.586 238.477 l 65.477
 240.617 l 66.371 242.027 l 66.816 242.434 l 67.262 242.625 l 67.711 242.598
 l 68.156 242.352 l 68.602 241.891 l 69.047 241.215 l 69.941 239.25 l 70.836
 236.543 l 72.172 231.379 l 76.191 214.188 l 77.082 211.461 l 77.977 209.555
 l 78.422 208.934 l 78.871 208.547 l 79.316 208.391 l 79.762 208.453 l 80.207
 208.73 l 80.656 209.203 l 81.547 210.648 l 82.441 212.594 l 85.566 220.059
 l 86.457 221.496 l 86.906 221.992 l 87.352 222.32 l 87.797 222.473 l 88.242
 222.441 l 88.691 222.223 l 89.137 221.809 l 89.582 221.211 l 90.477 219.449
 l 91.367 217.008 l 92.707 212.281 l 94.492 204.801 l 96.277 197.336 l 97.617
 192.672 l 98.512 190.293 l 99.402 188.605 l 100.297 187.633 l 100.742 187.406
 l 101.191 187.344 l 101.637 187.441 l 102.082 187.699 l 102.527 188.121
 l 103.422 189.391 l 106.547 194.758 l 107.438 195.797 l 108.332 196.488
 l 110.117 197.484 l 110.562 197.516 l 111.012 197.402 l 111.457 197.148
 l 112.352 196.258 l 113.242 194.934 l 114.582 192.41 l 116.812 188.004 
l 117.707 186.602 l 118.598 185.594 l 119.492 185.074 l 119.938 185.008 
l 120.387 185.082 l 120.832 185.289 l 121.723 186.086 l 122.617 187.344 
l 123.957 189.891 l 127.973 198.406 l 128.867 199.754 l 129.758 200.73 l
 130.652 201.301 l 131.543 201.457 l 132.438 201.219 l 133.332 200.637 l
 134.223 199.781 l 136.453 197.117 l 137.793 195.711 l 138.688 195.066 l
 139.578 194.738 l 140.473 194.77 l 141.367 195.176 l 142.258 195.93 l 143.152
 196.992 l 144.492 199.008 l 147.613 204.09 l 148.953 205.719 l 149.848 
206.473 l 150.738 206.93 l 151.633 207.086 l 152.527 206.961 l 153.418 206.602
 l 154.758 205.738 l 157.883 203.441 l 158.773 203.023 l 159.668 202.82 
l 160.562 202.855 l 161.453 203.145 l 162.348 203.668 l 163.688 204.816 
l 165.473 206.766 l 167.258 208.711 l 168.598 209.848 l 169.488 210.348 
l 170.383 210.617 l 171.273 210.645 l 172.168 210.441 l 173.059 210.043 
l 174.398 209.156 l 178.418 206.18 l 179.309 205.797 l 180.203 205.59 l 
181.094 205.566 l 181.988 205.715 l 183.328 206.207 l 185.559 207.402 l 
187.344 208.281 l 188.684 208.668 l 189.578 208.723 l 190.469 208.594 l 
191.363 208.266 l 192.254 207.754 l 193.594 206.703 l 195.828 204.539 l 
198.059 202.465 l 199.398 201.551 l 200.289 201.145 l 201.184 200.922 l 
202.074 200.875 l 203.414 201.059 l 207.879 202.055 l 209.219 201.973 l 
210.559 201.594 l 211.898 200.898 l 213.684 199.594 l 216.359 197.641 l 
218.148 196.57 l 219.484 195.973 l 220.824 195.602 l 222.164 195.48 l 223.949
 195.625 l 227.074 196.016 l 228.414 195.918 l 229.754 195.539 l 231.09 
194.883 l 232.879 193.84 l 233.77 193.805 l 235.109 193.898 l 236.895 193.758
 l 239.125 193.555 l 240.465 193.633 l 241.805 193.945 l 243.145 194.508
 l 244.93 195.535 l 247.609 197.07 l 248.949 197.625 l 250.285 198 l 252.074
 198.246 l 253.859 198.262 l 256.535 198.008 l 259.66 197.719 l 261 197.781
 l 262.34 198.035 l 264.125 198.656 l 268.59 200.48 l 270.375 200.824 l 
272.16 200.898 l 275.73 200.715 l 281.09 200.438 l 282.875 200.586 l 284.66
 200.953 l 289.125 202.102 l 290.461 202.191 l 291.805 202.102 l 293.586
 201.746 l 296.266 200.926 l 299.391 199.742 l 301.176 198.91 l 301.621 
198.855 l 302.961 199.176 l 308.32 200.383 l 310.551 200.746 l 312.336 200.777
 l 314.121 200.539 l 316.801 199.867 l 322.156 198.469 l 323.941 198.219
 l 325.73 198.176 l 327.516 198.363 l 333.766 199.32 l 335.551 199.25 l 
337.781 198.887 l 344.477 197.57 l 346.711 197.449 l 352.512 197.418 l 354.746
 197.086 l 356.977 196.508 l 357.871 196.836 l 359.207 197.41 l 360.547 
197.766 l 362.781 198.082 l 368.137 198.688 l 370.816 199.266 l 374.832 
200.344 l 377.512 201.023 l 379.297 201.258 l 381.977 201.352 l 386.887 
201.441 l 390.012 201.805 l 396.707 202.73 l 398.938 202.715 l 406.527 202.34
 l 409.207 202.562 l 415.008 203.25 l 417.242 203.25 l 419.918 203.02 l 
423.938 202.605 l 425.723 202.637 l 427.953 202.906 l 431.527 203.617 l 
434.203 204.09 l 436.438 204.234 l 438.223 204.137 l 440.898 203.723 l 444.023
 203.238 l 445.812 203.148 l 448.043 203.297 l 454.293 203.984 l 456.523
 203.852 l 458.754 203.504 l 460.988 202.953 l 466.789 201.316 l 468.578
 201.191 l 470.809 201.301 l 473.488 201.418 l 475.273 201.219 l 476.613
 200.867 l 477.949 200.328 l 479.289 199.578 l 481.074 198.387 l 481.969
 198.504 l 483.309 198.738 l 485.094 198.742 l 488.664 198.566 l 490.004
 198.738 l 491.789 199.23 l 492.684 199.551 l S
  Q
Q
Q q
41 255 413 -65 re W n
q
41 255 413 -65 re W n
  q
1 0 0 rg
41.73 249.629 m 51.73 249.629 l 46.73 244.629 m 46.73 254.629 l f
0 g
1 w
0 J
1 j
[] 0.0 d
4 M 41.73 249.629 m 51.73 249.629 l 46.73 244.629 m 46.73 254.629 l S
1 0 0 rg
86.367 217.008 m 96.367 217.008 l 91.367 212.008 m 91.367 222.008 l f
0 g
86.367 217.008 m 96.367 217.008 l 91.367 212.008 m 91.367 222.008 l S
1 0 0 rg
131.008 197.652 m 141.008 197.652 l 136.008 192.652 m 136.008 202.652 l
 f
0 g
131.008 197.652 m 141.008 197.652 l 136.008 192.652 m 136.008 202.652 l
 S
1 0 0 rg
175.648 205.555 m 185.648 205.555 l 180.648 200.555 m 180.648 210.555 l
 f
0 g
175.648 205.555 m 185.648 205.555 l 180.648 200.555 m 180.648 210.555 l
 S
1 0 0 rg
220.289 195.836 m 230.289 195.836 l 225.289 190.836 m 225.289 200.836 l
 f
0 g
220.289 195.836 m 230.289 195.836 l 225.289 190.836 m 225.289 200.836 l
 S
1 0 0 rg
264.93 200.766 m 274.93 200.766 l 269.93 195.766 m 269.93 205.766 l f
0 g
264.93 200.766 m 274.93 200.766 l 269.93 195.766 m 269.93 205.766 l S
1 0 0 rg
309.57 200.441 m 319.57 200.441 l 314.57 195.441 m 314.57 205.441 l f
0 g
309.57 200.441 m 319.57 200.441 l 314.57 195.441 m 314.57 205.441 l S
1 0 0 rg
354.207 197.41 m 364.207 197.41 l 359.207 192.41 m 359.207 202.41 l f
0 g
354.207 197.41 m 364.207 197.41 l 359.207 192.41 m 359.207 202.41 l S
1 0 0 rg
398.848 202.352 m 408.848 202.352 l 403.848 197.352 m 403.848 207.352 l
 f
0 g
398.848 202.352 m 408.848 202.352 l 403.848 197.352 m 403.848 207.352 l
 S
1 0 0 rg
443.488 203.352 m 453.488 203.352 l 448.488 198.352 m 448.488 208.352 l
 f
0 g
443.488 203.352 m 453.488 203.352 l 448.488 198.352 m 448.488 208.352 l
 S
  Q
Q
Q q
45 251 449 -51 re W n
q
45 251 449 -51 re W n
  q
0.74902 0.74902 0 rg
2 w
2 J
1 j
[] 0.0 d
4 M 46.73 249.629 m 47.176 249.535 l 47.621 249.25 l 48.066 248.785 l 48.961
 247.324 l 49.855 245.23 l 51.191 241.176 l 54.766 229.273 l 55.656 227.18
 l 56.551 225.805 l 56.996 225.426 l 57.441 225.262 l 57.891 225.312 l 58.336
 225.578 l 58.781 226.043 l 59.676 227.523 l 60.566 229.605 l 61.906 233.398
 l 64.137 239.746 l 65.031 241.727 l 65.926 243.168 l 66.371 243.648 l 66.816
 243.965 l 67.262 244.102 l 67.711 244.062 l 68.156 243.84 l 68.602 243.438
 l 69.496 242.109 l 70.387 240.137 l 71.281 237.613 l 72.621 233.094 l 75.297
 223.562 l 76.191 220.941 l 77.082 218.879 l 77.977 217.488 l 78.422 217.066
 l 78.871 216.828 l 79.316 216.773 l 79.762 216.895 l 80.207 217.18 l 81.102
 218.195 l 81.996 219.672 l 83.781 223.32 l 85.117 225.934 l 86.012 227.297
 l 86.906 228.203 l 87.352 228.453 l 87.797 228.559 l 88.242 228.512 l 88.691
 228.305 l 89.137 227.941 l 90.031 226.75 l 90.922 224.969 l 91.816 222.672
 l 93.156 218.492 l 97.172 205.125 l 98.066 203.043 l 98.512 202.391 l 99.402
 201.668 l 99.852 201.512 l 100.297 201.484 l 100.742 201.586 l 101.637 
202.156 l 102.527 203.141 l 103.867 205.16 l 106.102 208.812 l 106.992 209.977
 l 107.887 210.809 l 108.777 211.273 l 109.672 211.383 l 110.562 211.102
 l 111.457 210.402 l 113.242 208.492 l 114.582 206.613 l 116.812 203.309
 l 117.707 202.301 l 118.598 201.617 l 119.492 201.316 l 120.387 201.434
 l 121.277 201.957 l 122.172 202.852 l 123.062 204.059 l 124.402 206.262
 l 127.082 210.895 l 128.418 212.691 l 129.312 213.535 l 130.207 214.043
 l 131.098 214.207 l 131.992 214.035 l 132.883 213.57 l 133.777 212.871 
l 135.562 211.086 l 137.348 209.391 l 138.242 208.773 l 139.133 208.398 
l 140.027 208.297 l 140.918 208.484 l 141.812 208.949 l 142.703 209.664 
l 144.043 211.094 l 148.062 215.895 l 148.953 216.645 l 149.848 217.18 l
 150.738 217.48 l 151.633 217.547 l 152.527 217.395 l 153.863 216.84 l 156.098
 215.473 l 157.883 214.516 l 158.773 214.223 l 159.668 214.094 l 160.562
 214.152 l 161.453 214.391 l 162.793 215.062 l 164.133 216.016 l 167.703
 218.797 l 169.043 219.461 l 169.934 219.695 l 170.828 219.75 l 171.723 
219.633 l 173.059 219.176 l 174.848 218.223 l 177.523 216.711 l 178.863 
216.195 l 180.203 215.953 l 181.543 215.984 l 182.879 216.25 l 185.113 216.98
 l 187.344 217.633 l 188.684 217.781 l 190.023 217.641 l 191.363 217.184
 l 192.703 216.438 l 194.488 215.137 l 198.059 212.438 l 199.398 211.617
 l 200.289 211.273 l 201.184 211.242 l 202.969 211.617 l 206.539 212.449
 l 208.324 212.594 l 209.664 212.504 l 211.004 212.223 l 212.344 211.742
 l 214.129 210.859 l 217.699 209.004 l 219.039 208.543 l 220.379 208.281
 l 221.719 208.219 l 223.504 208.387 l 227.965 209.004 l 229.309 208.953
 l 231.09 208.621 l 234.664 207.68 l 237.789 207.465 l 242.25 207.379 l 
242.699 207.453 l 243.59 208.145 l 244.93 209.145 l 246.715 210.129 l 248.5
 210.797 l 250.285 211.195 l 252.52 211.43 l 260.555 211.969 l 262.785 212.441
 l 268.145 213.77 l 269.93 213.902 l 272.605 213.816 l 275.73 213.754 l 
278.855 213.93 l 283.766 214.445 l 287.785 214.855 l 289.57 214.852 l 291.805
 214.586 l 297.16 213.734 l 299.836 213.684 l 303.41 213.887 l 308.32 214.16
 l 310.996 214.09 l 313.676 213.785 l 317.246 213.371 l 319.926 213.352 
l 327.066 213.531 l 330.191 213.266 l 333.766 212.73 l 339.566 211.758 l
 341.797 211.68 l 351.621 211.676 l 356.082 211.254 l 357.871 211.109 l 
359.207 211.234 l 365.012 212.312 l 368.137 212.52 l 370.367 212.492 l 371.707
 212.328 l 372.602 212.051 l 373.047 211.773 l 373.492 211.234 l 373.941
 211.379 l 374.387 211.945 l 375.277 212.512 l 376.617 212.98 l 378.852 
213.453 l 383.316 214.082 l 386.438 214.352 l 390.012 214.406 l 398.938 
214.273 l 402.512 214.191 l 405.637 214.359 l 410.543 214.633 l 415.902 
214.641 l 418.578 214.469 l 424.383 213.953 l 426.613 214.125 l 434.203 
215.059 l 436.883 215.082 l 439.113 214.902 l 442.238 214.391 l 445.363 
213.922 l 447.598 213.801 l 455.629 213.645 l 457.863 213.211 l 459.203 
213 l 463.668 212.684 l 466.789 212.363 l 469.023 212.379 l 471.703 212.645
 l 475.273 212.996 l 477.504 212.973 l 479.289 212.758 l 481.523 212.223
 l 483.309 211.789 l 485.094 211.59 l 488.219 211.484 l 490.004 211.637 
l 492.234 212.09 l 492.684 212.203 l S
  Q
Q
Q q
41 256 413 -52 re W n
q
41 256 413 -52 re W n
  q
0.74902 0.74902 0 rg
46.73 254.629 m 41.973 251.176 l 43.789 245.586 l 49.668 245.586 l 51.484
 251.176 l h
46.73 254.629 m f
0 g
1 w
0 J
0 j
[] 0.0 d
4 M 46.73 254.629 m 41.973 251.176 l 43.789 245.586 l 49.668 245.586 l 51.484
 251.176 l h
46.73 254.629 m S
0.74902 0.74902 0 rg
91.367 228.879 m 86.613 225.426 l 88.43 219.832 l 94.309 219.832 l 96.125
 225.426 l h
91.367 228.879 m f
0 g
91.367 228.879 m 86.613 225.426 l 88.43 219.832 l 94.309 219.832 l 96.125
 225.426 l h
91.367 228.879 m S
0.74902 0.74902 0 rg
136.008 215.629 m 131.254 212.172 l 133.07 206.582 l 138.949 206.582 l 
140.766 212.172 l h
136.008 215.629 m f
0 g
136.008 215.629 m 131.254 212.172 l 133.07 206.582 l 138.949 206.582 l 
140.766 212.172 l h
136.008 215.629 m S
0.74902 0.74902 0 rg
180.648 220.934 m 175.895 217.477 l 177.711 211.887 l 183.586 211.887 l
 185.402 217.477 l h
180.648 220.934 m f
0 g
180.648 220.934 m 175.895 217.477 l 177.711 211.887 l 183.586 211.887 l
 185.402 217.477 l h
180.648 220.934 m S
0.74902 0.74902 0 rg
225.289 213.695 m 220.535 210.242 l 222.352 204.652 l 228.227 204.652 l
 230.043 210.242 l h
225.289 213.695 m f
0 g
225.289 213.695 m 220.535 210.242 l 222.352 204.652 l 228.227 204.652 l
 230.043 210.242 l h
225.289 213.695 m S
0.74902 0.74902 0 rg
269.93 218.902 m 265.172 215.445 l 266.988 209.855 l 272.867 209.855 l 
274.684 215.445 l h
269.93 218.902 m f
0 g
269.93 218.902 m 265.172 215.445 l 266.988 209.855 l 272.867 209.855 l 
274.684 215.445 l h
269.93 218.902 m S
0.74902 0.74902 0 rg
314.57 218.656 m 309.812 215.203 l 311.629 209.609 l 317.508 209.609 l 
319.324 215.203 l h
314.57 218.656 m f
0 g
314.57 218.656 m 309.812 215.203 l 311.629 209.609 l 317.508 209.609 l 
319.324 215.203 l h
314.57 218.656 m S
0.74902 0.74902 0 rg
359.207 216.234 m 354.453 212.777 l 356.27 207.188 l 362.148 207.188 l 
363.965 212.777 l h
359.207 216.234 m f
0 g
359.207 216.234 m 354.453 212.777 l 356.27 207.188 l 362.148 207.188 l 
363.965 212.777 l h
359.207 216.234 m S
0.74902 0.74902 0 rg
403.848 219.238 m 399.094 215.785 l 400.91 210.191 l 406.789 210.191 l 
408.605 215.785 l h
403.848 219.238 m f
0 g
403.848 219.238 m 399.094 215.785 l 400.91 210.191 l 406.789 210.191 l 
408.605 215.785 l h
403.848 219.238 m S
0.74902 0.74902 0 rg
448.488 218.801 m 443.734 215.348 l 445.551 209.758 l 451.426 209.758 l
 453.242 215.348 l h
448.488 218.801 m f
0 g
448.488 218.801 m 443.734 215.348 l 445.551 209.758 l 451.426 209.758 l
 453.242 215.348 l h
448.488 218.801 m S
  Q
Q
Q q
46 388 1 -346 re W n
q
46 388 1 -346 re W n
  q
0 g
0.5 w
0 J
1 j
[ 1 3] 0 d
4 M 46.73 42.27 m 46.73 387.871 l S
  Q
Q
  Q
Q
Q q
0 g
0.5 w
0 J
1 j
[] 0.0 d
4 M 46.73 41.782 m 46.73 45.782 l S
46.73 387.383 m 46.73 383.383 l S
43.656 31.864 m 43.656 32.774 43.645 34.324 43.016 35.52 c 42.461 36.567
 41.578 36.938 40.805 36.938 c 40.086 36.938 39.172 36.61 38.605 35.532 
c 38.008 34.414 37.949 33.028 37.949 31.864 c 37.949 31.012 37.965 29.715
 38.426 28.578 c 39.07 27.043 40.219 26.836 40.805 26.836 c 41.488 26.836
 42.535 27.117 43.148 28.535 c 43.598 29.567 43.656 30.774 43.656 31.864
 c 40.805 27.074 m 39.848 27.074 39.277 27.891 39.07 29.032 c 38.906 29.907
 38.906 31.192 38.906 32.028 c 38.906 33.176 38.906 34.133 39.098 35.043
 c 39.383 36.309 40.219 36.699 40.805 36.699 c 41.414 36.699 42.207 36.293
 42.492 35.074 c 42.684 34.223 42.699 33.223 42.699 32.028 c 42.699 31.055
 42.699 29.864 42.523 28.985 c 42.207 27.356 41.328 27.074 40.805 27.074
 c f
46.984 27.852 m 46.984 28.282 46.625 28.578 46.266 28.578 c 45.832 28.578
 45.535 28.223 45.535 27.864 c 45.535 27.434 45.891 27.133 46.25 27.133 
c 46.688 27.133 46.984 27.492 46.984 27.852 c f
54.574 31.864 m 54.574 32.774 54.562 34.324 53.934 35.52 c 53.379 36.567
 52.496 36.938 51.723 36.938 c 51.004 36.938 50.09 36.61 49.523 35.532 c
 48.926 34.414 48.867 33.028 48.867 31.864 c 48.867 31.012 48.883 29.715
 49.344 28.578 c 49.988 27.043 51.137 26.836 51.723 26.836 c 52.406 26.836
 53.453 27.117 54.066 28.535 c 54.516 29.567 54.574 30.774 54.574 31.864
 c 51.723 27.074 m 50.766 27.074 50.195 27.891 49.988 29.032 c 49.824 29.907
 49.824 31.192 49.824 32.028 c 49.824 33.176 49.824 34.133 50.016 35.043
 c 50.301 36.309 51.137 36.699 51.723 36.699 c 52.332 36.699 53.125 36.293
 53.41 35.074 c 53.602 34.223 53.617 33.223 53.617 32.028 c 53.617 31.055
 53.617 29.864 53.441 28.985 c 53.125 27.356 52.246 27.074 51.723 27.074
 c f
Q q
46.73 387.383 446.398 -345.602 re W n
q
46 387.512 448 -346 re W n
[ 1 0 0 1 0 -0.488007 ] concat
  q
Q q
135 388 2 -346 re W n
q
135 388 2 -346 re W n
  q
0 g
0.5 w
0 J
1 j
[ 1 3] 0 d
4 M 136.008 42.27 m 136.008 387.871 l S
  Q
Q
  Q
Q
Q q
0 g
0.5 w
0 J
1 j
[] 0.0 d
4 M 136.008 41.782 m 136.008 45.782 l S
136.008 387.383 m 136.008 383.383 l S
132.938 31.864 m 132.938 32.774 132.922 34.324 132.293 35.52 c 131.742 
36.567 130.859 36.938 130.082 36.938 c 129.363 36.938 128.453 36.61 127.887
 35.532 c 127.289 34.414 127.227 33.028 127.227 31.864 c 127.227 31.012 
127.242 29.715 127.707 28.578 c 128.348 27.043 129.5 26.836 130.082 26.836
 c 130.77 26.836 131.816 27.117 132.426 28.535 c 132.875 29.567 132.938 
30.774 132.938 31.864 c 130.082 27.074 m 129.125 27.074 128.559 27.891 128.348
 29.032 c 128.184 29.907 128.184 31.192 128.184 32.028 c 128.184 33.176 
128.184 34.133 128.379 35.043 c 128.664 36.309 129.5 36.699 130.082 36.699
 c 130.695 36.699 131.488 36.293 131.773 35.074 c 131.965 34.223 131.98 
33.223 131.98 32.028 c 131.98 31.055 131.98 29.864 131.801 28.985 c 131.488
 27.356 130.605 27.074 130.082 27.074 c f
136.266 27.852 m 136.266 28.282 135.906 28.578 135.547 28.578 c 135.113
 28.578 134.812 28.223 134.812 27.864 c 134.812 27.434 135.172 27.133 135.531
 27.133 c 135.965 27.133 136.266 27.492 136.266 27.852 c f
143.809 29.442 m 143.543 29.442 l 143.391 28.387 143.27 28.207 143.211 
28.114 c 143.137 27.996 142.062 27.996 141.852 27.996 c 138.984 27.996 l
 139.52 28.578 140.566 29.637 141.836 30.864 c 142.75 31.727 143.809 32.742
 143.809 34.219 c 143.809 35.985 142.406 36.996 140.836 36.996 c 139.191
 36.996 138.191 35.547 138.191 34.207 c 138.191 33.625 138.625 33.551 138.805
 33.551 c 138.953 33.551 139.402 33.641 139.402 34.16 c 139.402 34.621 139.012
 34.754 138.805 34.754 c 138.715 34.754 138.625 34.742 138.562 34.711 c 
138.848 35.985 139.715 36.61 140.629 36.61 c 141.926 36.61 142.777 35.578
 142.777 34.219 c 142.777 32.922 142.016 31.805 141.164 30.832 c 138.191
 27.473 l 138.191 27.133 l 143.449 27.133 l h
143.809 29.442 m f
Q q
46.73 387.383 446.398 -345.602 re W n
q
46 387.512 448 -346 re W n
[ 1 0 0 1 0 -0.488007 ] concat
  q
Q q
225 388 1 -346 re W n
q
225 388 1 -346 re W n
  q
0 g
0.5 w
0 J
1 j
[ 1 3] 0 d
4 M 225.289 42.27 m 225.289 387.871 l S
  Q
Q
  Q
Q
Q q
0 g
0.5 w
0 J
1 j
[] 0.0 d
4 M 225.289 41.782 m 225.289 45.782 l S
225.289 387.383 m 225.289 383.383 l S
222.215 31.864 m 222.215 32.774 222.203 34.324 221.574 35.52 c 221.02 36.567
 220.137 36.938 219.363 36.938 c 218.645 36.938 217.734 36.61 217.168 35.532
 c 216.57 34.414 216.508 33.028 216.508 31.864 c 216.508 31.012 216.523 
29.715 216.988 28.578 c 217.629 27.043 218.781 26.836 219.363 26.836 c 220.051
 26.836 221.098 27.117 221.707 28.535 c 222.156 29.567 222.215 30.774 222.215
 31.864 c 219.363 27.074 m 218.406 27.074 217.84 27.891 217.629 29.032 c
 217.465 29.907 217.465 31.192 217.465 32.028 c 217.465 33.176 217.465 34.133
 217.66 35.043 c 217.945 36.309 218.781 36.699 219.363 36.699 c 219.977 
36.699 220.766 36.293 221.051 35.074 c 221.246 34.223 221.258 33.223 221.258
 32.028 c 221.258 31.055 221.258 29.864 221.082 28.985 c 220.766 27.356 
219.887 27.074 219.363 27.074 c f
225.543 27.852 m 225.543 28.282 225.184 28.578 224.824 28.578 c 224.395
 28.578 224.094 28.223 224.094 27.864 c 224.094 27.434 224.453 27.133 224.812
 27.133 c 225.246 27.133 225.543 27.492 225.543 27.852 c f
231.879 36.746 m 231.879 37.059 231.863 37.071 231.598 37.071 c 227.156
 30.063 l 227.156 29.676 l 231.012 29.676 l 231.012 28.199 l 231.012 27.657
 230.98 27.508 229.938 27.508 c 229.652 27.508 l 229.652 27.133 l 233.238
 27.133 l 233.238 27.508 l 232.953 27.508 l 231.91 27.508 231.879 27.657
 231.879 28.199 c 231.879 29.676 l 233.402 29.676 l 233.402 30.063 l 231.879
 30.063 l h
231.059 35.766 m 231.059 30.063 l 227.457 30.063 l h
231.059 35.766 m f
Q q
46.73 387.383 446.398 -345.602 re W n
q
46 387.512 448 -346 re W n
[ 1 0 0 1 0 -0.488007 ] concat
  q
Q q
314 388 1 -346 re W n
q
314 388 1 -346 re W n
  q
0 g
0.5 w
0 J
1 j
[ 1 3] 0 d
4 M 314.57 42.27 m 314.57 387.871 l S
  Q
Q
  Q
Q
Q q
0 g
0.5 w
0 J
1 j
[] 0.0 d
4 M 314.57 41.782 m 314.57 45.782 l S
314.57 387.383 m 314.57 383.383 l S
311.496 31.864 m 311.496 32.774 311.484 34.324 310.855 35.52 c 310.301 
36.567 309.418 36.938 308.645 36.938 c 307.926 36.938 307.012 36.61 306.445
 35.532 c 305.848 34.414 305.789 33.028 305.789 31.864 c 305.789 31.012 
305.805 29.715 306.266 28.578 c 306.91 27.043 308.059 26.836 308.645 26.836
 c 309.328 26.836 310.375 27.117 310.988 28.535 c 311.438 29.567 311.496
 30.774 311.496 31.864 c 308.645 27.074 m 307.688 27.074 307.117 27.891 
306.91 29.032 c 306.746 29.907 306.746 31.192 306.746 32.028 c 306.746 33.176
 306.746 34.133 306.938 35.043 c 307.223 36.309 308.059 36.699 308.645 36.699
 c 309.254 36.699 310.047 36.293 310.332 35.074 c 310.523 34.223 310.539
 33.223 310.539 32.028 c 310.539 31.055 310.539 29.864 310.363 28.985 c 
310.047 27.356 309.168 27.074 308.645 27.074 c f
314.824 27.852 m 314.824 28.282 314.465 28.578 314.105 28.578 c 313.672
 28.578 313.375 28.223 313.375 27.864 c 313.375 27.434 313.73 27.133 314.09
 27.133 c 314.527 27.133 314.824 27.492 314.824 27.852 c f
317.723 32.215 m 317.723 35.75 319.395 36.547 320.367 36.547 c 320.684 
36.547 321.445 36.496 321.742 35.949 c 321.504 35.949 321.055 35.949 321.055
 35.43 c 321.055 35.028 321.383 34.895 321.594 34.895 c 321.727 34.895 322.129
 34.949 322.129 35.446 c 322.129 36.367 321.383 36.891 320.352 36.891 c 
318.574 36.891 316.707 35.051 316.707 31.766 c 316.707 27.723 318.395 26.836
 319.59 26.836 c 321.039 26.836 322.414 28.129 322.414 30.129 c 322.414 
31.992 321.207 33.348 319.68 33.348 c 318.77 33.348 318.094 32.754 317.723
 31.711 c h
319.59 27.192 m 317.75 27.192 317.75 29.934 317.75 30.489 c 317.75 31.563
 318.262 33.11 319.648 33.11 c 319.906 33.11 320.637 33.11 321.129 32.082
 c 321.398 31.5 321.398 30.891 321.398 30.145 c 321.398 29.336 321.398 28.746
 321.082 28.149 c 320.758 27.532 320.277 27.192 319.59 27.192 c f
Q q
46.73 387.383 446.398 -345.602 re W n
q
46 387.512 448 -346 re W n
[ 1 0 0 1 0 -0.488007 ] concat
  q
Q q
403 388 2 -346 re W n
q
403 388 2 -346 re W n
  q
0 g
0.5 w
0 J
1 j
[ 1 3] 0 d
4 M 403.848 42.27 m 403.848 387.871 l S
  Q
Q
  Q
Q
Q q
0 g
0.5 w
0 J
1 j
[] 0.0 d
4 M 403.848 41.782 m 403.848 45.782 l S
403.848 387.383 m 403.848 383.383 l S
400.777 31.864 m 400.777 32.774 400.762 34.324 400.133 35.52 c 399.582 
36.567 398.699 36.938 397.922 36.938 c 397.203 36.938 396.293 36.61 395.727
 35.532 c 395.129 34.414 395.066 33.028 395.066 31.864 c 395.066 31.012 
395.086 29.715 395.547 28.578 c 396.188 27.043 397.34 26.836 397.922 26.836
 c 398.609 26.836 399.656 27.117 400.27 28.535 c 400.715 29.567 400.777 
30.774 400.777 31.864 c 397.922 27.074 m 396.965 27.074 396.398 27.891 396.188
 29.032 c 396.023 29.907 396.023 31.192 396.023 32.028 c 396.023 33.176 
396.023 34.133 396.219 35.043 c 396.504 36.309 397.34 36.699 397.922 36.699
 c 398.535 36.699 399.328 36.293 399.613 35.074 c 399.805 34.223 399.82 
33.223 399.82 32.028 c 399.82 31.055 399.82 29.864 399.641 28.985 c 399.328
 27.356 398.445 27.074 397.922 27.074 c f
404.105 27.852 m 404.105 28.282 403.746 28.578 403.387 28.578 c 402.953
 28.578 402.656 28.223 402.656 27.864 c 402.656 27.434 403.012 27.133 403.371
 27.133 c 403.805 27.133 404.105 27.492 404.105 27.852 c f
409.484 32.418 m 410.426 32.895 411.383 33.61 411.383 34.754 c 411.383 
36.106 410.066 36.891 408.855 36.891 c 407.496 36.891 406.301 35.91 406.301
 34.559 c 406.301 34.188 406.391 33.547 406.973 32.985 c 407.121 32.836 
407.75 32.391 408.152 32.106 c 407.48 31.766 405.91 30.949 405.91 29.313
 c 405.91 27.785 407.375 26.836 408.824 26.836 c 410.426 26.836 411.77 27.981
 411.77 29.496 c 411.77 30.848 410.859 31.473 410.262 31.871 c h
407.523 33.727 m 407.406 33.801 406.809 34.262 406.809 34.961 c 406.809
 35.867 407.75 36.547 408.824 36.547 c 410.008 36.547 410.871 35.719 410.871
 34.754 c 410.871 33.371 409.316 32.582 409.242 32.582 c 409.23 32.582 409.215
 32.582 409.094 32.676 c h
410.273 30.68 m 410.5 30.516 411.215 30.028 411.215 29.121 c 411.215 28.024
 410.113 27.192 408.855 27.192 c 407.496 27.192 406.465 28.157 406.465 29.328
 c 406.465 30.504 407.375 31.481 408.406 31.946 c h
410.273 30.68 m f
Q q
46.73 387.383 446.398 -345.602 re W n
q
46 387.512 448 -346 re W n
[ 1 0 0 1 0 -0.488007 ] concat
  q
Q q
492 388 2 -346 re W n
q
492 388 2 -346 re W n
  q
0 g
0.5 w
0 J
1 j
[ 1 3] 0 d
4 M 493.129 42.27 m 493.129 387.871 l S
  Q
Q
  Q
Q
Q q
0 g
0.5 w
0 J
1 j
[] 0.0 d
4 M 493.129 41.782 m 493.129 45.782 l S
493.129 387.383 m 493.129 383.383 l S
487.754 36.594 m 487.754 36.907 487.742 36.922 487.531 36.922 c 486.949
 36.278 486.066 36.071 485.23 36.071 c 485.188 36.071 485.109 36.071 485.094
 36.043 c 485.082 36.008 485.082 35.977 485.082 35.653 c 485.543 35.653 
486.32 35.742 486.918 36.098 c 486.918 28.211 l 486.918 27.684 486.887 27.508
 485.605 27.508 c 485.156 27.508 l 485.156 27.133 l 489.52 27.133 l 489.52
 27.508 l 489.07 27.508 l 487.785 27.508 487.754 27.672 487.754 28.203 c
 h
487.754 36.594 m f
493.383 27.852 m 493.383 28.282 493.023 28.578 492.664 28.578 c 492.234
 28.578 491.934 28.223 491.934 27.864 c 491.934 27.434 492.293 27.133 492.652
 27.133 c 493.086 27.133 493.383 27.492 493.383 27.852 c f
500.977 31.864 m 500.977 32.774 500.961 34.324 500.332 35.52 c 499.781 
36.567 498.898 36.938 498.121 36.938 c 497.402 36.938 496.492 36.61 495.926
 35.532 c 495.328 34.414 495.266 33.028 495.266 31.864 c 495.266 31.012 
495.281 29.715 495.746 28.578 c 496.387 27.043 497.539 26.836 498.121 26.836
 c 498.809 26.836 499.855 27.117 500.465 28.535 c 500.914 29.567 500.977
 30.774 500.977 31.864 c 498.121 27.074 m 497.164 27.074 496.598 27.891 
496.387 29.032 c 496.223 29.907 496.223 31.192 496.223 32.028 c 496.223 
33.176 496.223 34.133 496.418 35.043 c 496.703 36.309 497.539 36.699 498.121
 36.699 c 498.734 36.699 499.523 36.293 499.809 35.074 c 500.004 34.223 
500.016 33.223 500.016 32.028 c 500.016 31.055 500.016 29.864 499.84 28.985
 c 499.523 27.356 498.645 27.074 498.121 27.074 c f
187.109 10.961 m 194.043 10.961 l 194.043 12.598 l 187.109 12.598 l 187.109
 17.293 l 195 17.293 l 195 18.93 l 185.258 18.93 l 185.258 4.34 l 187.109
 4.34 l h
187.109 10.961 m f
196.117 14.844 m 196.117 4.387 l 197.789 4.387 l 197.789 9.817 l 197.789
 11.313 198.168 12.289 198.965 12.867 c 199.484 13.25 199.98 13.367 201.137
 13.367 c 201.137 15.086 l 200.859 15.121 200.719 15.145 200.5 15.145 c 
199.426 15.145 198.609 14.504 197.648 12.946 c 197.648 14.844 l h
196.117 14.844 m f
211.598 9.168 m 211.598 10.735 211.48 11.676 211.18 12.438 c 210.5 14.125
 208.906 15.145 206.957 15.145 c 204.047 15.145 202.172 12.922 202.172 9.508
 c 202.172 6.09 203.984 3.989 206.914 3.989 c 209.305 3.989 210.961 5.356
 211.379 7.649 c 209.703 7.649 l 209.246 6.25 208.309 5.524 206.973 5.524
 c 205.918 5.524 205.023 6.008 204.465 6.899 c 204.066 7.504 203.926 8.114
 203.906 9.168 c h
203.949 10.524 m 204.086 12.395 205.262 13.606 206.938 13.606 c 208.57 
13.606 209.828 12.297 209.828 10.645 c 209.828 10.602 209.828 10.567 209.805
 10.524 c h
203.949 10.524 m f
222.316 0 m 222.316 14.813 l 220.844 14.813 l 220.844 13.41 l 220.066 14.508
 218.891 15.106 217.516 15.106 c 214.766 15.106 212.973 12.836 212.973 9.344
 c 212.973 5.934 214.688 3.824 217.438 3.824 c 218.891 3.824 219.887 4.34
 220.664 5.481 c 220.664 0 l h
217.754 13.551 m 219.527 13.551 220.664 11.942 220.664 9.403 c 220.664 
6.992 219.512 5.383 217.754 5.383 c 215.922 5.383 214.707 7.008 214.707 
9.465 c 214.707 11.903 215.922 13.551 217.754 13.551 c f
233.137 4.489 m 233.137 14.946 l 231.484 14.946 l 231.484 8.989 l 231.484
 6.844 230.367 5.446 228.633 5.446 c 227.32 5.446 226.48 6.242 226.48 7.508
 c 226.48 14.946 l 224.828 14.946 l 224.828 6.852 l 224.828 5.106 226.125
 3.989 228.156 3.989 c 229.691 3.989 230.664 4.524 231.645 5.907 c 231.645
 4.489 l h
233.137 4.489 m f
244.832 9.168 m 244.832 10.735 244.715 11.676 244.414 12.438 c 243.738 
14.125 242.145 15.145 240.191 15.145 c 237.281 15.145 235.41 12.922 235.41
 9.508 c 235.41 6.09 237.219 3.989 240.148 3.989 c 242.543 3.989 244.195
 5.356 244.613 7.649 c 242.941 7.649 l 242.48 6.25 241.547 5.524 240.211
 5.524 c 239.152 5.524 238.258 6.008 237.699 6.899 c 237.301 7.504 237.16
 8.114 237.145 9.168 c h
237.184 10.524 m 237.32 12.395 238.496 13.606 240.172 13.606 c 241.805 
13.606 243.062 12.297 243.062 10.645 c 243.062 10.602 243.062 10.567 243.039
 10.524 c h
237.184 10.524 m f
247.086 14.844 m 247.086 4.387 l 248.758 4.387 l 248.758 10.153 l 248.758
 12.289 249.875 13.688 251.586 13.688 c 252.902 13.688 253.742 12.887 253.742
 11.629 c 253.742 4.387 l 255.395 4.387 l 255.395 12.289 l 255.395 14.028
 254.098 15.145 252.086 15.145 c 250.531 15.145 249.535 14.543 248.621 13.09
 c 248.621 14.844 l h
247.086 14.844 m f
266.152 11.348 m 266.074 12.364 265.852 13.02 265.453 13.594 c 264.738 
14.571 263.484 15.145 262.031 15.145 c 259.219 15.145 257.387 12.922 257.387
 9.465 c 257.387 6.11 259.18 3.989 262.008 3.989 c 264.5 3.989 266.074 5.477
 266.273 8.02 c 264.598 8.02 l 264.32 6.352 263.461 5.524 262.047 5.524 
c 260.215 5.524 259.117 7.008 259.117 9.465 c 259.117 12.063 260.195 13.606
 262.008 13.606 c 263.402 13.606 264.281 12.793 264.48 11.348 c h
266.152 11.348 m f
274.461 14.848 m 271.57 6.684 l 268.902 14.848 l 267.129 14.848 l 270.656
 4.321 l 270.02 2.66 l 269.762 1.918 269.379 1.641 268.684 1.641 c 268.441
 1.641 268.168 1.68 267.809 1.762 c 267.809 0.262 l 268.145 0.082 268.484
 0 268.922 0 c 269.461 0 270.039 0.184 270.477 0.504 c 270.996 0.883 271.297
 1.324 271.613 2.164 c 276.254 14.848 l h
274.461 14.848 m f
286.934 18.93 m 284.941 16.317 283.688 12.684 283.688 9.547 c 283.688 6.395
 284.941 2.762 286.934 0.149 c 288.031 0.149 l 286.277 3.004 285.301 6.356
 285.301 9.547 c 285.301 12.723 286.277 16.094 288.031 18.93 c h
286.934 18.93 m f
291.855 14.844 m 290.203 14.844 l 290.203 4.387 l 291.855 4.387 l h
291.855 18.93 m 290.18 18.93 l 290.18 16.836 l 291.855 16.836 l h
291.855 18.93 m f
294.688 14.844 m 294.688 4.387 l 296.359 4.387 l 296.359 10.153 l 296.359
 12.289 297.477 13.688 299.188 13.688 c 300.504 13.688 301.344 12.887 301.344
 11.629 c 301.344 4.387 l 302.996 4.387 l 302.996 12.289 l 302.996 14.028
 301.699 15.145 299.688 15.145 c 298.133 15.145 297.137 14.543 296.223 13.09
 c 296.223 14.844 l h
294.688 14.844 m f
324.035 12.157 m 317.977 12.157 l 317.977 10.524 l 322.402 10.524 l 322.402
 10.117 l 322.402 7.508 320.488 5.621 317.84 5.621 c 316.367 5.621 315.031
 6.157 314.172 7.094 c 313.215 8.125 312.641 9.852 312.641 11.641 c 312.641
 15.192 314.672 17.535 317.738 17.535 c 319.953 17.535 321.547 16.414 321.945
 14.571 c 323.836 14.571 l 323.316 17.496 321.086 19.172 317.762 19.172 
c 315.984 19.172 314.551 18.715 313.414 17.782 c 311.742 16.391 310.785 
14.145 310.785 11.539 c 310.785 7.086 313.516 3.989 317.441 3.989 c 319.414
 3.989 320.984 4.723 322.402 6.305 c 322.859 4.364 l 324.035 4.364 l h
324.035 12.157 m f
336.387 10.961 m 336.387 4.379 l 338.242 4.379 l 338.242 18.93 l 336.387
 18.93 l 336.387 12.598 l 328.914 12.598 l 328.914 18.93 l 327.062 18.93
 l 327.062 4.379 l 328.938 4.379 l 328.938 10.961 l h
336.387 10.961 m f
348.621 14.809 m 340.832 14.809 l 340.832 13.352 l 346.652 13.352 l 340.414
 5.883 l 340.414 4.387 l 348.902 4.387 l 348.902 5.844 l 342.426 5.844 l
 348.621 13.332 l h
348.621 14.809 m f
351.609 0.149 m 353.605 2.762 354.859 6.395 354.859 9.528 c 354.859 12.684
 353.605 16.317 351.609 18.93 c 350.516 18.93 l 352.27 16.074 353.246 12.723
 353.246 9.528 c 353.246 6.356 352.27 2.981 350.516 0.149 c h
351.609 0.149 m f
Q q
46.73 387.383 446.398 -345.602 re W n
q
46 387.512 448 -346 re W n
[ 1 0 0 1 0 -0.488007 ] concat
  q
Q q
46 43 446 -1 re W n
q
46 43 446 -1 re W n
  q
0 g
0.5 w
0 J
1 j
[ 1 3] 0 d
4 M 46.73 42.27 m 493.129 42.27 l S
  Q
Q
  Q
Q
Q q
0 g
0.5 w
0 J
1 j
[] 0.0 d
4 M 46.73 41.782 m 50.73 41.782 l S
493.129 41.782 m 489.129 41.782 l S
33.637 41.485 m 33.891 41.485 34.16 41.485 34.16 41.785 c 34.16 42.082 
33.891 42.082 33.637 42.082 c 25.551 42.082 l 25.297 42.082 25.031 42.082
 25.031 41.785 c 25.031 41.485 25.297 41.485 25.551 41.485 c h
33.637 41.485 m f
38.715 43.086 m 40.047 43.086 40.629 41.93 40.629 40.594 c 40.629 38.797
 39.672 38.106 38.805 38.106 c 38.016 38.106 36.727 38.5 36.324 39.668 c
 36.398 39.637 36.473 39.637 36.547 39.637 c 36.906 39.637 37.176 39.875
 37.176 40.262 c 37.176 40.696 36.848 40.887 36.547 40.887 c 36.297 40.887
 35.906 40.77 35.906 40.211 c 35.906 38.832 37.25 37.75 38.836 37.75 c 40.492
 37.75 41.766 39.055 41.766 40.582 c 41.766 42.035 40.566 43.082 39.148 
43.25 c 40.285 43.485 41.375 44.485 41.375 45.821 c 41.375 46.969 40.195
 47.809 38.852 47.809 c 37.492 47.809 36.297 46.989 36.297 45.821 c 36.297
 45.309 36.684 45.223 36.875 45.223 c 37.191 45.223 37.461 45.414 37.461
 45.805 c 37.461 46.188 37.191 46.383 36.875 46.383 c 36.816 46.383 36.742
 46.383 36.684 46.352 c 37.117 47.293 38.297 47.465 38.82 47.465 c 39.344
 47.465 40.328 47.215 40.328 45.801 c 40.328 45.387 40.27 44.653 39.762 
44.004 c 39.312 43.43 38.805 43.43 38.312 43.367 c 37.832 43.367 l 37.73
 43.352 37.668 43.336 37.668 43.219 c 37.668 43.102 37.684 43.086 37.984
 43.086 c h
38.715 43.086 m f
Q q
46.73 387.383 446.398 -345.602 re W n
q
46 387.512 448 -346 re W n
[ 1 0 0 1 0 -0.488007 ] concat
  q
Q q
46 112 446 -1 re W n
q
46 112 446 -1 re W n
  q
0 g
0.5 w
0 J
1 j
[ 1 3] 0 d
4 M 46.73 111.391 m 493.129 111.391 l S
  Q
Q
  Q
Q
Q q
0 g
0.5 w
0 J
1 j
[] 0.0 d
4 M 46.73 110.903 m 50.73 110.903 l S
493.129 110.903 m 489.129 110.903 l S
33.637 110.606 m 33.891 110.606 34.16 110.606 34.16 110.907 c 34.16 111.203
 33.891 111.203 33.637 111.203 c 25.551 111.203 l 25.297 111.203 25.031 
111.203 25.031 110.907 c 25.031 110.606 25.297 110.606 25.551 110.606 c 
h
33.637 110.606 m f
41.645 109.477 m 41.375 109.477 l 41.227 108.422 41.105 108.242 41.047 
108.149 c 40.973 108.032 39.895 108.032 39.688 108.032 c 36.816 108.032 
l 37.355 108.614 38.402 109.672 39.672 110.899 c 40.582 111.762 41.645 112.778
 41.645 114.254 c 41.645 116.02 40.238 117.032 38.668 117.032 c 37.027 117.032
 36.023 115.586 36.023 114.242 c 36.023 113.66 36.457 113.586 36.637 113.586
 c 36.789 113.586 37.234 113.676 37.234 114.196 c 37.234 114.657 36.848 
114.789 36.637 114.789 c 36.547 114.789 36.457 114.778 36.398 114.746 c 
36.684 116.02 37.551 116.645 38.461 116.645 c 39.762 116.645 40.613 115.614
 40.613 114.254 c 40.613 112.957 39.852 111.84 39 110.867 c 36.023 107.508
 l 36.023 107.168 l 41.285 107.168 l h
41.645 109.477 m f
Q q
46.73 387.383 446.398 -345.602 re W n
q
46 387.512 448 -346 re W n
[ 1 0 0 1 0 -0.488007 ] concat
  q
Q q
46 181 446 -1 re W n
q
46 181 446 -1 re W n
  q
0 g
0.5 w
0 J
1 j
[ 1 3] 0 d
4 M 46.73 180.508 m 493.129 180.508 l S
  Q
Q
  Q
Q
Q q
0 g
0.5 w
0 J
1 j
[] 0.0 d
4 M 46.73 180.02 m 50.73 180.02 l S
493.129 180.02 m 489.129 180.02 l S
33.637 179.727 m 33.891 179.727 34.16 179.727 34.16 180.024 c 34.16 180.324
 33.891 180.324 33.637 180.324 c 25.551 180.324 l 25.297 180.324 25.031 
180.324 25.031 180.024 c 25.031 179.727 25.297 179.727 25.551 179.727 c 
h
33.637 179.727 m f
39.387 185.75 m 39.387 186.063 39.371 186.078 39.164 186.078 c 38.582 185.434
 37.699 185.227 36.863 185.227 c 36.816 185.227 36.742 185.227 36.727 185.196
 c 36.715 185.164 36.715 185.133 36.715 184.809 c 37.176 184.809 37.953 
184.895 38.551 185.254 c 38.551 177.364 l 38.551 176.84 38.52 176.664 37.234
 176.664 c 36.789 176.664 l 36.789 176.289 l 41.152 176.289 l 41.152 176.664
 l 40.703 176.664 l 39.418 176.664 39.387 176.824 39.387 177.36 c h
39.387 185.75 m f
Q q
46.73 387.383 446.398 -345.602 re W n
q
46 387.512 448 -346 re W n
[ 1 0 0 1 0 -0.488007 ] concat
  q
Q q
46 250 446 -1 re W n
q
46 250 446 -1 re W n
  q
0 g
0.5 w
0 J
1 j
[ 1 3] 0 d
4 M 46.73 249.629 m 493.129 249.629 l S
  Q
Q
  Q
Q
Q q
0 g
0.5 w
0 J
1 j
[] 0.0 d
4 M 46.73 249.141 m 50.73 249.141 l S
493.129 249.141 m 489.129 249.141 l S
41.688 250.137 m 41.688 251.051 41.676 252.602 41.047 253.793 c 40.492 
254.84 39.609 255.211 38.836 255.211 c 38.117 255.211 37.207 254.883 36.637
 253.809 c 36.039 252.688 35.98 251.301 35.98 250.137 c 35.98 249.289 35.996
 247.992 36.457 246.856 c 37.102 245.317 38.25 245.11 38.836 245.11 c 39.523
 245.11 40.566 245.391 41.18 246.809 c 41.629 247.84 41.688 249.051 41.688
 250.137 c 38.836 245.348 m 37.879 245.348 37.312 246.168 37.102 247.305
 c 36.938 248.184 36.938 249.469 36.938 250.305 c 36.938 251.453 36.938 
252.407 37.133 253.317 c 37.414 254.582 38.25 254.973 38.836 254.973 c 39.449
 254.973 40.238 254.571 40.523 253.348 c 40.719 252.496 40.73 251.496 40.73
 250.305 c 40.73 249.332 40.73 248.137 40.555 247.258 c 40.238 245.629 39.359
 245.348 38.836 245.348 c f
Q q
46.73 387.383 446.398 -345.602 re W n
q
46 387.512 448 -346 re W n
[ 1 0 0 1 0 -0.488007 ] concat
  q
Q q
46 319 446 -1 re W n
q
46 319 446 -1 re W n
  q
0 g
0.5 w
0 J
1 j
[ 1 3] 0 d
4 M 46.73 318.75 m 493.129 318.75 l S
  Q
Q
  Q
Q
Q q
0 g
0.5 w
0 J
1 j
[] 0.0 d
4 M 46.73 318.262 m 50.73 318.262 l S
493.129 318.262 m 489.129 318.262 l S
39.387 323.989 m 39.387 324.305 39.371 324.317 39.164 324.317 c 38.582 
323.672 37.699 323.465 36.863 323.465 c 36.816 323.465 36.742 323.465 36.727
 323.438 c 36.715 323.403 36.715 323.371 36.715 323.047 c 37.176 323.047
 37.953 323.137 38.551 323.492 c 38.551 315.606 l 38.551 315.078 38.52 314.903
 37.234 314.903 c 36.789 314.903 l 36.789 314.528 l 41.152 314.528 l 41.152
 314.903 l 40.703 314.903 l 39.418 314.903 39.387 315.067 39.387 315.598
 c h
39.387 323.989 m f
Q q
46.73 387.383 446.398 -345.602 re W n
q
46 387.512 448 -346 re W n
[ 1 0 0 1 0 -0.488007 ] concat
  q
Q q
46 389 446 -2 re W n
q
46 389 446 -2 re W n
  q
0 g
0.5 w
0 J
1 j
[ 1 3] 0 d
4 M 46.73 387.871 m 493.129 387.871 l S
  Q
Q
  Q
Q
Q q
0 g
0.5 w
0 J
1 j
[] 0.0 d
4 M 46.73 387.383 m 50.73 387.383 l S
493.129 387.383 m 489.129 387.383 l S
41.645 385.957 m 41.375 385.957 l 41.227 384.899 41.105 384.719 41.047 
384.629 c 40.973 384.512 39.895 384.512 39.688 384.512 c 36.816 384.512 
l 37.355 385.094 38.402 386.153 39.672 387.379 c 40.582 388.242 41.645 389.258
 41.645 390.735 c 41.645 392.5 40.238 393.512 38.668 393.512 c 37.027 393.512
 36.023 392.063 36.023 390.723 c 36.023 390.141 36.457 390.067 36.637 390.067
 c 36.789 390.067 37.234 390.157 37.234 390.676 c 37.234 391.137 36.848 
391.27 36.637 391.27 c 36.547 391.27 36.457 391.258 36.398 391.227 c 36.684
 392.5 37.551 393.125 38.461 393.125 c 39.762 393.125 40.613 392.094 40.613
 390.735 c 40.613 389.438 39.852 388.321 39 387.348 c 36.023 383.989 l 36.023
 383.649 l 41.285 383.649 l h
41.645 385.957 m f
14.551 112.055 m 2.355 116.141 l 14.551 116.141 l 14.551 117.895 l 0 117.895
 l 0 115.324 l 12.676 111.102 l 0 106.797 l 0 104.227 l 14.551 104.227 l
 14.551 105.981 l 2.355 105.981 l 14.551 110.106 l h
14.551 112.055 m f
13.508 129.989 m 13.551 129.809 13.551 129.731 13.551 129.633 c 13.551 
129.051 13.254 128.735 12.738 128.735 c 6.621 128.735 l 4.777 128.735 3.785
 127.379 3.785 124.809 c 3.785 123.297 4.223 122.039 5 121.34 c 5.539 120.864
 6.133 120.664 7.168 120.625 c 7.168 122.301 l 5.898 122.438 5.324 123.196
 5.324 124.75 c 5.324 126.242 5.883 127.082 6.871 127.082 c 7.309 127.082
 l 8.004 127.082 8.301 126.66 8.457 125.348 c 8.754 122.996 8.836 122.637
 9.094 122 c 9.59 120.785 10.523 120.168 11.871 120.168 c 13.754 120.168
 14.945 121.481 14.945 123.594 c 14.945 124.91 14.484 125.965 13.41 127.141
 c 14.469 127.258 14.945 127.778 14.945 128.852 c 14.945 129.192 14.906 
129.449 14.762 129.989 c h
11.207 127.082 m 11.766 127.082 12.102 126.918 12.555 126.422 c 13.172 
125.746 13.488 124.926 13.488 123.953 c 13.488 122.657 12.875 121.903 11.824
 121.903 c 10.73 121.903 10.176 122.637 9.918 124.41 c 9.684 126.164 9.602
 126.52 9.348 127.082 c h
11.207 127.082 m f
4.145 138.617 m 5.66 138.617 l 4.422 137.782 3.844 136.766 3.844 135.43
 c 3.844 132.782 6.164 130.989 9.562 130.989 c 11.281 130.989 12.684 131.446
 13.688 132.301 c 14.566 133.078 15.086 134.196 15.086 135.289 c 15.086 
136.602 14.527 137.524 13.211 138.457 c 13.742 138.457 l 15.145 138.457 
15.992 138.278 16.566 137.86 c 17.172 137.422 17.531 136.567 17.531 135.547
 c 17.531 134.793 17.336 134.114 16.984 133.657 c 16.688 133.278 16.414 
133.117 15.809 133.016 c 15.809 131.324 l 17.762 131.504 18.93 133.039 18.93
 135.489 c 18.93 137.043 18.43 138.379 17.594 139.055 c 16.633 139.856 15.32
 140.153 12.871 140.153 c 4.145 140.153 l h
5.379 135.606 m 5.379 137.399 6.898 138.457 9.523 138.457 c 12.031 138.457
 13.551 137.383 13.551 135.629 c 13.551 133.813 12.004 132.719 9.465 132.719
 c 6.941 132.719 5.379 133.836 5.379 135.606 c f
4.086 142.879 m 14.547 142.879 l 14.547 144.555 l 8.777 144.555 l 6.641
 144.555 5.242 145.672 5.242 147.383 c 5.242 148.699 6.043 149.539 7.301
 149.539 c 14.547 149.539 l 14.547 151.192 l 6.641 151.192 l 4.902 151.192
 3.785 149.895 3.785 147.879 c 3.785 146.328 4.387 145.332 5.84 144.414 
c 4.086 144.414 l h
4.086 142.879 m f
4.086 155.555 m 4.086 153.899 l 14.547 153.899 l 14.547 155.555 l h
0 155.555 m 0 153.879 l 2.094 153.879 l 2.094 155.555 l h
0 155.555 m f
4.023 162.051 m 4.023 160.336 l 1.195 160.336 l 1.195 158.68 l 4.023 158.68
 l 4.023 157.27 l 5.379 157.27 l 5.379 158.68 l 13.289 158.68 l 14.348 158.68
 14.945 159.399 14.945 160.692 c 14.945 161.09 14.906 161.489 14.805 162.051
 c 13.406 162.051 l 13.469 161.828 13.488 161.571 13.488 161.254 c 13.488
 160.535 13.289 160.336 12.551 160.336 c 5.379 160.336 l 5.379 162.051 l
 h
4.023 162.051 m f
14.441 172.133 m 3.984 172.133 l 3.984 170.477 l 9.941 170.477 l 12.086
 170.477 13.488 169.36 13.488 167.625 c 13.488 166.313 12.688 165.477 11.422
 165.477 c 3.984 165.477 l 3.984 163.821 l 12.078 163.821 l 13.824 163.821
 14.945 165.117 14.945 167.149 c 14.945 168.684 14.406 169.66 13.027 170.637
 c 14.441 170.637 l h
14.441 172.133 m f
0 183.469 m 0 181.817 l 5.402 181.817 l 4.348 181.117 3.785 180 3.785 178.606
 c 3.785 175.899 5.949 174.121 9.27 174.121 c 12.785 174.121 14.945 175.856
 14.945 178.668 c 14.945 180.098 14.406 181.098 13.109 181.992 c 14.551 
181.992 l 14.551 183.469 l h
5.344 178.887 m 5.344 180.68 6.926 181.817 9.406 181.817 c 11.801 181.817
 13.387 180.66 13.387 178.903 c 13.387 177.074 11.785 175.856 9.363 175.856
 c 6.949 175.856 5.344 177.074 5.344 178.887 c f
9.762 194.907 m 8.195 194.907 7.254 194.785 6.492 194.489 c 4.809 193.809
 3.785 192.215 3.785 190.262 c 3.785 187.356 6.008 185.481 9.426 185.481
 c 12.844 185.481 14.945 187.293 14.945 190.223 c 14.945 192.614 13.574 
194.266 11.281 194.688 c 11.281 193.012 l 12.68 192.555 13.41 191.617 13.41
 190.282 c 13.41 189.227 12.922 188.328 12.031 187.774 c 11.426 187.375 
10.816 187.235 9.762 187.215 c h
8.406 187.254 m 6.539 187.391 5.324 188.571 5.324 190.242 c 5.324 191.875
 6.633 193.133 8.289 193.133 c 8.328 193.133 8.367 193.133 8.406 193.11 
c h
8.406 187.254 m f
4.086 202.676 m 14.547 202.676 l 14.547 204.348 l 9.117 204.348 l 7.617
 204.348 6.641 204.731 6.062 205.528 c 5.684 206.043 5.562 206.539 5.562
 207.696 c 3.844 207.696 l 3.809 207.418 3.785 207.278 3.785 207.059 c 3.785
 205.985 4.426 205.168 5.984 204.207 c 4.086 204.207 l h
4.086 202.676 m f
9.762 218.157 m 8.195 218.157 7.254 218.039 6.492 217.739 c 4.809 217.063
 3.785 215.469 3.785 213.516 c 3.785 210.606 6.008 208.735 9.426 208.735
 c 12.844 208.735 14.945 210.543 14.945 213.473 c 14.945 215.867 13.574 
217.52 11.281 217.938 c 11.281 216.266 l 12.68 215.805 13.41 214.871 13.41
 213.535 c 13.41 212.477 12.922 211.582 12.031 211.024 c 11.426 210.625 
10.816 210.485 9.762 210.469 c h
8.406 210.508 m 6.539 210.645 5.324 211.821 5.324 213.496 c 5.324 215.129
 6.633 216.387 8.289 216.387 c 8.328 216.387 8.367 216.387 8.406 216.364
 c h
8.406 210.508 m f
6.988 227.742 m 4.941 227.723 3.785 226.367 3.785 223.953 c 3.785 221.524
 5.039 219.953 6.961 219.953 c 8.59 219.953 9.363 220.789 9.957 223.258 
c 10.332 224.813 l 10.613 225.969 11.027 226.426 11.781 226.426 c 12.754
 226.426 13.41 225.449 13.41 223.996 c 13.41 223.098 13.152 222.344 12.715
 221.922 c 12.414 221.664 12.121 221.547 11.387 221.446 c 11.387 219.692
 l 13.797 219.77 14.945 221.125 14.945 223.856 c 14.945 226.485 13.656 228.16
 11.652 228.16 c 10.105 228.16 9.25 227.282 8.754 225.211 c 8.379 223.617
 l 8.062 222.262 7.625 221.684 6.895 221.684 c 5.941 221.684 5.324 222.543
 5.324 223.895 c 5.324 225.231 5.898 225.949 6.988 225.989 c h
6.988 227.742 m f
18.93 230.055 m 18.93 231.727 l 13.551 231.727 l 14.629 232.606 15.105 
233.578 15.105 234.938 c 15.105 237.625 12.922 239.399 9.566 239.399 c 6.035
 239.399 3.824 237.684 3.824 234.914 c 3.824 233.5 4.465 232.364 5.699 231.586
 c 4.117 231.586 l 4.117 230.055 l h
5.379 234.637 m 5.379 236.469 7.012 237.664 9.527 237.664 c 11.922 237.664
 13.551 236.449 13.551 234.637 c 13.551 232.883 11.941 231.727 9.469 231.727
 c 6.988 231.727 5.379 232.883 5.379 234.637 c f
3.785 245.477 m 3.785 242.547 5.871 240.77 9.363 240.77 c 12.859 240.77
 14.945 242.528 14.945 245.496 c 14.945 248.422 12.859 250.219 9.445 250.219
 c 5.852 250.219 3.785 248.485 3.785 245.477 c 5.324 245.496 m 5.324 247.367
 6.848 248.485 9.426 248.485 c 11.863 248.485 13.41 247.328 13.41 245.496
 c 13.41 243.641 11.883 242.504 9.363 242.504 c 6.867 242.504 5.324 243.641
 5.324 245.496 c f
4.086 252.528 m 14.547 252.528 l 14.547 254.203 l 8.777 254.203 l 6.641
 254.203 5.242 255.317 5.242 257.032 c 5.242 258.348 6.043 259.184 7.301
 259.184 c 14.547 259.184 l 14.547 260.836 l 6.641 260.836 l 4.902 260.836
 3.785 259.543 3.785 257.528 c 3.785 255.977 4.387 254.977 5.84 254.063 
c 4.086 254.063 l h
4.086 252.528 m f
6.988 270.938 m 4.941 270.918 3.785 269.567 3.785 267.153 c 3.785 264.723
 5.039 263.149 6.961 263.149 c 8.59 263.149 9.363 263.989 9.957 266.457 
c 10.332 268.008 l 10.613 269.168 11.027 269.625 11.781 269.625 c 12.754
 269.625 13.41 268.649 13.41 267.192 c 13.41 266.297 13.152 265.539 12.715
 265.121 c 12.414 264.86 12.121 264.742 11.387 264.645 c 11.387 262.891 
l 13.797 262.969 14.945 264.324 14.945 267.055 c 14.945 269.684 13.656 271.36
 11.652 271.36 c 10.105 271.36 9.25 270.481 8.754 268.407 c 8.379 266.813
 l 8.062 265.461 7.625 264.883 6.895 264.883 c 5.941 264.883 5.324 265.739
 5.324 267.094 c 5.324 268.43 5.898 269.145 6.988 269.188 c h
6.988 270.938 m f
9.762 282.395 m 8.195 282.395 7.254 282.278 6.492 281.977 c 4.809 281.301
 3.785 279.707 3.785 277.754 c 3.785 274.848 6.008 272.973 9.426 272.973
 c 12.844 272.973 14.945 274.785 14.945 277.715 c 14.945 280.106 13.574 
281.758 11.281 282.176 c 11.281 280.504 l 12.68 280.047 13.41 279.11 13.41
 277.774 c 13.41 276.719 12.922 275.821 12.031 275.262 c 11.426 274.864 
10.816 274.723 9.762 274.707 c h
8.406 274.746 m 6.539 274.883 5.324 276.059 5.324 277.735 c 5.324 279.367
 6.633 280.625 8.289 280.625 c 8.328 280.625 8.367 280.625 8.406 280.602
 c h
8.406 274.746 m f
0 293.492 m 2.613 291.5 6.25 290.246 9.383 290.246 c 12.535 290.246 16.168
 291.5 18.781 293.492 c 18.781 294.59 l 15.93 292.836 12.574 291.864 9.383
 291.864 c 6.207 291.864 2.836 292.836 0 294.59 c h
0 293.492 m f
0 305.289 m 0 303.637 l 5.402 303.637 l 4.348 302.938 3.785 301.821 3.785
 300.426 c 3.785 297.719 5.949 295.946 9.27 295.946 c 12.785 295.946 14.945
 297.68 14.945 300.489 c 14.945 301.922 14.406 302.918 13.109 303.813 c 
14.551 303.813 l 14.551 305.289 l h
5.344 300.707 m 5.344 302.5 6.926 303.637 9.406 303.637 c 11.801 303.637
 13.387 302.481 13.387 300.727 c 13.387 298.895 11.785 297.68 9.363 297.68
 c 6.949 297.68 5.344 298.895 5.344 300.707 c f
14.547 308.082 m 14.547 314.633 l 14.547 316.012 14.168 317.024 13.336 
317.805 c 12.586 318.52 11.559 318.918 10.43 318.918 c 8.688 318.918 7.645
 318.121 6.93 316.27 c 6.305 317.582 5.219 318.282 3.727 318.282 c 2.66 
318.282 1.711 317.883 1.027 317.125 c 0.324 316.367 0 315.371 0 313.977 
c 0 308.082 l h
6.332 309.934 m 1.637 309.934 l 1.637 313.52 l 1.637 314.555 1.781 315.133
 2.164 315.629 c 2.57 316.149 3.176 316.426 3.988 316.426 c 4.777 316.426
 5.402 316.149 5.809 315.629 c 6.191 315.133 6.332 314.555 6.332 313.52 
c h
12.906 309.934 m 7.969 309.934 l 7.969 314.457 l 7.969 315.352 8.188 315.949
 8.656 316.387 c 9.113 316.824 9.742 317.067 10.449 317.067 c 11.137 317.067
 11.766 316.824 12.219 316.387 c 12.691 315.949 12.906 315.352 12.906 314.457
 c h
12.906 309.934 m f
18.781 321.649 m 16.168 323.641 12.535 324.895 9.402 324.895 c 6.25 324.895
 2.613 323.641 0 321.649 c 0 320.551 l 2.855 322.305 6.207 323.282 9.402
 323.282 c 12.574 323.282 15.949 322.305 18.781 320.551 c h
18.781 321.649 m f
1 w
46.73 387.383 m 493.129 387.383 l S
493.129 41.782 m 493.129 387.383 l S
46.73 41.782 m 493.129 41.782 l S
46.73 41.782 m 46.73 387.383 l S
1 g
415.355 381.383 71.773 -88.926 re f
0 g
415.355 381.383 71.773 -88.926 re S
0 0.501961 0 rg
2 w
2 J
420.156 372.262 m 444.156 372.262 l S
432.156 367.262 m 433.48 367.262 434.754 367.789 435.691 368.727 c 436.629
 369.664 437.156 370.938 437.156 372.262 c 437.156 373.59 436.629 374.86
 435.691 375.797 c 434.754 376.735 433.48 377.262 432.156 377.262 c 430.832
 377.262 429.559 376.735 428.621 375.797 c 427.684 374.86 427.156 373.59
 427.156 372.262 c 427.156 370.938 427.684 369.664 428.621 368.727 c 429.559
 367.789 430.832 367.262 432.156 367.262 c h
432.156 367.262 m f
0 g
1 w
0 J
432.156 367.262 m 433.48 367.262 434.754 367.789 435.691 368.727 c 436.629
 369.664 437.156 370.938 437.156 372.262 c 437.156 373.59 436.629 374.86
 435.691 375.797 c 434.754 376.735 433.48 377.262 432.156 377.262 c 430.832
 377.262 429.559 376.735 428.621 375.797 c 427.684 374.86 427.156 373.59
 427.156 372.262 c 427.156 370.938 427.684 369.664 428.621 368.727 c 429.559
 367.789 430.832 367.262 432.156 367.262 c h
432.156 367.262 m S
457.668 370.094 m 457.668 368.063 l 458.719 368.063 l 458.719 370.094 l
 459.973 370.094 l 459.973 371.039 l 458.719 371.039 l 458.719 376.555 l
 457.941 376.555 l 454.09 371.207 l 454.09 370.094 l h
457.668 371.039 m 455.012 371.039 l 457.668 374.758 l h
457.668 371.039 m f
464.375 376.789 m 464.375 368.059 l 465.27 368.059 l 465.27 368.899 l 465.746
 368.168 466.383 367.824 467.254 367.824 c 468.902 367.824 469.98 369.168
 469.98 371.242 c 469.98 373.266 468.953 374.52 467.301 374.52 c 466.441
 374.52 465.832 374.196 465.363 373.489 c 465.363 376.789 l h
467.109 373.586 m 468.223 373.586 468.938 372.621 468.938 371.137 c 468.938
 369.719 468.199 368.758 467.109 368.758 c 466.059 368.758 465.363 369.707
 465.363 371.172 c 465.363 372.633 466.059 373.586 467.109 373.586 c f
472.168 374.336 m 471.176 374.336 l 471.176 368.063 l 472.168 368.063 l
 h
472.168 376.789 m 471.16 376.789 l 471.16 375.532 l 472.168 375.532 l h
472.168 376.789 m f
476.066 374.375 m 475.035 374.375 l 475.035 376.074 l 474.043 376.074 l
 474.043 374.375 l 473.195 374.375 l 473.195 373.563 l 474.043 373.563 l
 474.043 368.817 l 474.043 368.184 474.473 367.824 475.25 367.824 c 475.488
 367.824 475.73 367.848 476.066 367.907 c 476.066 368.746 l 475.934 368.711
 475.777 368.699 475.586 368.699 c 475.156 368.699 475.035 368.817 475.035
 369.262 c 475.035 373.563 l 476.066 373.563 l h
476.066 374.375 m f
481.586 372.598 m 481.574 373.824 480.762 374.52 479.316 374.52 c 477.855
 374.52 476.914 373.77 476.914 372.614 c 476.914 371.637 477.414 371.172
 478.898 370.817 c 479.828 370.59 l 480.523 370.422 480.801 370.172 480.801
 369.723 c 480.801 369.141 480.211 368.746 479.34 368.746 c 478.801 368.746
 478.348 368.899 478.098 369.16 c 477.941 369.34 477.871 369.52 477.809 
369.957 c 476.758 369.957 l 476.805 368.512 477.617 367.824 479.258 367.824
 c 480.836 367.824 481.84 368.594 481.84 369.797 c 481.84 370.727 481.312
 371.242 480.07 371.539 c 479.113 371.762 l 478.301 371.953 477.953 372.215
 477.953 372.657 c 477.953 373.227 478.469 373.598 479.281 373.598 c 480.082
 373.598 480.512 373.25 480.535 372.598 c h
481.586 372.598 m f
0 0 1 rg
2 w
2 J
420.156 355.199 m 444.156 355.199 l S
432.156 360.199 m 427.156 350.199 l 437.156 350.199 l h
432.156 360.199 m f
0 g
1 w
0 J
0 j
432.156 360.199 m 427.156 350.199 l 437.156 350.199 l h
432.156 360.199 m S
459.445 359.489 m 455.07 359.489 l 454.438 354.895 l 455.406 354.895 l 
455.898 355.481 456.301 355.684 456.961 355.684 c 458.098 355.684 458.812
 354.907 458.812 353.653 c 458.812 352.434 458.109 351.696 456.961 351.696
 c 456.039 351.696 455.48 352.16 455.227 353.114 c 454.176 353.114 l 454.32
 352.422 454.438 352.086 454.688 351.774 c 455.168 351.129 456.027 350.758
 456.984 350.758 c 458.695 350.758 459.891 352 459.891 353.797 c 459.891
 355.469 458.777 356.617 457.152 356.617 c 456.555 356.617 456.078 356.461
 455.586 356.102 c 455.918 358.446 l 459.445 358.446 l h
459.445 359.489 m f
464.375 359.727 m 464.375 350.996 l 465.27 350.996 l 465.27 351.836 l 465.746
 351.106 466.383 350.758 467.254 350.758 c 468.902 350.758 469.98 352.106
 469.98 354.18 c 469.98 356.203 468.953 357.453 467.301 357.453 c 466.441
 357.453 465.832 357.129 465.363 356.426 c 465.363 359.727 l h
467.109 356.52 m 468.223 356.52 468.938 355.555 468.938 354.071 c 468.938
 352.657 468.199 351.696 467.109 351.696 c 466.059 351.696 465.363 352.645
 465.363 354.106 c 465.363 355.571 466.059 356.52 467.109 356.52 c f
472.168 357.274 m 471.176 357.274 l 471.176 351 l 472.168 351 l h
472.168 359.727 m 471.16 359.727 l 471.16 358.469 l 472.168 358.469 l h
472.168 359.727 m f
476.066 357.313 m 475.035 357.313 l 475.035 359.008 l 474.043 359.008 l
 474.043 357.313 l 473.195 357.313 l 473.195 356.496 l 474.043 356.496 l
 474.043 351.754 l 474.043 351.117 474.473 350.758 475.25 350.758 c 475.488
 350.758 475.73 350.782 476.066 350.844 c 476.066 351.684 l 475.934 351.645
 475.777 351.633 475.586 351.633 c 475.156 351.633 475.035 351.754 475.035
 352.196 c 475.035 356.496 l 476.066 356.496 l h
476.066 357.313 m f
481.586 355.532 m 481.574 356.762 480.762 357.453 479.316 357.453 c 477.855
 357.453 476.914 356.703 476.914 355.551 c 476.914 354.571 477.414 354.11
 478.898 353.754 c 479.828 353.528 l 480.523 353.36 480.801 353.11 480.801
 352.657 c 480.801 352.074 480.211 351.68 479.34 351.68 c 478.801 351.68
 478.348 351.836 478.098 352.098 c 477.941 352.278 477.871 352.453 477.809
 352.895 c 476.758 352.895 l 476.805 351.449 477.617 350.758 479.258 350.758
 c 480.836 350.758 481.84 351.532 481.84 352.735 c 481.84 353.664 481.312
 354.176 480.07 354.473 c 479.113 354.699 l 478.301 354.887 477.953 355.153
 477.953 355.59 c 477.953 356.16 478.469 356.532 479.281 356.532 c 480.082
 356.532 480.512 356.188 480.535 355.532 c h
481.586 355.532 m f
0.74902 0 0.74902 rg
2 w
2 J
1 j
420.156 338.133 m 444.156 338.133 l S
432.156 343.133 m 431.035 339.68 l 427.402 339.68 l 430.34 337.543 l 429.219
 334.09 l 432.156 336.223 l 435.094 334.09 l 433.973 337.543 l 436.91 339.68
 l 433.277 339.68 l h
432.156 343.133 m f
0 g
1 w
0 J
2 j
432.156 343.133 m 431.035 339.68 l 427.402 339.68 l 430.34 337.543 l 429.219
 334.09 l 432.156 336.223 l 435.094 334.09 l 433.973 337.543 l 436.91 339.68
 l 433.277 339.68 l h
432.156 343.133 m S
459.711 340.25 m 459.508 341.614 458.598 342.422 457.309 342.422 c 456.375
 342.422 455.539 341.969 455.035 341.219 c 454.508 340.399 454.27 339.36
 454.27 337.821 c 454.27 336.403 454.484 335.496 454.988 334.746 c 455.441
 334.063 456.184 333.696 457.113 333.696 c 458.73 333.696 459.891 334.903
 459.891 336.578 c 459.891 338.172 458.812 339.293 457.293 339.293 c 456.457
 339.293 455.801 338.969 455.348 338.348 c 455.359 340.367 456.027 341.489
 457.234 341.489 c 457.977 341.489 458.488 341.039 458.656 340.25 c h
457.164 338.36 m 458.18 338.36 458.812 337.645 458.812 336.492 c 458.812
 335.414 458.098 334.629 457.129 334.629 c 456.148 334.629 455.406 335.453
 455.406 336.555 c 455.406 337.621 456.125 338.36 457.164 338.36 c f
464.375 342.66 m 464.375 333.93 l 465.27 333.93 l 465.27 334.77 l 465.746
 334.039 466.383 333.696 467.254 333.696 c 468.902 333.696 469.98 335.039
 469.98 337.114 c 469.98 339.137 468.953 340.391 467.301 340.391 c 466.441
 340.391 465.832 340.067 465.363 339.36 c 465.363 342.66 l h
467.109 339.457 m 468.223 339.457 468.938 338.492 468.938 337.008 c 468.938
 335.59 468.199 334.629 467.109 334.629 c 466.059 334.629 465.363 335.578
 465.363 337.043 c 465.363 338.504 466.059 339.457 467.109 339.457 c f
472.168 340.207 m 471.176 340.207 l 471.176 333.934 l 472.168 333.934 l
 h
472.168 342.66 m 471.16 342.66 l 471.16 341.407 l 472.168 341.407 l h
472.168 342.66 m f
476.066 340.25 m 475.035 340.25 l 475.035 341.946 l 474.043 341.946 l 474.043
 340.25 l 473.195 340.25 l 473.195 339.434 l 474.043 339.434 l 474.043 334.688
 l 474.043 334.055 474.473 333.696 475.25 333.696 c 475.488 333.696 475.73
 333.719 476.066 333.778 c 476.066 334.617 l 475.934 334.582 475.777 334.571
 475.586 334.571 c 475.156 334.571 475.035 334.688 475.035 335.133 c 475.035
 339.434 l 476.066 339.434 l h
476.066 340.25 m f
481.586 338.469 m 481.574 339.696 480.762 340.391 479.316 340.391 c 477.855
 340.391 476.914 339.641 476.914 338.485 c 476.914 337.508 477.414 337.043
 478.898 336.688 c 479.828 336.461 l 480.523 336.293 480.801 336.047 480.801
 335.594 c 480.801 335.012 480.211 334.617 479.34 334.617 c 478.801 334.617
 478.348 334.77 478.098 335.032 c 477.941 335.211 477.871 335.391 477.809
 335.828 c 476.758 335.828 l 476.805 334.383 477.617 333.696 479.258 333.696
 c 480.836 333.696 481.84 334.465 481.84 335.668 c 481.84 336.598 481.312
 337.114 480.07 337.41 c 479.113 337.633 l 478.301 337.824 477.953 338.086
 477.953 338.528 c 477.953 339.098 478.469 339.469 479.281 339.469 c 480.082
 339.469 480.512 339.121 480.535 338.469 c h
481.586 338.469 m f
1 0 0 rg
2 w
2 J
1 j
420.156 321.071 m 444.156 321.071 l S
427.156 321.071 m 437.156 321.071 l 432.156 316.071 m 432.156 326.071 l
 f
0 g
1 w
0 J
427.156 321.071 m 437.156 321.071 l 432.156 316.071 m 432.156 326.071 l
 S
459.973 325.324 m 454.305 325.324 l 454.305 324.282 l 458.887 324.282 l
 456.863 321.387 456.039 319.61 455.406 316.809 c 456.531 316.809 l 456.996
 319.535 458.059 321.879 459.973 324.438 c h
459.973 325.324 m f
464.375 325.598 m 464.375 316.867 l 465.27 316.867 l 465.27 317.707 l 465.746
 316.977 466.383 316.629 467.254 316.629 c 468.902 316.629 469.98 317.977
 469.98 320.051 c 469.98 322.074 468.953 323.324 467.301 323.324 c 466.441
 323.324 465.832 323 465.363 322.297 c 465.363 325.598 l h
467.109 322.391 m 468.223 322.391 468.938 321.43 468.938 319.942 c 468.938
 318.528 468.199 317.567 467.109 317.567 c 466.059 317.567 465.363 318.516
 465.363 319.977 c 465.363 321.442 466.059 322.391 467.109 322.391 c f
472.168 323.145 m 471.176 323.145 l 471.176 316.871 l 472.168 316.871 l
 h
472.168 325.598 m 471.16 325.598 l 471.16 324.34 l 472.168 324.34 l h
472.168 325.598 m f
476.066 323.184 m 475.035 323.184 l 475.035 324.879 l 474.043 324.879 l
 474.043 323.184 l 473.195 323.184 l 473.195 322.371 l 474.043 322.371 l
 474.043 317.625 l 474.043 316.989 474.473 316.629 475.25 316.629 c 475.488
 316.629 475.73 316.653 476.066 316.715 c 476.066 317.555 l 475.934 317.516
 475.777 317.504 475.586 317.504 c 475.156 317.504 475.035 317.625 475.035
 318.067 c 475.035 322.371 l 476.066 322.371 l h
476.066 323.184 m f
481.586 321.403 m 481.574 322.633 480.762 323.324 479.316 323.324 c 477.855
 323.324 476.914 322.574 476.914 321.422 c 476.914 320.446 477.414 319.981
 478.898 319.625 c 479.828 319.399 l 480.523 319.231 480.801 318.981 480.801
 318.528 c 480.801 317.946 480.211 317.551 479.34 317.551 c 478.801 317.551
 478.348 317.707 478.098 317.969 c 477.941 318.149 477.871 318.324 477.809
 318.766 c 476.758 318.766 l 476.805 317.321 477.617 316.629 479.258 316.629
 c 480.836 316.629 481.84 317.403 481.84 318.606 c 481.84 319.535 481.312
 320.047 480.07 320.344 c 479.113 320.571 l 478.301 320.758 477.953 321.024
 477.953 321.461 c 477.953 322.032 478.469 322.403 479.281 322.403 c 480.082
 322.403 480.512 322.059 480.535 321.403 c h
481.586 321.403 m f
0.74902 0.74902 0 rg
2 w
2 J
420.156 304.008 m 444.156 304.008 l S
432.156 309.004 m 427.402 305.551 l 429.219 299.961 l 435.094 299.961 l
 436.91 305.551 l h
432.156 309.004 m f
0 g
1 w
0 J
0 j
432.156 309.004 m 427.402 305.551 l 429.219 299.961 l 435.094 299.961 l
 436.91 305.551 l h
432.156 309.004 m S
458.43 304.285 m 459.305 304.813 459.59 305.242 459.59 306.039 c 459.59
 307.364 458.551 308.293 457.043 308.293 c 455.551 308.293 454.496 307.364
 454.496 306.039 c 454.496 305.254 454.785 304.824 455.645 304.285 c 454.676
 303.821 454.199 303.121 454.199 302.188 c 454.199 300.637 455.371 299.567
 457.043 299.567 c 458.719 299.567 459.891 300.637 459.891 302.18 c 459.891
 303.121 459.41 303.821 458.43 304.285 c 457.043 307.36 m 457.941 307.36
 458.516 306.836 458.516 306.016 c 458.516 305.231 457.93 304.707 457.043
 304.707 c 456.16 304.707 455.574 305.231 455.574 306.028 c 455.574 306.836
 456.16 307.36 457.043 307.36 c 457.043 303.821 m 458.098 303.821 458.812
 303.153 458.812 302.164 c 458.812 301.168 458.098 300.5 457.02 300.5 c 
455.992 300.5 455.273 301.18 455.273 302.164 c 455.273 303.153 455.992 303.821
 457.043 303.821 c f
464.375 308.532 m 464.375 299.801 l 465.27 299.801 l 465.27 300.641 l 465.746
 299.91 466.383 299.567 467.254 299.567 c 468.902 299.567 469.98 300.91 
469.98 302.985 c 469.98 305.008 468.953 306.262 467.301 306.262 c 466.441
 306.262 465.832 305.938 465.363 305.231 c 465.363 308.532 l h
467.109 305.328 m 468.223 305.328 468.938 304.364 468.938 302.879 c 468.938
 301.461 468.199 300.5 467.109 300.5 c 466.059 300.5 465.363 301.453 465.363
 302.914 c 465.363 304.375 466.059 305.328 467.109 305.328 c f
472.168 306.082 m 471.176 306.082 l 471.176 299.805 l 472.168 299.805 l
 h
472.168 308.532 m 471.16 308.532 l 471.16 307.278 l 472.168 307.278 l h
472.168 308.532 m f
476.066 306.121 m 475.035 306.121 l 475.035 307.817 l 474.043 307.817 l
 474.043 306.121 l 473.195 306.121 l 473.195 305.305 l 474.043 305.305 l
 474.043 300.559 l 474.043 299.926 474.473 299.567 475.25 299.567 c 475.488
 299.567 475.73 299.59 476.066 299.653 c 476.066 300.489 l 475.934 300.453
 475.777 300.442 475.586 300.442 c 475.156 300.442 475.035 300.559 475.035
 301.004 c 475.035 305.305 l 476.066 305.305 l h
476.066 306.121 m f
481.586 304.34 m 481.574 305.567 480.762 306.262 479.316 306.262 c 477.855
 306.262 476.914 305.512 476.914 304.356 c 476.914 303.379 477.414 302.914
 478.898 302.559 c 479.828 302.332 l 480.523 302.164 480.801 301.918 480.801
 301.465 c 480.801 300.883 480.211 300.489 479.34 300.489 c 478.801 300.489
 478.348 300.641 478.098 300.903 c 477.941 301.082 477.871 301.262 477.809
 301.699 c 476.758 301.699 l 476.805 300.254 477.617 299.567 479.258 299.567
 c 480.836 299.567 481.84 300.34 481.84 301.539 c 481.84 302.469 481.312
 302.985 480.07 303.282 c 479.113 303.508 l 478.301 303.696 477.953 303.957
 477.953 304.399 c 477.953 304.969 478.469 305.34 479.281 305.34 c 480.082
 305.34 480.512 304.992 480.535 304.34 c h
481.586 304.34 m f
Q Q
showpage
%%Trailer
end restore
%%EOF
