%!PS-Adobe-3.0 EPSF-3.0
%%Creator: cairo 1.13.1 (http://cairographics.org)
%%CreationDate: Wed Aug 10 16:10:12 2016
%%Pages: 1
%%DocumentData: Clean7Bit
%%LanguageLevel: 2
%%BoundingBox: 0 -1 501 394
%%EndComments
%%BeginProlog
save
50 dict begin
/q { gsave } bind def
/Q { grestore } bind def
/cm { 6 array astore concat } bind def
/w { setlinewidth } bind def
/J { setlinecap } bind def
/j { setlinejoin } bind def
/M { setmiterlimit } bind def
/d { setdash } bind def
/m { moveto } bind def
/l { lineto } bind def
/c { curveto } bind def
/h { closepath } bind def
/re { exch dup neg 3 1 roll 5 3 roll moveto 0 rlineto
      0 exch rlineto 0 rlineto closepath } bind def
/S { stroke } bind def
/f { fill } bind def
/f* { eofill } bind def
/n { newpath } bind def
/W { clip } bind def
/W* { eoclip } bind def
/BT { } bind def
/ET { } bind def
/pdfmark where { pop globaldict /?pdfmark /exec load put }
    { globaldict begin /?pdfmark /pop load def /pdfmark
    /cleartomark load def end } ifelse
/BDC { mark 3 1 roll /BDC pdfmark } bind def
/EMC { mark /EMC pdfmark } bind def
/cairo_store_point { /cairo_point_y exch def /cairo_point_x exch def } def
/Tj { show currentpoint cairo_store_point } bind def
/TJ {
  {
    dup
    type /stringtype eq
    { show } { -0.001 mul 0 cairo_font_matrix dtransform rmoveto } ifelse
  } forall
  currentpoint cairo_store_point
} bind def
/cairo_selectfont { cairo_font_matrix aload pop pop pop 0 0 6 array astore
    cairo_font exch selectfont cairo_point_x cairo_point_y moveto } bind def
/Tf { pop /cairo_font exch def /cairo_font_matrix where
      { pop cairo_selectfont } if } bind def
/Td { matrix translate cairo_font_matrix matrix concatmatrix dup
      /cairo_font_matrix exch def dup 4 get exch 5 get cairo_store_point
      /cairo_font where { pop cairo_selectfont } if } bind def
/Tm { 2 copy 8 2 roll 6 array astore /cairo_font_matrix exch def
      cairo_store_point /cairo_font where { pop cairo_selectfont } if } bind def
/g { setgray } bind def
/rg { setrgbcolor } bind def
/d1 { setcachedevice } bind def
%%EndProlog
%%BeginSetup
%%EndSetup
%%Page: 1 1
%%BeginPageSetup
%%PageBoundingBox: 0 -1 501 394
%%EndPageSetup
q 0 -1 501 395 rectclip q
1 g
46.73 387.383 446.398 -345.602 re f
Q q
46.73 387.383 446.398 -345.602 re W n
q
46 387.512 448 -346 re W n
[ 1 0 0 1 0 -0.488007 ] concat
  q
Q q
45 251 449 -106 re W n
q
45 251 449 -106 re W n
  q
0 0 1 rg
2 w
2 J
1 j
[] 0.0 d
4 M 46.73 249.629 m 48.516 249.484 l 50.301 249.051 l 52.086 248.328 l 53.871
 247.32 l 55.656 246.035 l 57.441 244.469 l 59.227 242.633 l 61.461 239.969
 l 63.691 236.91 l 65.926 233.473 l 68.602 228.887 l 71.281 223.84 l 74.406
 217.438 l 77.977 209.57 l 82.441 199.16 l 92.707 174.957 l 95.832 168.191
 l 98.512 162.859 l 100.742 158.84 l 102.977 155.273 l 104.762 152.793 l
 106.547 150.68 l 108.332 148.957 l 109.672 147.93 l 111.012 147.137 l 112.352
 146.586 l 113.688 146.297 l 115.027 146.285 l 116.367 146.559 l 117.707
 147.09 l 119.047 147.844 l 120.832 149.141 l 122.617 150.727 l 124.402 
152.602 l 126.188 154.809 l 127.973 157.355 l 130.207 160.906 l 133.332 
166.352 l 136.902 173.047 l 150.293 198.676 l 153.418 203.953 l 156.098 
208.078 l 158.773 211.781 l 161.008 214.516 l 163.238 216.902 l 165.473 
218.93 l 167.258 220.281 l 169.043 221.391 l 170.828 222.25 l 172.613 222.863
 l 174.398 223.23 l 176.184 223.348 l 177.973 223.223 l 179.754 222.859 
l 181.543 222.262 l 183.328 221.441 l 185.113 220.398 l 187.344 218.809 
l 189.578 216.922 l 191.809 214.758 l 194.488 211.844 l 197.613 208.078 
l 201.184 203.418 l 207.434 194.816 l 212.789 187.562 l 216.359 183.086 
l 219.039 180.035 l 221.719 177.332 l 223.949 175.383 l 226.184 173.754 
l 227.965 172.695 l 229.754 171.859 l 231.539 171.25 l 233.324 170.855 l
 235.109 170.676 l 236.895 170.711 l 238.68 170.953 l 240.465 171.395 l 
242.699 172.203 l 244.93 173.281 l 247.164 174.598 l 249.84 176.469 l 252.52
 178.652 l 256.984 182.707 l 260.555 186.02 l 265.465 191.969 l 268.59 195.328
 l 271.715 198.387 l 274.395 200.742 l 277.07 202.816 l 279.75 204.578 l
 282.43 206.023 l 286.891 208.094 l 289.125 208.926 l 291.355 209.5 l 293.586
 209.809 l 295.82 209.867 l 298.051 209.68 l 300.285 209.262 l 302.516 208.633
 l 305.195 207.617 l 307.871 206.352 l 310.996 204.594 l 314.121 202.59 
l 318.141 199.734 l 324.836 194.629 l 330.641 190.312 l 334.211 187.914 
l 337.336 186.07 l 340.016 184.73 l 342.691 183.645 l 344.922 182.953 l 
347.156 182.477 l 349.387 182.211 l 351.621 182.148 l 354.297 182.316 l 
356.977 182.719 l 359.656 183.34 l 362.781 184.312 l 365.906 185.539 l 369.477
 187.215 l 373.492 189.375 l 379.742 193.055 l 387.332 197.453 l 391.797
 199.805 l 394.922 201.23 l 398.047 202.402 l 400.723 203.18 l 403.402 203.734
 l 406.082 204.066 l 408.758 204.172 l 411.438 204.055 l 414.117 203.73 
l 417.242 203.109 l 420.367 202.25 l 423.938 201.016 l 427.953 199.371 l
 432.863 197.098 l 440.453 193.285 l 443.133 192.059 l 445.812 191.133 l
 450.723 189.762 l 454.738 188.832 l 458.309 188.219 l 461.879 187.832 l
 465.004 187.695 l 468.129 187.766 l 471.254 188.043 l 474.828 188.594 l
 478.398 189.363 l 482.414 190.457 l 488.664 192.43 l 492.684 193.738 l S
  Q
Q
Q q
40 256 415 -91 re W n
q
40 256 415 -91 re W n
  q
0 0 1 rg
46.73 254.629 m 41.73 244.629 l 51.73 244.629 l h
46.73 254.629 m f
0 g
1 w
0 J
0 j
[] 0.0 d
4 M 46.73 254.629 m 41.73 244.629 l 51.73 244.629 l h
46.73 254.629 m S
0 0 1 rg
91.367 182.996 m 86.367 172.996 l 96.367 172.996 l h
91.367 182.996 m f
0 g
91.367 182.996 m 86.367 172.996 l 96.367 172.996 l h
91.367 182.996 m S
0 0 1 rg
136.008 176.336 m 131.008 166.336 l 141.008 166.336 l h
136.008 176.336 m f
0 g
136.008 176.336 m 131.008 166.336 l 141.008 166.336 l h
136.008 176.336 m S
0 0 1 rg
180.648 227.59 m 175.648 217.59 l 185.648 217.59 l h
180.648 227.59 m f
0 g
180.648 227.59 m 175.648 217.59 l 185.648 217.59 l h
180.648 227.59 m S
0 0 1 rg
225.289 179.367 m 220.289 169.367 l 230.289 169.367 l h
225.289 179.367 m f
0 g
225.289 179.367 m 220.289 169.367 l 230.289 169.367 l h
225.289 179.367 m S
0 0 1 rg
269.93 201.68 m 264.93 191.68 l 274.93 191.68 l h
269.93 201.68 m f
0 g
269.93 201.68 m 264.93 191.68 l 274.93 191.68 l h
269.93 201.68 m S
0 0 1 rg
314.57 207.285 m 309.57 197.285 l 319.57 197.285 l h
314.57 207.285 m f
0 g
314.57 207.285 m 309.57 197.285 l 319.57 197.285 l h
314.57 207.285 m S
0 0 1 rg
359.207 188.223 m 354.207 178.223 l 364.207 178.223 l h
359.207 188.223 m f
0 g
359.207 188.223 m 354.207 178.223 l 364.207 178.223 l h
359.207 188.223 m S
0 0 1 rg
403.848 208.809 m 398.848 198.809 l 408.848 198.809 l h
403.848 208.809 m f
0 g
403.848 208.809 m 398.848 198.809 l 408.848 198.809 l h
403.848 208.809 m S
0 0 1 rg
448.488 195.355 m 443.488 185.355 l 453.488 185.355 l h
448.488 195.355 m f
0 g
448.488 195.355 m 443.488 185.355 l 453.488 185.355 l h
448.488 195.355 m S
  Q
Q
Q q
45 251 449 -107 re W n
q
45 251 449 -107 re W n
  q
0 0.501961 0 rg
2 w
2 J
1 j
[] 0.0 d
4 M 46.73 249.629 m 48.516 249.484 l 50.301 249.047 l 52.086 248.32 l 53.871
 247.309 l 55.656 246.016 l 57.441 244.441 l 59.227 242.598 l 61.461 239.922
 l 63.691 236.848 l 65.926 233.395 l 68.602 228.785 l 71.281 223.715 l 74.406
 217.281 l 77.977 209.371 l 82.441 198.91 l 92.707 174.594 l 95.832 167.797
 l 98.512 162.441 l 100.742 158.398 l 102.977 154.801 l 104.762 152.285 
l 106.547 150.117 l 108.332 148.324 l 109.672 147.238 l 111.012 146.383 
l 112.352 145.762 l 113.688 145.379 l 115.027 145.23 l 116.367 145.328 l
 117.707 145.664 l 119.047 146.246 l 120.387 147.07 l 122.172 148.504 l 
123.957 150.266 l 125.742 152.309 l 127.973 155.223 l 130.207 158.523 l 
132.883 162.922 l 136.453 169.266 l 151.188 195.98 l 153.863 200.336 l 156.543
 204.25 l 158.773 207.148 l 161.453 210.25 l 164.578 213.535 l 166.812 215.57
 l 168.598 216.938 l 170.383 218.059 l 172.168 218.918 l 173.953 219.523
 l 175.738 219.871 l 177.523 219.969 l 179.309 219.82 l 181.094 219.434 
l 182.879 218.82 l 184.668 217.984 l 186.453 216.941 l 188.684 215.355 l
 190.914 213.48 l 193.148 211.336 l 195.828 208.445 l 198.949 204.715 l 
202.523 200.09 l 208.773 191.539 l 213.234 185.609 l 215.914 182.461 l 218.594
 179.711 l 221.27 177.312 l 223.504 175.594 l 225.734 174.148 l 227.965 
172.988 l 230.199 172.125 l 231.984 171.645 l 233.77 171.359 l 235.555 171.27
 l 237.34 171.367 l 239.125 171.652 l 240.914 172.125 l 242.699 172.793 
l 244.93 173.887 l 247.164 175.262 l 249.395 176.883 l 252.074 179.09 l 
255.645 182.34 l 261 187.543 l 272.605 198.957 l 275.73 201.637 l 278.855
 204.008 l 281.535 205.758 l 284.215 207.219 l 286.445 208.203 l 288.68 
208.965 l 290.91 209.496 l 293.141 209.789 l 295.375 209.844 l 297.605 209.668
 l 299.836 209.258 l 302.07 208.629 l 304.301 207.785 l 306.98 206.516 l
 309.66 204.992 l 312.781 202.945 l 316.355 200.332 l 322.156 195.758 l 
328.406 190.91 l 331.98 188.406 l 335.102 186.469 l 338.227 184.812 l 340.906
 183.637 l 343.586 182.695 l 346.262 181.996 l 348.941 181.539 l 351.621
 181.312 l 354.297 181.312 l 356.977 181.527 l 359.656 181.961 l 362.332
 182.641 l 365.012 183.562 l 368.582 185.055 l 373.492 187.379 l 378.852
 190.16 l 386.438 194.137 l 390.012 195.723 l 393.137 196.852 l 395.812 
197.582 l 398.492 198.066 l 403.848 198.648 l 406.973 198.949 l 409.652 
198.996 l 412.777 198.809 l 415.902 198.379 l 419.027 197.703 l 422.152 
196.789 l 425.723 195.496 l 430.188 193.605 l 435.098 191.285 l 438.223 
189.598 l 440.898 187.953 l 443.578 187.719 l 452.953 186.215 l 456.523 
185.984 l 460.094 185.992 l 463.668 186.242 l 467.238 186.719 l 471.703 
187.559 l 477.504 188.906 l 492.684 192.555 l S
  Q
Q
Q q
41 256 413 -94 re W n
q
41 256 413 -94 re W n
  q
0 0.501961 0 rg
46.73 244.629 m 48.055 244.629 49.328 245.156 50.266 246.094 c 51.203 247.031
 51.73 248.305 51.73 249.629 c 51.73 250.957 51.203 252.227 50.266 253.164
 c 49.328 254.102 48.055 254.629 46.73 254.629 c 45.402 254.629 44.133 254.102
 43.191 253.164 c 42.254 252.227 41.73 250.957 41.73 249.629 c 41.73 248.305
 42.254 247.031 43.191 246.094 c 44.133 245.156 45.402 244.629 46.73 244.629
 c h
46.73 244.629 m f
0 g
1 w
0 J
1 j
[] 0.0 d
4 M 46.73 244.629 m 48.055 244.629 49.328 245.156 50.266 246.094 c 51.203 247.031
 51.73 248.305 51.73 249.629 c 51.73 250.957 51.203 252.227 50.266 253.164
 c 49.328 254.102 48.055 254.629 46.73 254.629 c 45.402 254.629 44.133 254.102
 43.191 253.164 c 42.254 252.227 41.73 250.957 41.73 249.629 c 41.73 248.305
 42.254 247.031 43.191 246.094 c 44.133 245.156 45.402 244.629 46.73 244.629
 c h
46.73 244.629 m S
0 0.501961 0 rg
91.367 172.645 m 92.695 172.645 93.965 173.168 94.906 174.105 c 95.844 
175.043 96.367 176.316 96.367 177.645 c 96.367 178.969 95.844 180.242 94.906
 181.18 c 93.965 182.117 92.695 182.645 91.367 182.645 c 90.043 182.645 
88.77 182.117 87.832 181.18 c 86.895 180.242 86.367 178.969 86.367 177.645
 c 86.367 176.316 86.895 175.043 87.832 174.105 c 88.77 173.168 90.043 172.645
 91.367 172.645 c h
91.367 172.645 m f
0 g
91.367 172.645 m 92.695 172.645 93.965 173.168 94.906 174.105 c 95.844 
175.043 96.367 176.316 96.367 177.645 c 96.367 178.969 95.844 180.242 94.906
 181.18 c 93.965 182.117 92.695 182.645 91.367 182.645 c 90.043 182.645 
88.77 182.117 87.832 181.18 c 86.895 180.242 86.367 178.969 86.367 177.645
 c 86.367 176.316 86.895 175.043 87.832 174.105 c 88.77 173.168 90.043 172.645
 91.367 172.645 c h
91.367 172.645 m S
0 0.501961 0 rg
136.008 163.453 m 137.336 163.453 138.605 163.98 139.543 164.918 c 140.48
 165.855 141.008 167.129 141.008 168.453 c 141.008 169.781 140.48 171.051
 139.543 171.988 c 138.605 172.926 137.336 173.453 136.008 173.453 c 134.684
 173.453 133.41 172.926 132.473 171.988 c 131.535 171.051 131.008 169.781
 131.008 168.453 c 131.008 167.129 131.535 165.855 132.473 164.918 c 133.41
 163.98 134.684 163.453 136.008 163.453 c h
136.008 163.453 m f
0 g
136.008 163.453 m 137.336 163.453 138.605 163.98 139.543 164.918 c 140.48
 165.855 141.008 167.129 141.008 168.453 c 141.008 169.781 140.48 171.051
 139.543 171.988 c 138.605 172.926 137.336 173.453 136.008 173.453 c 134.684
 173.453 133.41 172.926 132.473 171.988 c 131.535 171.051 131.008 169.781
 131.008 168.453 c 131.008 167.129 131.535 165.855 132.473 164.918 c 133.41
 163.98 134.684 163.453 136.008 163.453 c h
136.008 163.453 m S
0 0.501961 0 rg
180.648 214.551 m 181.977 214.551 183.246 215.078 184.184 216.016 c 185.121
 216.953 185.648 218.227 185.648 219.551 c 185.648 220.879 185.121 222.148
 184.184 223.086 c 183.246 224.023 181.977 224.551 180.648 224.551 c 179.324
 224.551 178.051 224.023 177.113 223.086 c 176.176 222.148 175.648 220.879
 175.648 219.551 c 175.648 218.227 176.176 216.953 177.113 216.016 c 178.051
 215.078 179.324 214.551 180.648 214.551 c h
180.648 214.551 m f
0 g
180.648 214.551 m 181.977 214.551 183.246 215.078 184.184 216.016 c 185.121
 216.953 185.648 218.227 185.648 219.551 c 185.648 220.879 185.121 222.148
 184.184 223.086 c 183.246 224.023 181.977 224.551 180.648 224.551 c 179.324
 224.551 178.051 224.023 177.113 223.086 c 176.176 222.148 175.648 220.879
 175.648 219.551 c 175.648 218.227 176.176 216.953 177.113 216.016 c 178.051
 215.078 179.324 214.551 180.648 214.551 c h
180.648 214.551 m S
0 0.501961 0 rg
225.289 169.418 m 226.613 169.418 227.887 169.941 228.824 170.879 c 229.762
 171.816 230.289 173.09 230.289 174.418 c 230.289 175.742 229.762 177.016
 228.824 177.953 c 227.887 178.891 226.613 179.418 225.289 179.418 c 223.961
 179.418 222.691 178.891 221.754 177.953 c 220.816 177.016 220.289 175.742
 220.289 174.418 c 220.289 173.09 220.816 171.816 221.754 170.879 c 222.691
 169.941 223.961 169.418 225.289 169.418 c h
225.289 169.418 m f
0 g
225.289 169.418 m 226.613 169.418 227.887 169.941 228.824 170.879 c 229.762
 171.816 230.289 173.09 230.289 174.418 c 230.289 175.742 229.762 177.016
 228.824 177.953 c 227.887 178.891 226.613 179.418 225.289 179.418 c 223.961
 179.418 222.691 178.891 221.754 177.953 c 220.816 177.016 220.289 175.742
 220.289 174.418 c 220.289 173.09 220.816 171.816 221.754 170.879 c 222.691
 169.941 223.961 169.418 225.289 169.418 c h
225.289 169.418 m S
0 0.501961 0 rg
269.93 191.453 m 271.254 191.453 272.527 191.98 273.465 192.918 c 274.402
 193.855 274.93 195.129 274.93 196.453 c 274.93 197.781 274.402 199.051 
273.465 199.988 c 272.527 200.926 271.254 201.453 269.93 201.453 c 268.602
 201.453 267.332 200.926 266.395 199.988 c 265.457 199.051 264.93 197.781
 264.93 196.453 c 264.93 195.129 265.457 193.855 266.395 192.918 c 267.332
 191.98 268.602 191.453 269.93 191.453 c h
269.93 191.453 m f
0 g
269.93 191.453 m 271.254 191.453 272.527 191.98 273.465 192.918 c 274.402
 193.855 274.93 195.129 274.93 196.453 c 274.93 197.781 274.402 199.051 
273.465 199.988 c 272.527 200.926 271.254 201.453 269.93 201.453 c 268.602
 201.453 267.332 200.926 266.395 199.988 c 265.457 199.051 264.93 197.781
 264.93 196.453 c 264.93 195.129 265.457 193.855 266.395 192.918 c 267.332
 191.98 268.602 191.453 269.93 191.453 c h
269.93 191.453 m S
0 0.501961 0 rg
314.57 196.668 m 315.895 196.668 317.168 197.195 318.105 198.133 c 319.043
 199.07 319.57 200.344 319.57 201.668 c 319.57 202.992 319.043 204.266 318.105
 205.203 c 317.168 206.141 315.895 206.668 314.57 206.668 c 313.242 206.668
 311.973 206.141 311.035 205.203 c 310.094 204.266 309.57 202.992 309.57
 201.668 c 309.57 200.344 310.094 199.07 311.035 198.133 c 311.973 197.195
 313.242 196.668 314.57 196.668 c h
314.57 196.668 m f
0 g
314.57 196.668 m 315.895 196.668 317.168 197.195 318.105 198.133 c 319.043
 199.07 319.57 200.344 319.57 201.668 c 319.57 202.992 319.043 204.266 318.105
 205.203 c 317.168 206.141 315.895 206.668 314.57 206.668 c 313.242 206.668
 311.973 206.141 311.035 205.203 c 310.094 204.266 309.57 202.992 309.57
 201.668 c 309.57 200.344 310.094 199.07 311.035 198.133 c 311.973 197.195
 313.242 196.668 314.57 196.668 c h
314.57 196.668 m S
0 0.501961 0 rg
359.207 176.875 m 360.535 176.875 361.809 177.402 362.746 178.34 c 363.684
 179.277 364.207 180.547 364.207 181.875 c 364.207 183.199 363.684 184.473
 362.746 185.41 c 361.809 186.348 360.535 186.875 359.207 186.875 c 357.883
 186.875 356.609 186.348 355.672 185.41 c 354.734 184.473 354.207 183.199
 354.207 181.875 c 354.207 180.547 354.734 179.277 355.672 178.34 c 356.609
 177.402 357.883 176.875 359.207 176.875 c h
359.207 176.875 m f
0 g
359.207 176.875 m 360.535 176.875 361.809 177.402 362.746 178.34 c 363.684
 179.277 364.207 180.547 364.207 181.875 c 364.207 183.199 363.684 184.473
 362.746 185.41 c 361.809 186.348 360.535 186.875 359.207 186.875 c 357.883
 186.875 356.609 186.348 355.672 185.41 c 354.734 184.473 354.207 183.199
 354.207 181.875 c 354.207 180.547 354.734 179.277 355.672 178.34 c 356.609
 177.402 357.883 176.875 359.207 176.875 c h
359.207 176.875 m S
0 0.501961 0 rg
403.848 193.648 m 405.176 193.648 406.445 194.176 407.383 195.113 c 408.32
 196.051 408.848 197.324 408.848 198.648 c 408.848 199.977 408.32 201.246
 407.383 202.184 c 406.445 203.121 405.176 203.648 403.848 203.648 c 402.523
 203.648 401.25 203.121 400.312 202.184 c 399.375 201.246 398.848 199.977
 398.848 198.648 c 398.848 197.324 399.375 196.051 400.312 195.113 c 401.25
 194.176 402.523 193.648 403.848 193.648 c h
403.848 193.648 m f
0 g
403.848 193.648 m 405.176 193.648 406.445 194.176 407.383 195.113 c 408.32
 196.051 408.848 197.324 408.848 198.648 c 408.848 199.977 408.32 201.246
 407.383 202.184 c 406.445 203.121 405.176 203.648 403.848 203.648 c 402.523
 203.648 401.25 203.121 400.312 202.184 c 399.375 201.246 398.848 199.977
 398.848 198.648 c 398.848 197.324 399.375 196.051 400.312 195.113 c 401.25
 194.176 402.523 193.648 403.848 193.648 c h
403.848 193.648 m S
0 0.501961 0 rg
448.488 181.812 m 449.816 181.812 451.086 182.34 452.023 183.277 c 452.961
 184.215 453.488 185.488 453.488 186.812 c 453.488 188.141 452.961 189.41
 452.023 190.348 c 451.086 191.285 449.816 191.812 448.488 191.812 c 447.164
 191.812 445.891 191.285 444.953 190.348 c 444.016 189.41 443.488 188.141
 443.488 186.812 c 443.488 185.488 444.016 184.215 444.953 183.277 c 445.891
 182.34 447.164 181.812 448.488 181.812 c h
448.488 181.812 m f
0 g
448.488 181.812 m 449.816 181.812 451.086 182.34 452.023 183.277 c 452.961
 184.215 453.488 185.488 453.488 186.812 c 453.488 188.141 452.961 189.41
 452.023 190.348 c 451.086 191.285 449.816 191.812 448.488 191.812 c 447.164
 191.812 445.891 191.285 444.953 190.348 c 444.016 189.41 443.488 188.141
 443.488 186.812 c 443.488 185.488 444.016 184.215 444.953 183.277 c 445.891
 182.34 447.164 181.812 448.488 181.812 c h
448.488 181.812 m S
  Q
Q
Q q
45 251 449 -79 re W n
q
45 251 449 -79 re W n
  q
0 0.74902 0.74902 rg
2 w
2 J
1 j
[] 0.0 d
4 M 46.73 249.629 m 48.961 249.492 l 51.191 249.086 l 53.426 248.406 l 55.656
 247.461 l 57.891 246.258 l 60.121 244.801 l 62.352 243.102 l 65.031 240.758
 l 67.711 238.102 l 70.836 234.648 l 73.961 230.855 l 77.531 226.188 l 82.441
 219.355 l 94.047 203.016 l 97.617 198.469 l 100.742 194.867 l 103.422 192.129
 l 105.652 190.133 l 107.887 188.422 l 110.117 187.012 l 112.352 185.914
 l 114.137 185.262 l 115.922 184.809 l 117.707 184.547 l 119.938 184.473
 l 122.172 184.664 l 124.402 185.094 l 126.637 185.742 l 129.312 186.777
 l 131.992 188.062 l 135.117 189.84 l 138.688 192.129 l 140.918 193.742 
l 143.598 195.984 l 148.508 200.105 l 152.527 203.168 l 156.098 205.629 
l 159.223 207.504 l 161.453 208.598 l 163.238 209.23 l 164.133 209.383 l
 164.578 209.355 l 165.023 209.148 l 165.473 208.691 l 165.918 209.691 l
 166.812 210.594 l 168.148 211.441 l 169.934 212.258 l 172.168 212.988 l
 174.398 213.465 l 176.629 213.711 l 178.863 213.742 l 181.094 213.559 l
 183.328 213.172 l 185.559 212.586 l 188.238 211.629 l 190.914 210.418 l
 193.594 208.969 l 196.719 207.012 l 200.289 204.488 l 204.754 201.02 l 
219.484 189.27 l 223.059 186.863 l 226.184 185.035 l 228.859 183.707 l 231.539
 182.621 l 234.215 181.797 l 236.449 181.316 l 238.68 181.027 l 240.914 
180.934 l 243.59 181.062 l 246.27 181.438 l 248.949 182.031 l 252.074 182.949
 l 255.645 184.227 l 261 186.41 l 267.695 189.121 l 270.82 190.156 l 272.605
 190.77 l 274.84 191.91 l 277.52 193.207 l 280.195 194.27 l 282.875 195.129
 l 285.555 195.777 l 288.23 196.223 l 290.91 196.453 l 293.586 196.457 l
 296.266 196.234 l 298.945 195.777 l 301.621 195.086 l 304.301 194.168 l
 307.426 192.844 l 311.891 190.668 l 316.801 188.039 l 324.836 183.594 l
 329.301 181.535 l 336.441 178.516 l 340.906 176.852 l 344.477 175.746 l
 348.047 174.879 l 351.621 174.27 l 355.191 173.906 l 358.762 173.789 l 
362.332 173.91 l 365.906 174.266 l 369.477 174.852 l 373.047 175.68 l 376.617
 176.754 l 381.082 178.359 l 392.242 182.457 l 396.262 183.656 l 398.938
 184.254 l 400.723 184.473 l 401.617 184.453 l 402.512 184.172 l 402.957
 183.871 l 403.848 184.789 l 404.742 185.371 l 406.082 185.969 l 408.312
 186.688 l 410.992 187.305 l 414.117 187.785 l 417.242 188.051 l 420.812
 188.109 l 424.383 187.934 l 427.953 187.539 l 431.973 186.875 l 436.883
 185.816 l 443.133 184.223 l 458.309 180.266 l 464.113 179.043 l 469.469
 178.148 l 474.828 177.5 l 480.184 177.078 l 485.094 176.891 l 489.109 176.953
 l 492.684 177.195 l S
  Q
Q
Q q
38 258 419 -92 re W n
q
38 258 419 -92 re W n
  q
0 0.74902 0.74902 rg
46.73 242.559 m 53.801 249.629 l 46.73 256.699 l 39.656 249.629 l h
46.73 242.559 m f
0 g
1 w
0 J
0 j
[] 0.0 d
4 M 46.73 242.559 m 53.801 249.629 l 46.73 256.699 l 39.656 249.629 l h
46.73 242.559 m S
0 0.74902 0.74902 rg
91.367 199.578 m 98.441 206.648 l 91.367 213.719 l 84.297 206.648 l h
91.367 199.578 m f
0 g
91.367 199.578 m 98.441 206.648 l 91.367 213.719 l 84.297 206.648 l h
91.367 199.578 m S
0 0.74902 0.74902 rg
136.008 183.32 m 143.078 190.391 l 136.008 197.461 l 128.938 190.391 l 
h
136.008 183.32 m f
0 g
136.008 183.32 m 143.078 190.391 l 136.008 197.461 l 128.938 190.391 l 
h
136.008 183.32 m S
0 0.74902 0.74902 rg
180.648 206.543 m 187.719 213.613 l 180.648 220.684 l 173.578 213.613 l
 h
180.648 206.543 m f
0 g
180.648 206.543 m 187.719 213.613 l 180.648 220.684 l 173.578 213.613 l
 h
180.648 206.543 m S
0 0.74902 0.74902 rg
225.289 178.457 m 232.359 185.527 l 225.289 192.598 l 218.219 185.527 l
 h
225.289 178.457 m f
0 g
225.289 178.457 m 232.359 185.527 l 225.289 192.598 l 218.219 185.527 l
 h
225.289 178.457 m S
0 0.74902 0.74902 rg
269.93 182.812 m 277 189.883 l 269.93 196.953 l 262.859 189.883 l h
269.93 182.812 m f
0 g
269.93 182.812 m 277 189.883 l 269.93 196.953 l 262.859 189.883 l h
269.93 182.812 m S
0 0.74902 0.74902 rg
314.57 182.199 m 321.641 189.27 l 314.57 196.34 l 307.496 189.27 l h
314.57 182.199 m f
0 g
314.57 182.199 m 321.641 189.27 l 314.57 196.34 l 307.496 189.27 l h
314.57 182.199 m S
0 0.74902 0.74902 rg
359.207 166.719 m 366.281 173.793 l 359.207 180.863 l 352.137 173.793 l
 h
359.207 166.719 m f
0 g
359.207 166.719 m 366.281 173.793 l 359.207 180.863 l 352.137 173.793 l
 h
359.207 166.719 m S
0 0.74902 0.74902 rg
403.848 177.719 m 410.918 184.789 l 403.848 191.859 l 396.777 184.789 l
 h
403.848 177.719 m f
0 g
403.848 177.719 m 410.918 184.789 l 403.848 191.859 l 396.777 184.789 l
 h
403.848 177.719 m S
0 0.74902 0.74902 rg
448.488 175.699 m 455.559 182.773 l 448.488 189.844 l 441.418 182.773 l
 h
448.488 175.699 m f
0 g
448.488 175.699 m 455.559 182.773 l 448.488 189.844 l 441.418 182.773 l
 h
448.488 175.699 m S
  Q
Q
Q q
45 251 449 -77 re W n
q
45 251 449 -77 re W n
  q
0.74902 0 0.74902 rg
2 w
2 J
1 j
[] 0.0 d
4 M 46.73 249.629 m 48.961 249.492 l 51.191 249.078 l 53.426 248.391 l 55.656
 247.434 l 57.891 246.215 l 60.121 244.742 l 62.352 243.02 l 65.031 240.645
 l 67.711 237.953 l 70.836 234.445 l 73.961 230.598 l 77.531 225.852 l 82.441
 218.902 l 94.047 202.258 l 97.617 197.637 l 100.297 194.492 l 102.977 191.684
 l 105.207 189.641 l 107.438 187.898 l 109.672 186.477 l 111.457 185.578
 l 113.242 184.895 l 115.027 184.426 l 116.812 184.168 l 118.598 184.117
 l 120.387 184.262 l 122.172 184.605 l 124.402 185.293 l 126.637 186.25 
l 128.867 187.445 l 131.543 189.133 l 134.668 191.371 l 138.688 194.551 
l 145.383 200.227 l 150.738 204.652 l 154.758 207.711 l 157.883 209.848 
l 161.008 211.699 l 163.688 213.023 l 166.363 214.086 l 168.598 214.758 
l 170.828 215.223 l 173.059 215.484 l 175.293 215.535 l 177.523 215.375 
l 179.754 215.004 l 181.988 214.43 l 184.219 213.656 l 186.898 212.48 l 
189.578 211.047 l 192.254 209.383 l 195.379 207.176 l 198.949 204.363 l 
202.969 200.91 l 208.773 195.594 l 214.574 190.316 l 217.254 188.156 l 220.379
 185.945 l 223.504 184.016 l 226.184 182.59 l 228.859 181.398 l 231.539 
180.473 l 233.77 179.91 l 236.004 179.547 l 238.234 179.379 l 240.465 179.406
 l 243.145 179.676 l 245.824 180.184 l 248.5 180.906 l 251.625 181.973 l
 255.199 183.422 l 260.109 185.688 l 270.82 190.719 l 274.84 192.312 l 278.41
 193.492 l 281.98 194.438 l 285.105 195.047 l 289.57 195.836 l 292.695 196.445
 l 294.926 196.672 l 297.605 196.699 l 300.285 196.477 l 302.961 196.027
 l 305.641 195.363 l 308.766 194.344 l 311.891 193.09 l 315.461 191.418 
l 319.48 189.297 l 325.73 185.699 l 330.641 182.949 l 334.211 181.191 l 
338.227 179.473 l 341.797 178.188 l 344.922 177.277 l 348.047 176.594 l 
351.172 176.145 l 354.297 175.934 l 357.422 175.961 l 360.547 176.215 l 
363.672 176.684 l 367.242 177.457 l 371.262 178.59 l 375.727 180.086 l 382.867
 182.754 l 391.352 185.891 l 396.262 187.461 l 400.277 188.531 l 406.082
 189.801 l 410.992 190.73 l 414.117 191.094 l 417.242 191.223 l 420.367 
191.113 l 423.492 190.773 l 426.613 190.215 l 430.188 189.324 l 433.758 
188.195 l 440.008 185.91 l 446.703 183.633 l 461.434 178.746 l 466.344 177.426
 l 470.809 176.469 l 474.828 175.82 l 479.289 175.34 l 483.754 175.082 l
 488.219 175.043 l 491.789 175.242 l 492.684 175.336 l S
  Q
Q
Q q
41 255 413 -84 re W n
q
41 255 413 -84 re W n
  q
0.74902 0 0.74902 rg
46.73 254.629 m 45.605 251.176 l 41.973 251.176 l 44.914 249.039 l 43.789
 245.586 l 46.73 247.719 l 49.668 245.586 l 48.547 249.039 l 51.484 251.176
 l 47.852 251.176 l h
46.73 254.629 m f
0 g
1 w
0 J
2 j
[] 0.0 d
4 M 46.73 254.629 m 45.605 251.176 l 41.973 251.176 l 44.914 249.039 l 43.789
 245.586 l 46.73 247.719 l 49.668 245.586 l 48.547 249.039 l 51.484 251.176
 l 47.852 251.176 l h
46.73 254.629 m S
0.74902 0 0.74902 rg
91.367 210.957 m 90.246 207.504 l 86.613 207.504 l 89.551 205.367 l 88.43
 201.914 l 91.367 204.047 l 94.309 201.914 l 93.184 205.367 l 96.125 207.504
 l 92.492 207.504 l h
91.367 210.957 m f
0 g
91.367 210.957 m 90.246 207.504 l 86.613 207.504 l 89.551 205.367 l 88.43
 201.914 l 91.367 204.047 l 94.309 201.914 l 93.184 205.367 l 96.125 207.504
 l 92.492 207.504 l h
91.367 210.957 m S
0.74902 0 0.74902 rg
136.008 197.398 m 134.887 193.945 l 131.254 193.945 l 134.191 191.809 l
 133.07 188.355 l 136.008 190.488 l 138.949 188.355 l 137.824 191.809 l 
140.766 193.945 l 137.133 193.945 l h
136.008 197.398 m f
0 g
136.008 197.398 m 134.887 193.945 l 131.254 193.945 l 134.191 191.809 l
 133.07 188.355 l 136.008 190.488 l 138.949 188.355 l 137.824 191.809 l 
140.766 193.945 l 137.133 193.945 l h
136.008 197.398 m S
0.74902 0 0.74902 rg
180.648 219.797 m 179.527 216.344 l 175.895 216.344 l 178.832 214.207 l
 177.711 210.754 l 180.648 212.887 l 183.586 210.754 l 182.465 214.207 l
 185.402 216.344 l 181.77 216.344 l h
180.648 219.797 m f
0 g
180.648 219.797 m 179.527 216.344 l 175.895 216.344 l 178.832 214.207 l
 177.711 210.754 l 180.648 212.887 l 183.586 210.754 l 182.465 214.207 l
 185.402 216.344 l 181.77 216.344 l h
180.648 219.797 m S
0.74902 0 0.74902 rg
225.289 188.039 m 224.168 184.582 l 220.535 184.582 l 223.473 182.449 l
 222.352 178.992 l 225.289 181.129 l 228.227 178.992 l 227.105 182.449 l
 230.043 184.582 l 226.41 184.582 l h
225.289 188.039 m f
0 g
225.289 188.039 m 224.168 184.582 l 220.535 184.582 l 223.473 182.449 l
 222.352 178.992 l 225.289 181.129 l 228.227 178.992 l 227.105 182.449 l
 230.043 184.582 l 226.41 184.582 l h
225.289 188.039 m S
0.74902 0 0.74902 rg
269.93 195.332 m 268.805 191.879 l 265.172 191.879 l 268.113 189.742 l 
266.988 186.289 l 269.93 188.422 l 272.867 186.289 l 271.746 189.742 l 274.684
 191.879 l 271.051 191.879 l h
269.93 195.332 m f
0 g
269.93 195.332 m 268.805 191.879 l 265.172 191.879 l 268.113 189.742 l 
266.988 186.289 l 269.93 188.422 l 272.867 186.289 l 271.746 189.742 l 274.684
 191.879 l 271.051 191.879 l h
269.93 195.332 m S
0.74902 0 0.74902 rg
314.57 196.859 m 313.445 193.402 l 309.812 193.402 l 312.754 191.27 l 311.629
 187.812 l 314.57 189.949 l 317.508 187.812 l 316.387 191.27 l 319.324 193.402
 l 315.691 193.402 l h
314.57 196.859 m f
0 g
314.57 196.859 m 313.445 193.402 l 309.812 193.402 l 312.754 191.27 l 311.629
 187.812 l 314.57 189.949 l 317.508 187.812 l 316.387 191.27 l 319.324 193.402
 l 315.691 193.402 l h
314.57 196.859 m S
0.74902 0 0.74902 rg
359.207 181.078 m 358.086 177.625 l 354.453 177.625 l 357.391 175.488 l
 356.27 172.035 l 359.207 174.168 l 362.148 172.035 l 361.023 175.488 l 
363.965 177.625 l 360.332 177.625 l h
359.207 181.078 m f
0 g
359.207 181.078 m 358.086 177.625 l 354.453 177.625 l 357.391 175.488 l
 356.27 172.035 l 359.207 174.168 l 362.148 172.035 l 361.023 175.488 l 
363.965 177.625 l 360.332 177.625 l h
359.207 181.078 m S
0.74902 0 0.74902 rg
403.848 194.328 m 402.727 190.871 l 399.094 190.871 l 402.031 188.738 l
 400.91 185.281 l 403.848 187.418 l 406.789 185.281 l 405.664 188.738 l 
408.605 190.871 l 404.973 190.871 l h
403.848 194.328 m f
0 g
403.848 194.328 m 402.727 190.871 l 399.094 190.871 l 402.031 188.738 l
 400.91 185.281 l 403.848 187.418 l 406.789 185.281 l 405.664 188.738 l 
408.605 190.871 l 404.973 190.871 l h
403.848 194.328 m S
0.74902 0 0.74902 rg
448.488 188.023 m 447.367 184.57 l 443.734 184.57 l 446.672 182.434 l 445.551
 178.98 l 448.488 181.113 l 451.426 178.98 l 450.305 182.434 l 453.242 184.57
 l 449.613 184.57 l h
448.488 188.023 m f
0 g
448.488 188.023 m 447.367 184.57 l 443.734 184.57 l 446.672 182.434 l 445.551
 178.98 l 448.488 181.113 l 451.426 178.98 l 450.305 182.434 l 453.242 184.57
 l 449.613 184.57 l h
448.488 188.023 m S
  Q
Q
Q q
45 251 449 -43 re W n
q
45 251 449 -43 re W n
  q
1 0 0 rg
2 w
2 J
1 j
[] 0.0 d
4 M 46.73 249.629 m 48.961 249.535 l 51.191 249.25 l 53.871 248.66 l 56.551
 247.805 l 59.227 246.699 l 61.906 245.359 l 65.031 243.516 l 68.156 241.41
 l 71.727 238.734 l 76.191 235.082 l 91.816 221.941 l 94.941 219.715 l 98.066
 217.77 l 100.742 216.367 l 103.422 215.234 l 105.652 214.523 l 107.887 
214.023 l 110.117 213.746 l 112.352 213.691 l 114.582 213.859 l 116.812 
214.242 l 119.047 214.832 l 121.723 215.793 l 124.402 216.996 l 127.527 
218.664 l 131.098 220.832 l 136.453 224.375 l 144.492 229.711 l 148.508 
232.121 l 152.078 234.012 l 155.203 235.422 l 158.328 236.578 l 161.008 
237.344 l 163.688 237.891 l 166.363 238.215 l 169.043 238.309 l 171.723 
238.168 l 174.398 237.801 l 177.078 237.211 l 179.754 236.406 l 182.879 
235.219 l 186.004 233.781 l 189.578 231.879 l 193.594 229.473 l 198.949 
225.98 l 209.219 219.215 l 213.234 216.848 l 216.809 215.004 l 219.934 213.629
 l 223.059 212.516 l 225.734 211.781 l 228.414 211.262 l 231.09 210.953 
l 233.77 210.852 l 236.449 210.949 l 239.574 211.301 l 242.699 211.883 l
 246.27 212.785 l 250.285 214.039 l 255.645 215.973 l 271.715 221.996 l 
276.18 223.336 l 280.195 224.297 l 283.766 224.91 l 286.891 225.234 l 290.016
 225.352 l 293.141 225.254 l 296.266 224.945 l 299.836 224.348 l 303.41 
223.516 l 307.426 222.34 l 312.336 220.641 l 320.371 217.566 l 327.066 215.094
 l 331.531 213.668 l 335.551 212.613 l 339.121 211.895 l 342.691 211.402
 l 346.262 211.141 l 349.836 211.109 l 353.406 211.289 l 357.422 211.73 
l 361.441 212.387 l 366.352 213.426 l 373.492 215.195 l 382.422 217.371 
l 387.332 218.34 l 391.797 218.984 l 395.812 219.34 l 399.832 219.465 l 
403.848 219.359 l 407.867 219.02 l 411.883 218.461 l 416.348 217.602 l 421.703
 216.324 l 441.793 211.242 l 446.703 210.328 l 451.168 209.711 l 455.629
 209.336 l 459.648 209.207 l 464.113 209.293 l 469.023 209.637 l 474.379
 210.246 l 480.629 211.188 l 492.684 213.297 l S
  Q
Q
Q q
41 255 413 -50 re W n
q
41 255 413 -50 re W n
  q
1 0 0 rg
41.73 249.629 m 51.73 249.629 l 46.73 244.629 m 46.73 254.629 l f
0 g
1 w
0 J
1 j
[] 0.0 d
4 M 41.73 249.629 m 51.73 249.629 l 46.73 244.629 m 46.73 254.629 l S
1 0 0 rg
86.367 222.277 m 96.367 222.277 l 91.367 217.277 m 91.367 227.277 l f
0 g
86.367 222.277 m 96.367 222.277 l 91.367 217.277 m 91.367 227.277 l S
1 0 0 rg
131.008 224.074 m 141.008 224.074 l 136.008 219.074 m 136.008 229.074 l
 f
0 g
131.008 224.074 m 141.008 224.074 l 136.008 219.074 m 136.008 229.074 l
 S
1 0 0 rg
175.648 236.094 m 185.648 236.094 l 180.648 231.094 m 180.648 241.094 l
 f
0 g
175.648 236.094 m 185.648 236.094 l 180.648 231.094 m 180.648 241.094 l
 S
1 0 0 rg
220.289 211.891 m 230.289 211.891 l 225.289 206.891 m 225.289 216.891 l
 f
0 g
220.289 211.891 m 230.289 211.891 l 225.289 206.891 m 225.289 216.891 l
 S
1 0 0 rg
264.93 221.395 m 274.93 221.395 l 269.93 216.395 m 269.93 226.395 l f
0 g
264.93 221.395 m 274.93 221.395 l 269.93 216.395 m 269.93 226.395 l S
1 0 0 rg
309.57 219.805 m 319.57 219.805 l 314.57 214.805 m 314.57 224.805 l f
0 g
309.57 219.805 m 319.57 219.805 l 314.57 214.805 m 314.57 224.805 l S
1 0 0 rg
354.207 211.996 m 364.207 211.996 l 359.207 206.996 m 359.207 216.996 l
 f
0 g
354.207 211.996 m 364.207 211.996 l 359.207 206.996 m 359.207 216.996 l
 S
1 0 0 rg
398.848 219.359 m 408.848 219.359 l 403.848 214.359 m 403.848 224.359 l
 f
0 g
398.848 219.359 m 408.848 219.359 l 403.848 214.359 m 403.848 224.359 l
 S
1 0 0 rg
443.488 210.055 m 453.488 210.055 l 448.488 205.055 m 448.488 215.055 l
 f
0 g
443.488 210.055 m 453.488 210.055 l 448.488 205.055 m 448.488 215.055 l
 S
  Q
Q
Q q
45 251 449 -44 re W n
q
45 251 449 -44 re W n
  q
0.74902 0.74902 0 rg
2 w
2 J
1 j
[] 0.0 d
4 M 46.73 249.629 m 48.961 249.535 l 51.191 249.246 l 53.871 248.652 l 56.551
 247.793 l 59.227 246.68 l 61.906 245.328 l 65.031 243.477 l 68.156 241.355
 l 71.727 238.664 l 76.191 234.988 l 91.367 222.188 l 94.492 219.957 l 97.617
 218.012 l 100.297 216.613 l 102.977 215.496 l 105.207 214.797 l 107.438
 214.316 l 109.672 214.066 l 111.902 214.035 l 114.137 214.23 l 116.367 
214.637 l 118.598 215.242 l 121.277 216.215 l 123.957 217.422 l 127.082 
219.082 l 130.652 221.227 l 136.008 224.75 l 144.938 230.641 l 148.953 233.012
 l 152.527 234.863 l 155.652 236.238 l 158.773 237.352 l 161.453 238.082
 l 164.133 238.594 l 166.812 238.879 l 169.488 238.938 l 172.168 238.762
 l 174.848 238.359 l 177.523 237.734 l 180.203 236.898 l 183.328 235.672
 l 186.453 234.199 l 190.023 232.254 l 194.039 229.801 l 199.398 226.254
 l 209.219 219.691 l 213.234 217.289 l 216.809 215.414 l 219.934 214.02 
l 223.059 212.891 l 225.734 212.148 l 228.414 211.625 l 231.09 211.324 l
 233.77 211.246 l 236.449 211.375 l 239.125 211.711 l 242.25 212.328 l 245.375
 213.168 l 248.949 214.344 l 253.41 216.059 l 261.445 219.441 l 268.145 
222.152 l 272.605 223.723 l 276.625 224.891 l 280.195 225.691 l 283.766 
226.246 l 286.891 226.508 l 290.016 226.562 l 293.141 226.41 l 296.266 226.047
 l 299.836 225.391 l 303.41 224.5 l 307.426 223.258 l 312.336 221.473 l 
319.926 218.422 l 327.066 215.617 l 331.531 214.082 l 335.551 212.918 l 
339.121 212.102 l 342.691 211.504 l 346.262 211.145 l 349.836 211.023 l 
353.406 211.133 l 356.977 211.457 l 360.996 212.051 l 365.457 212.945 l 
371.262 214.359 l 385.102 217.852 l 389.562 218.711 l 393.582 219.277 l 
397.598 219.613 l 401.172 219.707 l 404.742 219.602 l 408.758 219.254 l 
412.777 218.672 l 417.242 217.789 l 422.152 216.586 l 429.293 214.57 l 439.562
 211.676 l 444.918 210.414 l 449.383 209.586 l 453.848 208.996 l 457.863
 208.688 l 461.879 208.59 l 465.898 208.699 l 470.363 209.043 l 475.273 
209.66 l 481.074 210.629 l 489.559 212.312 l 492.684 212.949 l S
  Q
Q
Q q
41 256 413 -51 re W n
q
41 256 413 -51 re W n
  q
0.74902 0.74902 0 rg
46.73 254.629 m 41.973 251.176 l 43.789 245.586 l 49.668 245.586 l 51.484
 251.176 l h
46.73 254.629 m f
0 g
1 w
0 J
0 j
[] 0.0 d
4 M 46.73 254.629 m 41.973 251.176 l 43.789 245.586 l 49.668 245.586 l 51.484
 251.176 l h
46.73 254.629 m S
0.74902 0.74902 0 rg
91.367 227.191 m 86.613 223.734 l 88.43 218.145 l 94.309 218.145 l 96.125
 223.734 l h
91.367 227.191 m f
0 g
91.367 227.191 m 86.613 223.734 l 88.43 218.145 l 94.309 218.145 l 96.125
 223.734 l h
91.367 227.191 m S
0.74902 0.74902 0 rg
136.008 229.75 m 131.254 226.293 l 133.07 220.703 l 138.949 220.703 l 140.766
 226.293 l h
136.008 229.75 m f
0 g
136.008 229.75 m 131.254 226.293 l 133.07 220.703 l 138.949 220.703 l 140.766
 226.293 l h
136.008 229.75 m S
0.74902 0.74902 0 rg
180.648 241.738 m 175.895 238.285 l 177.711 232.695 l 183.586 232.695 l
 185.402 238.285 l h
180.648 241.738 m f
0 g
180.648 241.738 m 175.895 238.285 l 177.711 232.695 l 183.586 232.695 l
 185.402 238.285 l h
180.648 241.738 m S
0.74902 0.74902 0 rg
225.289 217.258 m 220.535 213.801 l 222.352 208.211 l 228.227 208.211 l
 230.043 213.801 l h
225.289 217.258 m f
0 g
225.289 217.258 m 220.535 213.801 l 222.352 208.211 l 228.227 208.211 l
 230.043 213.801 l h
225.289 217.258 m S
0.74902 0.74902 0 rg
269.93 227.809 m 265.172 224.355 l 266.988 218.766 l 272.867 218.766 l 
274.684 224.355 l h
269.93 227.809 m f
0 g
269.93 227.809 m 265.172 224.355 l 266.988 218.766 l 272.867 218.766 l 
274.684 224.355 l h
269.93 227.809 m S
0.74902 0.74902 0 rg
314.57 225.598 m 309.812 222.145 l 311.629 216.555 l 317.508 216.555 l 
319.324 222.145 l h
314.57 225.598 m f
0 g
314.57 225.598 m 309.812 222.145 l 311.629 216.555 l 317.508 216.555 l 
319.324 222.145 l h
314.57 225.598 m S
0.74902 0.74902 0 rg
359.207 216.758 m 354.453 213.301 l 356.27 207.711 l 362.148 207.711 l 
363.965 213.301 l h
359.207 216.758 m f
0 g
359.207 216.758 m 354.453 213.301 l 356.27 207.711 l 362.148 207.711 l 
363.965 213.301 l h
359.207 216.758 m S
0.74902 0.74902 0 rg
403.848 224.648 m 399.094 221.195 l 400.91 215.602 l 406.789 215.602 l 
408.605 221.195 l h
403.848 224.648 m f
0 g
403.848 224.648 m 399.094 221.195 l 400.91 215.602 l 406.789 215.602 l 
408.605 221.195 l h
403.848 224.648 m S
0.74902 0.74902 0 rg
448.488 214.734 m 443.734 211.277 l 445.551 205.688 l 451.426 205.688 l
 453.242 211.277 l h
448.488 214.734 m f
0 g
448.488 214.734 m 443.734 211.277 l 445.551 205.688 l 451.426 205.688 l
 453.242 211.277 l h
448.488 214.734 m S
  Q
Q
Q q
46 388 1 -346 re W n
q
46 388 1 -346 re W n
  q
0 g
0.5 w
0 J
1 j
[ 1 3] 0 d
4 M 46.73 42.27 m 46.73 387.871 l S
  Q
Q
  Q
Q
Q q
0 g
0.5 w
0 J
1 j
[] 0.0 d
4 M 46.73 41.782 m 46.73 45.782 l S
46.73 387.383 m 46.73 383.383 l S
43.656 31.864 m 43.656 32.774 43.645 34.324 43.016 35.52 c 42.461 36.567
 41.578 36.938 40.805 36.938 c 40.086 36.938 39.172 36.61 38.605 35.532 
c 38.008 34.414 37.949 33.028 37.949 31.864 c 37.949 31.012 37.965 29.715
 38.426 28.578 c 39.07 27.043 40.219 26.836 40.805 26.836 c 41.488 26.836
 42.535 27.117 43.148 28.535 c 43.598 29.567 43.656 30.774 43.656 31.864
 c 40.805 27.074 m 39.848 27.074 39.277 27.891 39.07 29.032 c 38.906 29.907
 38.906 31.192 38.906 32.028 c 38.906 33.176 38.906 34.133 39.098 35.043
 c 39.383 36.309 40.219 36.699 40.805 36.699 c 41.414 36.699 42.207 36.293
 42.492 35.074 c 42.684 34.223 42.699 33.223 42.699 32.028 c 42.699 31.055
 42.699 29.864 42.523 28.985 c 42.207 27.356 41.328 27.074 40.805 27.074
 c f
46.984 27.852 m 46.984 28.282 46.625 28.578 46.266 28.578 c 45.832 28.578
 45.535 28.223 45.535 27.864 c 45.535 27.434 45.891 27.133 46.25 27.133 
c 46.688 27.133 46.984 27.492 46.984 27.852 c f
54.574 31.864 m 54.574 32.774 54.562 34.324 53.934 35.52 c 53.379 36.567
 52.496 36.938 51.723 36.938 c 51.004 36.938 50.09 36.61 49.523 35.532 c
 48.926 34.414 48.867 33.028 48.867 31.864 c 48.867 31.012 48.883 29.715
 49.344 28.578 c 49.988 27.043 51.137 26.836 51.723 26.836 c 52.406 26.836
 53.453 27.117 54.066 28.535 c 54.516 29.567 54.574 30.774 54.574 31.864
 c 51.723 27.074 m 50.766 27.074 50.195 27.891 49.988 29.032 c 49.824 29.907
 49.824 31.192 49.824 32.028 c 49.824 33.176 49.824 34.133 50.016 35.043
 c 50.301 36.309 51.137 36.699 51.723 36.699 c 52.332 36.699 53.125 36.293
 53.41 35.074 c 53.602 34.223 53.617 33.223 53.617 32.028 c 53.617 31.055
 53.617 29.864 53.441 28.985 c 53.125 27.356 52.246 27.074 51.723 27.074
 c f
Q q
46.73 387.383 446.398 -345.602 re W n
q
46 387.512 448 -346 re W n
[ 1 0 0 1 0 -0.488007 ] concat
  q
Q q
135 388 2 -346 re W n
q
135 388 2 -346 re W n
  q
0 g
0.5 w
0 J
1 j
[ 1 3] 0 d
4 M 136.008 42.27 m 136.008 387.871 l S
  Q
Q
  Q
Q
Q q
0 g
0.5 w
0 J
1 j
[] 0.0 d
4 M 136.008 41.782 m 136.008 45.782 l S
136.008 387.383 m 136.008 383.383 l S
132.938 31.864 m 132.938 32.774 132.922 34.324 132.293 35.52 c 131.742 
36.567 130.859 36.938 130.082 36.938 c 129.363 36.938 128.453 36.61 127.887
 35.532 c 127.289 34.414 127.227 33.028 127.227 31.864 c 127.227 31.012 
127.242 29.715 127.707 28.578 c 128.348 27.043 129.5 26.836 130.082 26.836
 c 130.77 26.836 131.816 27.117 132.426 28.535 c 132.875 29.567 132.938 
30.774 132.938 31.864 c 130.082 27.074 m 129.125 27.074 128.559 27.891 128.348
 29.032 c 128.184 29.907 128.184 31.192 128.184 32.028 c 128.184 33.176 
128.184 34.133 128.379 35.043 c 128.664 36.309 129.5 36.699 130.082 36.699
 c 130.695 36.699 131.488 36.293 131.773 35.074 c 131.965 34.223 131.98 
33.223 131.98 32.028 c 131.98 31.055 131.98 29.864 131.801 28.985 c 131.488
 27.356 130.605 27.074 130.082 27.074 c f
136.266 27.852 m 136.266 28.282 135.906 28.578 135.547 28.578 c 135.113
 28.578 134.812 28.223 134.812 27.864 c 134.812 27.434 135.172 27.133 135.531
 27.133 c 135.965 27.133 136.266 27.492 136.266 27.852 c f
143.809 29.442 m 143.543 29.442 l 143.391 28.387 143.27 28.207 143.211 
28.114 c 143.137 27.996 142.062 27.996 141.852 27.996 c 138.984 27.996 l
 139.52 28.578 140.566 29.637 141.836 30.864 c 142.75 31.727 143.809 32.742
 143.809 34.219 c 143.809 35.985 142.406 36.996 140.836 36.996 c 139.191
 36.996 138.191 35.547 138.191 34.207 c 138.191 33.625 138.625 33.551 138.805
 33.551 c 138.953 33.551 139.402 33.641 139.402 34.16 c 139.402 34.621 139.012
 34.754 138.805 34.754 c 138.715 34.754 138.625 34.742 138.562 34.711 c 
138.848 35.985 139.715 36.61 140.629 36.61 c 141.926 36.61 142.777 35.578
 142.777 34.219 c 142.777 32.922 142.016 31.805 141.164 30.832 c 138.191
 27.473 l 138.191 27.133 l 143.449 27.133 l h
143.809 29.442 m f
Q q
46.73 387.383 446.398 -345.602 re W n
q
46 387.512 448 -346 re W n
[ 1 0 0 1 0 -0.488007 ] concat
  q
Q q
225 388 1 -346 re W n
q
225 388 1 -346 re W n
  q
0 g
0.5 w
0 J
1 j
[ 1 3] 0 d
4 M 225.289 42.27 m 225.289 387.871 l S
  Q
Q
  Q
Q
Q q
0 g
0.5 w
0 J
1 j
[] 0.0 d
4 M 225.289 41.782 m 225.289 45.782 l S
225.289 387.383 m 225.289 383.383 l S
222.215 31.864 m 222.215 32.774 222.203 34.324 221.574 35.52 c 221.02 36.567
 220.137 36.938 219.363 36.938 c 218.645 36.938 217.734 36.61 217.168 35.532
 c 216.57 34.414 216.508 33.028 216.508 31.864 c 216.508 31.012 216.523 
29.715 216.988 28.578 c 217.629 27.043 218.781 26.836 219.363 26.836 c 220.051
 26.836 221.098 27.117 221.707 28.535 c 222.156 29.567 222.215 30.774 222.215
 31.864 c 219.363 27.074 m 218.406 27.074 217.84 27.891 217.629 29.032 c
 217.465 29.907 217.465 31.192 217.465 32.028 c 217.465 33.176 217.465 34.133
 217.66 35.043 c 217.945 36.309 218.781 36.699 219.363 36.699 c 219.977 
36.699 220.766 36.293 221.051 35.074 c 221.246 34.223 221.258 33.223 221.258
 32.028 c 221.258 31.055 221.258 29.864 221.082 28.985 c 220.766 27.356 
219.887 27.074 219.363 27.074 c f
225.543 27.852 m 225.543 28.282 225.184 28.578 224.824 28.578 c 224.395
 28.578 224.094 28.223 224.094 27.864 c 224.094 27.434 224.453 27.133 224.812
 27.133 c 225.246 27.133 225.543 27.492 225.543 27.852 c f
231.879 36.746 m 231.879 37.059 231.863 37.071 231.598 37.071 c 227.156
 30.063 l 227.156 29.676 l 231.012 29.676 l 231.012 28.199 l 231.012 27.657
 230.98 27.508 229.938 27.508 c 229.652 27.508 l 229.652 27.133 l 233.238
 27.133 l 233.238 27.508 l 232.953 27.508 l 231.91 27.508 231.879 27.657
 231.879 28.199 c 231.879 29.676 l 233.402 29.676 l 233.402 30.063 l 231.879
 30.063 l h
231.059 35.766 m 231.059 30.063 l 227.457 30.063 l h
231.059 35.766 m f
Q q
46.73 387.383 446.398 -345.602 re W n
q
46 387.512 448 -346 re W n
[ 1 0 0 1 0 -0.488007 ] concat
  q
Q q
314 388 1 -346 re W n
q
314 388 1 -346 re W n
  q
0 g
0.5 w
0 J
1 j
[ 1 3] 0 d
4 M 314.57 42.27 m 314.57 387.871 l S
  Q
Q
  Q
Q
Q q
0 g
0.5 w
0 J
1 j
[] 0.0 d
4 M 314.57 41.782 m 314.57 45.782 l S
314.57 387.383 m 314.57 383.383 l S
311.496 31.864 m 311.496 32.774 311.484 34.324 310.855 35.52 c 310.301 
36.567 309.418 36.938 308.645 36.938 c 307.926 36.938 307.012 36.61 306.445
 35.532 c 305.848 34.414 305.789 33.028 305.789 31.864 c 305.789 31.012 
305.805 29.715 306.266 28.578 c 306.91 27.043 308.059 26.836 308.645 26.836
 c 309.328 26.836 310.375 27.117 310.988 28.535 c 311.438 29.567 311.496
 30.774 311.496 31.864 c 308.645 27.074 m 307.688 27.074 307.117 27.891 
306.91 29.032 c 306.746 29.907 306.746 31.192 306.746 32.028 c 306.746 33.176
 306.746 34.133 306.938 35.043 c 307.223 36.309 308.059 36.699 308.645 36.699
 c 309.254 36.699 310.047 36.293 310.332 35.074 c 310.523 34.223 310.539
 33.223 310.539 32.028 c 310.539 31.055 310.539 29.864 310.363 28.985 c 
310.047 27.356 309.168 27.074 308.645 27.074 c f
314.824 27.852 m 314.824 28.282 314.465 28.578 314.105 28.578 c 313.672
 28.578 313.375 28.223 313.375 27.864 c 313.375 27.434 313.73 27.133 314.09
 27.133 c 314.527 27.133 314.824 27.492 314.824 27.852 c f
317.723 32.215 m 317.723 35.75 319.395 36.547 320.367 36.547 c 320.684 
36.547 321.445 36.496 321.742 35.949 c 321.504 35.949 321.055 35.949 321.055
 35.43 c 321.055 35.028 321.383 34.895 321.594 34.895 c 321.727 34.895 322.129
 34.949 322.129 35.446 c 322.129 36.367 321.383 36.891 320.352 36.891 c 
318.574 36.891 316.707 35.051 316.707 31.766 c 316.707 27.723 318.395 26.836
 319.59 26.836 c 321.039 26.836 322.414 28.129 322.414 30.129 c 322.414 
31.992 321.207 33.348 319.68 33.348 c 318.77 33.348 318.094 32.754 317.723
 31.711 c h
319.59 27.192 m 317.75 27.192 317.75 29.934 317.75 30.489 c 317.75 31.563
 318.262 33.11 319.648 33.11 c 319.906 33.11 320.637 33.11 321.129 32.082
 c 321.398 31.5 321.398 30.891 321.398 30.145 c 321.398 29.336 321.398 28.746
 321.082 28.149 c 320.758 27.532 320.277 27.192 319.59 27.192 c f
Q q
46.73 387.383 446.398 -345.602 re W n
q
46 387.512 448 -346 re W n
[ 1 0 0 1 0 -0.488007 ] concat
  q
Q q
403 388 2 -346 re W n
q
403 388 2 -346 re W n
  q
0 g
0.5 w
0 J
1 j
[ 1 3] 0 d
4 M 403.848 42.27 m 403.848 387.871 l S
  Q
Q
  Q
Q
Q q
0 g
0.5 w
0 J
1 j
[] 0.0 d
4 M 403.848 41.782 m 403.848 45.782 l S
403.848 387.383 m 403.848 383.383 l S
400.777 31.864 m 400.777 32.774 400.762 34.324 400.133 35.52 c 399.582 
36.567 398.699 36.938 397.922 36.938 c 397.203 36.938 396.293 36.61 395.727
 35.532 c 395.129 34.414 395.066 33.028 395.066 31.864 c 395.066 31.012 
395.086 29.715 395.547 28.578 c 396.188 27.043 397.34 26.836 397.922 26.836
 c 398.609 26.836 399.656 27.117 400.27 28.535 c 400.715 29.567 400.777 
30.774 400.777 31.864 c 397.922 27.074 m 396.965 27.074 396.398 27.891 396.188
 29.032 c 396.023 29.907 396.023 31.192 396.023 32.028 c 396.023 33.176 
396.023 34.133 396.219 35.043 c 396.504 36.309 397.34 36.699 397.922 36.699
 c 398.535 36.699 399.328 36.293 399.613 35.074 c 399.805 34.223 399.82 
33.223 399.82 32.028 c 399.82 31.055 399.82 29.864 399.641 28.985 c 399.328
 27.356 398.445 27.074 397.922 27.074 c f
404.105 27.852 m 404.105 28.282 403.746 28.578 403.387 28.578 c 402.953
 28.578 402.656 28.223 402.656 27.864 c 402.656 27.434 403.012 27.133 403.371
 27.133 c 403.805 27.133 404.105 27.492 404.105 27.852 c f
409.484 32.418 m 410.426 32.895 411.383 33.61 411.383 34.754 c 411.383 
36.106 410.066 36.891 408.855 36.891 c 407.496 36.891 406.301 35.91 406.301
 34.559 c 406.301 34.188 406.391 33.547 406.973 32.985 c 407.121 32.836 
407.75 32.391 408.152 32.106 c 407.48 31.766 405.91 30.949 405.91 29.313
 c 405.91 27.785 407.375 26.836 408.824 26.836 c 410.426 26.836 411.77 27.981
 411.77 29.496 c 411.77 30.848 410.859 31.473 410.262 31.871 c h
407.523 33.727 m 407.406 33.801 406.809 34.262 406.809 34.961 c 406.809
 35.867 407.75 36.547 408.824 36.547 c 410.008 36.547 410.871 35.719 410.871
 34.754 c 410.871 33.371 409.316 32.582 409.242 32.582 c 409.23 32.582 409.215
 32.582 409.094 32.676 c h
410.273 30.68 m 410.5 30.516 411.215 30.028 411.215 29.121 c 411.215 28.024
 410.113 27.192 408.855 27.192 c 407.496 27.192 406.465 28.157 406.465 29.328
 c 406.465 30.504 407.375 31.481 408.406 31.946 c h
410.273 30.68 m f
Q q
46.73 387.383 446.398 -345.602 re W n
q
46 387.512 448 -346 re W n
[ 1 0 0 1 0 -0.488007 ] concat
  q
Q q
492 388 2 -346 re W n
q
492 388 2 -346 re W n
  q
0 g
0.5 w
0 J
1 j
[ 1 3] 0 d
4 M 493.129 42.27 m 493.129 387.871 l S
  Q
Q
  Q
Q
Q q
0 g
0.5 w
0 J
1 j
[] 0.0 d
4 M 493.129 41.782 m 493.129 45.782 l S
493.129 387.383 m 493.129 383.383 l S
487.754 36.594 m 487.754 36.907 487.742 36.922 487.531 36.922 c 486.949
 36.278 486.066 36.071 485.23 36.071 c 485.188 36.071 485.109 36.071 485.094
 36.043 c 485.082 36.008 485.082 35.977 485.082 35.653 c 485.543 35.653 
486.32 35.742 486.918 36.098 c 486.918 28.211 l 486.918 27.684 486.887 27.508
 485.605 27.508 c 485.156 27.508 l 485.156 27.133 l 489.52 27.133 l 489.52
 27.508 l 489.07 27.508 l 487.785 27.508 487.754 27.672 487.754 28.203 c
 h
487.754 36.594 m f
493.383 27.852 m 493.383 28.282 493.023 28.578 492.664 28.578 c 492.234
 28.578 491.934 28.223 491.934 27.864 c 491.934 27.434 492.293 27.133 492.652
 27.133 c 493.086 27.133 493.383 27.492 493.383 27.852 c f
500.977 31.864 m 500.977 32.774 500.961 34.324 500.332 35.52 c 499.781 
36.567 498.898 36.938 498.121 36.938 c 497.402 36.938 496.492 36.61 495.926
 35.532 c 495.328 34.414 495.266 33.028 495.266 31.864 c 495.266 31.012 
495.281 29.715 495.746 28.578 c 496.387 27.043 497.539 26.836 498.121 26.836
 c 498.809 26.836 499.855 27.117 500.465 28.535 c 500.914 29.567 500.977
 30.774 500.977 31.864 c 498.121 27.074 m 497.164 27.074 496.598 27.891 
496.387 29.032 c 496.223 29.907 496.223 31.192 496.223 32.028 c 496.223 
33.176 496.223 34.133 496.418 35.043 c 496.703 36.309 497.539 36.699 498.121
 36.699 c 498.734 36.699 499.523 36.293 499.809 35.074 c 500.004 34.223 
500.016 33.223 500.016 32.028 c 500.016 31.055 500.016 29.864 499.84 28.985
 c 499.523 27.356 498.645 27.074 498.121 27.074 c f
187.109 10.961 m 194.043 10.961 l 194.043 12.598 l 187.109 12.598 l 187.109
 17.293 l 195 17.293 l 195 18.93 l 185.258 18.93 l 185.258 4.34 l 187.109
 4.34 l h
187.109 10.961 m f
196.117 14.844 m 196.117 4.387 l 197.789 4.387 l 197.789 9.817 l 197.789
 11.313 198.168 12.289 198.965 12.867 c 199.484 13.25 199.98 13.367 201.137
 13.367 c 201.137 15.086 l 200.859 15.121 200.719 15.145 200.5 15.145 c 
199.426 15.145 198.609 14.504 197.648 12.946 c 197.648 14.844 l h
196.117 14.844 m f
211.598 9.168 m 211.598 10.735 211.48 11.676 211.18 12.438 c 210.5 14.125
 208.906 15.145 206.957 15.145 c 204.047 15.145 202.172 12.922 202.172 9.508
 c 202.172 6.09 203.984 3.989 206.914 3.989 c 209.305 3.989 210.961 5.356
 211.379 7.649 c 209.703 7.649 l 209.246 6.25 208.309 5.524 206.973 5.524
 c 205.918 5.524 205.023 6.008 204.465 6.899 c 204.066 7.504 203.926 8.114
 203.906 9.168 c h
203.949 10.524 m 204.086 12.395 205.262 13.606 206.938 13.606 c 208.57 
13.606 209.828 12.297 209.828 10.645 c 209.828 10.602 209.828 10.567 209.805
 10.524 c h
203.949 10.524 m f
222.316 0 m 222.316 14.813 l 220.844 14.813 l 220.844 13.41 l 220.066 14.508
 218.891 15.106 217.516 15.106 c 214.766 15.106 212.973 12.836 212.973 9.344
 c 212.973 5.934 214.688 3.824 217.438 3.824 c 218.891 3.824 219.887 4.34
 220.664 5.481 c 220.664 0 l h
217.754 13.551 m 219.527 13.551 220.664 11.942 220.664 9.403 c 220.664 
6.992 219.512 5.383 217.754 5.383 c 215.922 5.383 214.707 7.008 214.707 
9.465 c 214.707 11.903 215.922 13.551 217.754 13.551 c f
233.137 4.489 m 233.137 14.946 l 231.484 14.946 l 231.484 8.989 l 231.484
 6.844 230.367 5.446 228.633 5.446 c 227.32 5.446 226.48 6.242 226.48 7.508
 c 226.48 14.946 l 224.828 14.946 l 224.828 6.852 l 224.828 5.106 226.125
 3.989 228.156 3.989 c 229.691 3.989 230.664 4.524 231.645 5.907 c 231.645
 4.489 l h
233.137 4.489 m f
244.832 9.168 m 244.832 10.735 244.715 11.676 244.414 12.438 c 243.738 
14.125 242.145 15.145 240.191 15.145 c 237.281 15.145 235.41 12.922 235.41
 9.508 c 235.41 6.09 237.219 3.989 240.148 3.989 c 242.543 3.989 244.195
 5.356 244.613 7.649 c 242.941 7.649 l 242.48 6.25 241.547 5.524 240.211
 5.524 c 239.152 5.524 238.258 6.008 237.699 6.899 c 237.301 7.504 237.16
 8.114 237.145 9.168 c h
237.184 10.524 m 237.32 12.395 238.496 13.606 240.172 13.606 c 241.805 
13.606 243.062 12.297 243.062 10.645 c 243.062 10.602 243.062 10.567 243.039
 10.524 c h
237.184 10.524 m f
247.086 14.844 m 247.086 4.387 l 248.758 4.387 l 248.758 10.153 l 248.758
 12.289 249.875 13.688 251.586 13.688 c 252.902 13.688 253.742 12.887 253.742
 11.629 c 253.742 4.387 l 255.395 4.387 l 255.395 12.289 l 255.395 14.028
 254.098 15.145 252.086 15.145 c 250.531 15.145 249.535 14.543 248.621 13.09
 c 248.621 14.844 l h
247.086 14.844 m f
266.152 11.348 m 266.074 12.364 265.852 13.02 265.453 13.594 c 264.738 
14.571 263.484 15.145 262.031 15.145 c 259.219 15.145 257.387 12.922 257.387
 9.465 c 257.387 6.11 259.18 3.989 262.008 3.989 c 264.5 3.989 266.074 5.477
 266.273 8.02 c 264.598 8.02 l 264.32 6.352 263.461 5.524 262.047 5.524 
c 260.215 5.524 259.117 7.008 259.117 9.465 c 259.117 12.063 260.195 13.606
 262.008 13.606 c 263.402 13.606 264.281 12.793 264.48 11.348 c h
266.152 11.348 m f
274.461 14.848 m 271.57 6.684 l 268.902 14.848 l 267.129 14.848 l 270.656
 4.321 l 270.02 2.66 l 269.762 1.918 269.379 1.641 268.684 1.641 c 268.441
 1.641 268.168 1.68 267.809 1.762 c 267.809 0.262 l 268.145 0.082 268.484
 0 268.922 0 c 269.461 0 270.039 0.184 270.477 0.504 c 270.996 0.883 271.297
 1.324 271.613 2.164 c 276.254 14.848 l h
274.461 14.848 m f
286.934 18.93 m 284.941 16.317 283.688 12.684 283.688 9.547 c 283.688 6.395
 284.941 2.762 286.934 0.149 c 288.031 0.149 l 286.277 3.004 285.301 6.356
 285.301 9.547 c 285.301 12.723 286.277 16.094 288.031 18.93 c h
286.934 18.93 m f
291.855 14.844 m 290.203 14.844 l 290.203 4.387 l 291.855 4.387 l h
291.855 18.93 m 290.18 18.93 l 290.18 16.836 l 291.855 16.836 l h
291.855 18.93 m f
294.688 14.844 m 294.688 4.387 l 296.359 4.387 l 296.359 10.153 l 296.359
 12.289 297.477 13.688 299.188 13.688 c 300.504 13.688 301.344 12.887 301.344
 11.629 c 301.344 4.387 l 302.996 4.387 l 302.996 12.289 l 302.996 14.028
 301.699 15.145 299.688 15.145 c 298.133 15.145 297.137 14.543 296.223 13.09
 c 296.223 14.844 l h
294.688 14.844 m f
324.035 12.157 m 317.977 12.157 l 317.977 10.524 l 322.402 10.524 l 322.402
 10.117 l 322.402 7.508 320.488 5.621 317.84 5.621 c 316.367 5.621 315.031
 6.157 314.172 7.094 c 313.215 8.125 312.641 9.852 312.641 11.641 c 312.641
 15.192 314.672 17.535 317.738 17.535 c 319.953 17.535 321.547 16.414 321.945
 14.571 c 323.836 14.571 l 323.316 17.496 321.086 19.172 317.762 19.172 
c 315.984 19.172 314.551 18.715 313.414 17.782 c 311.742 16.391 310.785 
14.145 310.785 11.539 c 310.785 7.086 313.516 3.989 317.441 3.989 c 319.414
 3.989 320.984 4.723 322.402 6.305 c 322.859 4.364 l 324.035 4.364 l h
324.035 12.157 m f
336.387 10.961 m 336.387 4.379 l 338.242 4.379 l 338.242 18.93 l 336.387
 18.93 l 336.387 12.598 l 328.914 12.598 l 328.914 18.93 l 327.062 18.93
 l 327.062 4.379 l 328.938 4.379 l 328.938 10.961 l h
336.387 10.961 m f
348.621 14.809 m 340.832 14.809 l 340.832 13.352 l 346.652 13.352 l 340.414
 5.883 l 340.414 4.387 l 348.902 4.387 l 348.902 5.844 l 342.426 5.844 l
 348.621 13.332 l h
348.621 14.809 m f
351.609 0.149 m 353.605 2.762 354.859 6.395 354.859 9.528 c 354.859 12.684
 353.605 16.317 351.609 18.93 c 350.516 18.93 l 352.27 16.074 353.246 12.723
 353.246 9.528 c 353.246 6.356 352.27 2.981 350.516 0.149 c h
351.609 0.149 m f
Q q
46.73 387.383 446.398 -345.602 re W n
q
46 387.512 448 -346 re W n
[ 1 0 0 1 0 -0.488007 ] concat
  q
Q q
46 43 446 -1 re W n
q
46 43 446 -1 re W n
  q
0 g
0.5 w
0 J
1 j
[ 1 3] 0 d
4 M 46.73 42.27 m 493.129 42.27 l S
  Q
Q
  Q
Q
Q q
0 g
0.5 w
0 J
1 j
[] 0.0 d
4 M 46.73 41.782 m 50.73 41.782 l S
493.129 41.782 m 489.129 41.782 l S
33.637 41.485 m 33.891 41.485 34.16 41.485 34.16 41.785 c 34.16 42.082 
33.891 42.082 33.637 42.082 c 25.551 42.082 l 25.297 42.082 25.031 42.082
 25.031 41.785 c 25.031 41.485 25.297 41.485 25.551 41.485 c h
33.637 41.485 m f
38.715 43.086 m 40.047 43.086 40.629 41.93 40.629 40.594 c 40.629 38.797
 39.672 38.106 38.805 38.106 c 38.016 38.106 36.727 38.5 36.324 39.668 c
 36.398 39.637 36.473 39.637 36.547 39.637 c 36.906 39.637 37.176 39.875
 37.176 40.262 c 37.176 40.696 36.848 40.887 36.547 40.887 c 36.297 40.887
 35.906 40.77 35.906 40.211 c 35.906 38.832 37.25 37.75 38.836 37.75 c 40.492
 37.75 41.766 39.055 41.766 40.582 c 41.766 42.035 40.566 43.082 39.148 
43.25 c 40.285 43.485 41.375 44.485 41.375 45.821 c 41.375 46.969 40.195
 47.809 38.852 47.809 c 37.492 47.809 36.297 46.989 36.297 45.821 c 36.297
 45.313 36.684 45.223 36.875 45.223 c 37.191 45.223 37.461 45.414 37.461
 45.805 c 37.461 46.188 37.191 46.383 36.875 46.383 c 36.816 46.383 36.742
 46.383 36.684 46.352 c 37.117 47.293 38.297 47.465 38.82 47.465 c 39.344
 47.465 40.328 47.215 40.328 45.801 c 40.328 45.387 40.27 44.653 39.762 
44.004 c 39.312 43.43 38.805 43.43 38.312 43.367 c 37.832 43.367 l 37.73
 43.352 37.668 43.336 37.668 43.219 c 37.668 43.102 37.684 43.086 37.984
 43.086 c h
38.715 43.086 m f
Q q
46.73 387.383 446.398 -345.602 re W n
q
46 387.512 448 -346 re W n
[ 1 0 0 1 0 -0.488007 ] concat
  q
Q q
46 112 446 -1 re W n
q
46 112 446 -1 re W n
  q
0 g
0.5 w
0 J
1 j
[ 1 3] 0 d
4 M 46.73 111.391 m 493.129 111.391 l S
  Q
Q
  Q
Q
Q q
0 g
0.5 w
0 J
1 j
[] 0.0 d
4 M 46.73 110.903 m 50.73 110.903 l S
493.129 110.903 m 489.129 110.903 l S
33.637 110.606 m 33.891 110.606 34.16 110.606 34.16 110.907 c 34.16 111.203
 33.891 111.203 33.637 111.203 c 25.551 111.203 l 25.297 111.203 25.031 
111.203 25.031 110.907 c 25.031 110.606 25.297 110.606 25.551 110.606 c 
h
33.637 110.606 m f
41.645 109.477 m 41.375 109.477 l 41.227 108.422 41.105 108.242 41.047 
108.149 c 40.973 108.032 39.895 108.032 39.688 108.032 c 36.816 108.032 
l 37.355 108.614 38.402 109.672 39.672 110.899 c 40.582 111.762 41.645 112.778
 41.645 114.254 c 41.645 116.02 40.238 117.032 38.668 117.032 c 37.027 117.032
 36.023 115.586 36.023 114.242 c 36.023 113.66 36.457 113.586 36.637 113.586
 c 36.789 113.586 37.234 113.676 37.234 114.196 c 37.234 114.657 36.848 
114.789 36.637 114.789 c 36.547 114.789 36.457 114.778 36.398 114.746 c 
36.684 116.02 37.551 116.645 38.461 116.645 c 39.762 116.645 40.613 115.614
 40.613 114.254 c 40.613 112.957 39.852 111.84 39 110.867 c 36.023 107.508
 l 36.023 107.168 l 41.285 107.168 l h
41.645 109.477 m f
Q q
46.73 387.383 446.398 -345.602 re W n
q
46 387.512 448 -346 re W n
[ 1 0 0 1 0 -0.488007 ] concat
  q
Q q
46 181 446 -1 re W n
q
46 181 446 -1 re W n
  q
0 g
0.5 w
0 J
1 j
[ 1 3] 0 d
4 M 46.73 180.508 m 493.129 180.508 l S
  Q
Q
  Q
Q
Q q
0 g
0.5 w
0 J
1 j
[] 0.0 d
4 M 46.73 180.02 m 50.73 180.02 l S
493.129 180.02 m 489.129 180.02 l S
33.637 179.727 m 33.891 179.727 34.16 179.727 34.16 180.024 c 34.16 180.324
 33.891 180.324 33.637 180.324 c 25.551 180.324 l 25.297 180.324 25.031 
180.324 25.031 180.024 c 25.031 179.727 25.297 179.727 25.551 179.727 c 
h
33.637 179.727 m f
39.387 185.75 m 39.387 186.063 39.371 186.078 39.164 186.078 c 38.582 185.434
 37.699 185.227 36.863 185.227 c 36.816 185.227 36.742 185.227 36.727 185.196
 c 36.715 185.164 36.715 185.133 36.715 184.809 c 37.176 184.809 37.953 
184.895 38.551 185.254 c 38.551 177.364 l 38.551 176.84 38.52 176.664 37.234
 176.664 c 36.789 176.664 l 36.789 176.289 l 41.152 176.289 l 41.152 176.664
 l 40.703 176.664 l 39.418 176.664 39.387 176.824 39.387 177.36 c h
39.387 185.75 m f
Q q
46.73 387.383 446.398 -345.602 re W n
q
46 387.512 448 -346 re W n
[ 1 0 0 1 0 -0.488007 ] concat
  q
Q q
46 250 446 -1 re W n
q
46 250 446 -1 re W n
  q
0 g
0.5 w
0 J
1 j
[ 1 3] 0 d
4 M 46.73 249.629 m 493.129 249.629 l S
  Q
Q
  Q
Q
Q q
0 g
0.5 w
0 J
1 j
[] 0.0 d
4 M 46.73 249.141 m 50.73 249.141 l S
493.129 249.141 m 489.129 249.141 l S
41.688 250.137 m 41.688 251.051 41.676 252.602 41.047 253.793 c 40.492 
254.84 39.609 255.211 38.836 255.211 c 38.117 255.211 37.207 254.883 36.637
 253.809 c 36.039 252.688 35.98 251.301 35.98 250.137 c 35.98 249.289 35.996
 247.992 36.457 246.856 c 37.102 245.317 38.25 245.11 38.836 245.11 c 39.523
 245.11 40.566 245.391 41.18 246.809 c 41.629 247.84 41.688 249.051 41.688
 250.137 c 38.836 245.348 m 37.879 245.348 37.312 246.168 37.102 247.305
 c 36.938 248.184 36.938 249.469 36.938 250.305 c 36.938 251.453 36.938 
252.407 37.133 253.317 c 37.414 254.582 38.25 254.973 38.836 254.973 c 39.449
 254.973 40.238 254.571 40.523 253.348 c 40.719 252.496 40.73 251.496 40.73
 250.305 c 40.73 249.332 40.73 248.137 40.555 247.258 c 40.238 245.629 39.359
 245.348 38.836 245.348 c f
Q q
46.73 387.383 446.398 -345.602 re W n
q
46 387.512 448 -346 re W n
[ 1 0 0 1 0 -0.488007 ] concat
  q
Q q
46 319 446 -1 re W n
q
46 319 446 -1 re W n
  q
0 g
0.5 w
0 J
1 j
[ 1 3] 0 d
4 M 46.73 318.75 m 493.129 318.75 l S
  Q
Q
  Q
Q
Q q
0 g
0.5 w
0 J
1 j
[] 0.0 d
4 M 46.73 318.262 m 50.73 318.262 l S
493.129 318.262 m 489.129 318.262 l S
39.387 323.989 m 39.387 324.305 39.371 324.317 39.164 324.317 c 38.582 
323.672 37.699 323.465 36.863 323.465 c 36.816 323.465 36.742 323.465 36.727
 323.438 c 36.715 323.403 36.715 323.371 36.715 323.047 c 37.176 323.047
 37.953 323.137 38.551 323.492 c 38.551 315.606 l 38.551 315.078 38.52 314.903
 37.234 314.903 c 36.789 314.903 l 36.789 314.528 l 41.152 314.528 l 41.152
 314.903 l 40.703 314.903 l 39.418 314.903 39.387 315.067 39.387 315.598
 c h
39.387 323.989 m f
Q q
46.73 387.383 446.398 -345.602 re W n
q
46 387.512 448 -346 re W n
[ 1 0 0 1 0 -0.488007 ] concat
  q
Q q
46 389 446 -2 re W n
q
46 389 446 -2 re W n
  q
0 g
0.5 w
0 J
1 j
[ 1 3] 0 d
4 M 46.73 387.871 m 493.129 387.871 l S
  Q
Q
  Q
Q
Q q
0 g
0.5 w
0 J
1 j
[] 0.0 d
4 M 46.73 387.383 m 50.73 387.383 l S
493.129 387.383 m 489.129 387.383 l S
41.645 385.957 m 41.375 385.957 l 41.227 384.899 41.105 384.719 41.047 
384.629 c 40.973 384.512 39.895 384.512 39.688 384.512 c 36.816 384.512 
l 37.355 385.094 38.402 386.153 39.672 387.379 c 40.582 388.242 41.645 389.258
 41.645 390.735 c 41.645 392.5 40.238 393.512 38.668 393.512 c 37.027 393.512
 36.023 392.063 36.023 390.723 c 36.023 390.141 36.457 390.067 36.637 390.067
 c 36.789 390.067 37.234 390.157 37.234 390.676 c 37.234 391.137 36.848 
391.27 36.637 391.27 c 36.547 391.27 36.457 391.258 36.398 391.227 c 36.684
 392.5 37.551 393.125 38.461 393.125 c 39.762 393.125 40.613 392.094 40.613
 390.735 c 40.613 389.438 39.852 388.321 39 387.348 c 36.023 383.989 l 36.023
 383.649 l 41.285 383.649 l h
41.645 385.957 m f
14.551 112.055 m 2.355 116.141 l 14.551 116.141 l 14.551 117.895 l 0 117.895
 l 0 115.324 l 12.676 111.102 l 0 106.797 l 0 104.227 l 14.551 104.227 l
 14.551 105.981 l 2.355 105.981 l 14.551 110.106 l h
14.551 112.055 m f
13.508 129.989 m 13.551 129.809 13.551 129.731 13.551 129.633 c 13.551 
129.051 13.254 128.735 12.738 128.735 c 6.621 128.735 l 4.777 128.735 3.785
 127.379 3.785 124.809 c 3.785 123.297 4.223 122.039 5 121.34 c 5.539 120.864
 6.133 120.664 7.168 120.625 c 7.168 122.301 l 5.898 122.438 5.324 123.196
 5.324 124.75 c 5.324 126.242 5.883 127.082 6.871 127.082 c 7.309 127.082
 l 8.004 127.082 8.301 126.66 8.457 125.348 c 8.754 122.996 8.836 122.637
 9.094 122 c 9.59 120.785 10.523 120.168 11.871 120.168 c 13.754 120.168
 14.945 121.481 14.945 123.594 c 14.945 124.91 14.484 125.965 13.41 127.141
 c 14.469 127.258 14.945 127.778 14.945 128.852 c 14.945 129.192 14.906 
129.449 14.762 129.989 c h
11.207 127.082 m 11.766 127.082 12.102 126.918 12.555 126.422 c 13.172 
125.746 13.488 124.926 13.488 123.953 c 13.488 122.657 12.875 121.903 11.824
 121.903 c 10.73 121.903 10.176 122.637 9.918 124.41 c 9.684 126.164 9.602
 126.52 9.348 127.082 c h
11.207 127.082 m f
4.145 138.617 m 5.66 138.617 l 4.422 137.782 3.844 136.766 3.844 135.43
 c 3.844 132.782 6.164 130.989 9.562 130.989 c 11.281 130.989 12.684 131.446
 13.688 132.301 c 14.566 133.078 15.086 134.196 15.086 135.289 c 15.086 
136.602 14.527 137.524 13.211 138.457 c 13.742 138.457 l 15.145 138.457 
15.992 138.278 16.566 137.86 c 17.172 137.422 17.531 136.567 17.531 135.547
 c 17.531 134.793 17.336 134.114 16.984 133.657 c 16.688 133.278 16.414 
133.117 15.809 133.016 c 15.809 131.324 l 17.762 131.504 18.93 133.039 18.93
 135.489 c 18.93 137.043 18.43 138.379 17.594 139.055 c 16.633 139.856 15.32
 140.153 12.871 140.153 c 4.145 140.153 l h
5.379 135.606 m 5.379 137.399 6.898 138.457 9.523 138.457 c 12.031 138.457
 13.551 137.383 13.551 135.629 c 13.551 133.813 12.004 132.719 9.465 132.719
 c 6.941 132.719 5.379 133.836 5.379 135.606 c f
4.086 142.879 m 14.547 142.879 l 14.547 144.555 l 8.777 144.555 l 6.641
 144.555 5.242 145.672 5.242 147.383 c 5.242 148.699 6.043 149.539 7.301
 149.539 c 14.547 149.539 l 14.547 151.192 l 6.641 151.192 l 4.902 151.192
 3.785 149.895 3.785 147.879 c 3.785 146.328 4.387 145.332 5.84 144.414 
c 4.086 144.414 l h
4.086 142.879 m f
4.086 155.555 m 4.086 153.899 l 14.547 153.899 l 14.547 155.555 l h
0 155.555 m 0 153.879 l 2.094 153.879 l 2.094 155.555 l h
0 155.555 m f
4.023 162.051 m 4.023 160.336 l 1.195 160.336 l 1.195 158.68 l 4.023 158.68
 l 4.023 157.27 l 5.379 157.27 l 5.379 158.68 l 13.289 158.68 l 14.348 158.68
 14.945 159.399 14.945 160.692 c 14.945 161.09 14.906 161.489 14.805 162.051
 c 13.406 162.051 l 13.469 161.828 13.488 161.571 13.488 161.254 c 13.488
 160.535 13.289 160.336 12.551 160.336 c 5.379 160.336 l 5.379 162.051 l
 h
4.023 162.051 m f
14.441 172.133 m 3.984 172.133 l 3.984 170.477 l 9.941 170.477 l 12.086
 170.477 13.488 169.36 13.488 167.625 c 13.488 166.313 12.688 165.477 11.422
 165.477 c 3.984 165.477 l 3.984 163.821 l 12.078 163.821 l 13.824 163.821
 14.945 165.117 14.945 167.149 c 14.945 168.684 14.406 169.66 13.027 170.637
 c 14.441 170.637 l h
14.441 172.133 m f
0 183.469 m 0 181.817 l 5.402 181.817 l 4.348 181.117 3.785 180 3.785 178.606
 c 3.785 175.899 5.949 174.121 9.27 174.121 c 12.785 174.121 14.945 175.856
 14.945 178.668 c 14.945 180.098 14.406 181.098 13.109 181.992 c 14.551 
181.992 l 14.551 183.469 l h
5.344 178.887 m 5.344 180.68 6.926 181.817 9.406 181.817 c 11.801 181.817
 13.387 180.66 13.387 178.903 c 13.387 177.074 11.785 175.856 9.363 175.856
 c 6.949 175.856 5.344 177.074 5.344 178.887 c f
9.762 194.907 m 8.195 194.907 7.254 194.785 6.492 194.489 c 4.809 193.809
 3.785 192.215 3.785 190.262 c 3.785 187.356 6.008 185.481 9.426 185.481
 c 12.844 185.481 14.945 187.293 14.945 190.223 c 14.945 192.614 13.574 
194.266 11.281 194.688 c 11.281 193.012 l 12.68 192.555 13.41 191.617 13.41
 190.282 c 13.41 189.227 12.922 188.328 12.031 187.774 c 11.426 187.375 
10.816 187.235 9.762 187.215 c h
8.406 187.254 m 6.539 187.391 5.324 188.571 5.324 190.242 c 5.324 191.875
 6.633 193.133 8.289 193.133 c 8.328 193.133 8.367 193.133 8.406 193.11 
c h
8.406 187.254 m f
4.086 202.676 m 14.547 202.676 l 14.547 204.348 l 9.117 204.348 l 7.617
 204.348 6.641 204.731 6.062 205.528 c 5.684 206.043 5.562 206.539 5.562
 207.696 c 3.844 207.696 l 3.809 207.418 3.785 207.278 3.785 207.059 c 3.785
 205.985 4.426 205.168 5.984 204.207 c 4.086 204.207 l h
4.086 202.676 m f
9.762 218.157 m 8.195 218.157 7.254 218.039 6.492 217.739 c 4.809 217.063
 3.785 215.469 3.785 213.516 c 3.785 210.606 6.008 208.735 9.426 208.735
 c 12.844 208.735 14.945 210.543 14.945 213.473 c 14.945 215.867 13.574 
217.52 11.281 217.938 c 11.281 216.266 l 12.68 215.805 13.41 214.871 13.41
 213.535 c 13.41 212.477 12.922 211.582 12.031 211.024 c 11.426 210.625 
10.816 210.485 9.762 210.469 c h
8.406 210.508 m 6.539 210.645 5.324 211.821 5.324 213.496 c 5.324 215.129
 6.633 216.387 8.289 216.387 c 8.328 216.387 8.367 216.387 8.406 216.364
 c h
8.406 210.508 m f
6.988 227.742 m 4.941 227.723 3.785 226.367 3.785 223.953 c 3.785 221.524
 5.039 219.953 6.961 219.953 c 8.59 219.953 9.363 220.789 9.957 223.258 
c 10.332 224.813 l 10.613 225.969 11.027 226.426 11.781 226.426 c 12.754
 226.426 13.41 225.449 13.41 223.996 c 13.41 223.098 13.152 222.344 12.715
 221.922 c 12.414 221.664 12.121 221.547 11.387 221.446 c 11.387 219.692
 l 13.797 219.77 14.945 221.125 14.945 223.856 c 14.945 226.485 13.656 228.16
 11.652 228.16 c 10.105 228.16 9.25 227.282 8.754 225.211 c 8.379 223.617
 l 8.062 222.262 7.625 221.684 6.895 221.684 c 5.941 221.684 5.324 222.543
 5.324 223.895 c 5.324 225.231 5.898 225.949 6.988 225.989 c h
6.988 227.742 m f
18.93 230.055 m 18.93 231.727 l 13.551 231.727 l 14.629 232.606 15.105 
233.578 15.105 234.938 c 15.105 237.625 12.922 239.399 9.566 239.399 c 6.035
 239.399 3.824 237.684 3.824 234.914 c 3.824 233.5 4.465 232.364 5.699 231.586
 c 4.117 231.586 l 4.117 230.055 l h
5.379 234.637 m 5.379 236.469 7.012 237.664 9.527 237.664 c 11.922 237.664
 13.551 236.449 13.551 234.637 c 13.551 232.883 11.941 231.727 9.469 231.727
 c 6.988 231.727 5.379 232.883 5.379 234.637 c f
3.785 245.477 m 3.785 242.547 5.871 240.77 9.363 240.77 c 12.859 240.77
 14.945 242.528 14.945 245.496 c 14.945 248.422 12.859 250.219 9.445 250.219
 c 5.852 250.219 3.785 248.485 3.785 245.477 c 5.324 245.496 m 5.324 247.367
 6.848 248.485 9.426 248.485 c 11.863 248.485 13.41 247.328 13.41 245.496
 c 13.41 243.641 11.883 242.504 9.363 242.504 c 6.867 242.504 5.324 243.641
 5.324 245.496 c f
4.086 252.528 m 14.547 252.528 l 14.547 254.203 l 8.777 254.203 l 6.641
 254.203 5.242 255.317 5.242 257.032 c 5.242 258.348 6.043 259.184 7.301
 259.184 c 14.547 259.184 l 14.547 260.836 l 6.641 260.836 l 4.902 260.836
 3.785 259.543 3.785 257.528 c 3.785 255.977 4.387 254.977 5.84 254.063 
c 4.086 254.063 l h
4.086 252.528 m f
6.988 270.938 m 4.941 270.918 3.785 269.567 3.785 267.153 c 3.785 264.723
 5.039 263.149 6.961 263.149 c 8.59 263.149 9.363 263.989 9.957 266.457 
c 10.332 268.008 l 10.613 269.168 11.027 269.625 11.781 269.625 c 12.754
 269.625 13.41 268.649 13.41 267.192 c 13.41 266.297 13.152 265.539 12.715
 265.121 c 12.414 264.86 12.121 264.742 11.387 264.645 c 11.387 262.891 
l 13.797 262.969 14.945 264.324 14.945 267.055 c 14.945 269.684 13.656 271.36
 11.652 271.36 c 10.105 271.36 9.25 270.481 8.754 268.407 c 8.379 266.813
 l 8.062 265.461 7.625 264.883 6.895 264.883 c 5.941 264.883 5.324 265.739
 5.324 267.094 c 5.324 268.43 5.898 269.145 6.988 269.188 c h
6.988 270.938 m f
9.762 282.395 m 8.195 282.395 7.254 282.278 6.492 281.977 c 4.809 281.301
 3.785 279.707 3.785 277.754 c 3.785 274.848 6.008 272.973 9.426 272.973
 c 12.844 272.973 14.945 274.785 14.945 277.715 c 14.945 280.106 13.574 
281.758 11.281 282.176 c 11.281 280.504 l 12.68 280.047 13.41 279.11 13.41
 277.774 c 13.41 276.719 12.922 275.821 12.031 275.262 c 11.426 274.864 
10.816 274.723 9.762 274.707 c h
8.406 274.746 m 6.539 274.883 5.324 276.059 5.324 277.735 c 5.324 279.367
 6.633 280.625 8.289 280.625 c 8.328 280.625 8.367 280.625 8.406 280.602
 c h
8.406 274.746 m f
0 293.492 m 2.613 291.5 6.25 290.246 9.383 290.246 c 12.535 290.246 16.168
 291.5 18.781 293.492 c 18.781 294.59 l 15.93 292.836 12.574 291.864 9.383
 291.864 c 6.207 291.864 2.836 292.836 0 294.59 c h
0 293.492 m f
0 305.289 m 0 303.637 l 5.402 303.637 l 4.348 302.938 3.785 301.821 3.785
 300.426 c 3.785 297.719 5.949 295.946 9.27 295.946 c 12.785 295.946 14.945
 297.68 14.945 300.489 c 14.945 301.922 14.406 302.918 13.109 303.813 c 
14.551 303.813 l 14.551 305.289 l h
5.344 300.707 m 5.344 302.5 6.926 303.637 9.406 303.637 c 11.801 303.637
 13.387 302.481 13.387 300.727 c 13.387 298.895 11.785 297.68 9.363 297.68
 c 6.949 297.68 5.344 298.895 5.344 300.707 c f
14.547 308.082 m 14.547 314.633 l 14.547 316.012 14.168 317.024 13.336 
317.805 c 12.586 318.52 11.559 318.918 10.43 318.918 c 8.688 318.918 7.645
 318.121 6.93 316.27 c 6.305 317.582 5.219 318.282 3.727 318.282 c 2.66 
318.282 1.711 317.883 1.027 317.125 c 0.324 316.367 0 315.371 0 313.977 
c 0 308.082 l h
6.332 309.934 m 1.637 309.934 l 1.637 313.52 l 1.637 314.555 1.781 315.133
 2.164 315.629 c 2.57 316.149 3.176 316.426 3.988 316.426 c 4.777 316.426
 5.402 316.149 5.809 315.629 c 6.191 315.133 6.332 314.555 6.332 313.52 
c h
12.906 309.934 m 7.969 309.934 l 7.969 314.457 l 7.969 315.352 8.188 315.949
 8.656 316.387 c 9.113 316.824 9.742 317.067 10.449 317.067 c 11.137 317.067
 11.766 316.824 12.219 316.387 c 12.691 315.949 12.906 315.352 12.906 314.457
 c h
12.906 309.934 m f
18.781 321.649 m 16.168 323.641 12.535 324.895 9.402 324.895 c 6.25 324.895
 2.613 323.641 0 321.649 c 0 320.551 l 2.855 322.305 6.207 323.282 9.402
 323.282 c 12.574 323.282 15.949 322.305 18.781 320.551 c h
18.781 321.649 m f
1 w
46.73 387.383 m 493.129 387.383 l S
493.129 41.782 m 493.129 387.383 l S
46.73 41.782 m 493.129 41.782 l S
46.73 41.782 m 46.73 387.383 l S
1 g
421.75 275.395 m 484.73 275.395 l 486.328 275.395 487.129 276.196 487.129
 277.797 c 487.129 378.981 l 487.129 380.582 486.328 381.383 484.73 381.383
 c 421.75 381.383 l 420.148 381.383 419.348 380.582 419.348 378.981 c 419.348
 277.797 l 419.348 276.196 420.148 275.395 421.75 275.395 c h
421.75 275.395 m f
0 g
421.75 275.395 m 484.73 275.395 l 486.328 275.395 487.129 276.196 487.129
 277.797 c 487.129 378.981 l 487.129 380.582 486.328 381.383 484.73 381.383
 c 421.75 381.383 l 420.148 381.383 419.348 380.582 419.348 378.981 c 419.348
 277.797 l 419.348 276.196 420.148 275.395 421.75 275.395 c h
421.75 275.395 m S
0 0 1 rg
2 w
2 J
424.148 372.262 m 448.148 372.262 l S
436.148 377.262 m 431.148 367.262 l 441.148 367.262 l h
436.148 377.262 m f
0 g
1 w
0 J
0 j
436.148 377.262 m 431.148 367.262 l 441.148 367.262 l h
436.148 377.262 m S
459.949 371.77 m 462.688 371.77 l 463.367 371.77 463.906 371.973 464.375
 372.391 c 464.898 372.871 465.125 373.43 465.125 374.235 c 465.125 375.871
 464.156 376.789 462.438 376.789 c 458.836 376.789 l 458.836 368.035 l 459.949
 368.035 l h
459.949 372.75 m 459.949 375.809 l 462.27 375.809 l 463.332 375.809 463.965
 375.235 463.965 374.282 c 463.965 373.324 463.332 372.75 462.27 372.75 
c h
459.949 372.75 m f
471.316 368.059 m 473.77 375.375 l 473.77 368.059 l 474.82 368.059 l 474.82
 376.789 l 473.277 376.789 l 470.746 369.188 l 468.164 376.789 l 466.621
 376.789 l 466.621 368.059 l 467.672 368.059 l 467.672 375.375 l 470.148
 368.059 l h
471.316 368.059 m f
478.777 374.114 m 478.777 368.063 l 479.832 368.063 l 479.832 376.555 l
 479.137 376.555 l 478.766 375.25 478.527 375.071 476.902 374.867 c 476.902
 374.114 l h
478.777 374.114 m f
0 0.501961 0 rg
2 w
2 J
1 j
424.148 355.199 m 448.148 355.199 l S
436.148 350.199 m 437.477 350.199 438.746 350.727 439.684 351.664 c 440.621
 352.602 441.148 353.871 441.148 355.199 c 441.148 356.524 440.621 357.797
 439.684 358.735 c 438.746 359.672 437.477 360.199 436.148 360.199 c 434.824
 360.199 433.551 359.672 432.613 358.735 c 431.676 357.797 431.148 356.524
 431.148 355.199 c 431.148 353.871 431.676 352.602 432.613 351.664 c 433.551
 350.727 434.824 350.199 436.148 350.199 c h
436.148 350.199 m f
0 g
1 w
0 J
436.148 350.199 m 437.477 350.199 438.746 350.727 439.684 351.664 c 440.621
 352.602 441.148 353.871 441.148 355.199 c 441.148 356.524 440.621 357.797
 439.684 358.735 c 438.746 359.672 437.477 360.199 436.148 360.199 c 434.824
 360.199 433.551 359.672 432.613 358.735 c 431.676 357.797 431.148 356.524
 431.148 355.199 c 431.148 353.871 431.676 352.602 432.613 351.664 c 433.551
 350.727 434.824 350.199 436.148 350.199 c h
436.148 350.199 m S
459.949 354.703 m 462.688 354.703 l 463.367 354.703 463.906 354.91 464.375
 355.324 c 464.898 355.805 465.125 356.367 465.125 357.168 c 465.125 358.805
 464.156 359.727 462.438 359.727 c 458.836 359.727 l 458.836 350.973 l 459.949
 350.973 l h
459.949 355.688 m 459.949 358.742 l 462.27 358.742 l 463.332 358.742 463.965
 358.168 463.965 357.215 c 463.965 356.258 463.332 355.688 462.27 355.688
 c h
459.949 355.688 m f
471.316 350.996 m 473.77 358.313 l 473.77 350.996 l 474.82 350.996 l 474.82
 359.727 l 473.277 359.727 l 470.746 352.121 l 468.164 359.727 l 466.621
 359.727 l 466.621 350.996 l 467.672 350.996 l 467.672 358.313 l 470.148
 350.996 l h
471.316 350.996 m f
481.73 352.039 m 477.27 352.039 l 477.379 352.735 477.762 353.18 478.801
 353.789 c 479.996 354.438 l 481.18 355.082 481.789 355.953 481.789 356.996
 c 481.789 357.703 481.504 358.364 481 358.817 c 480.5 359.274 479.879 359.489
 479.078 359.489 c 478 359.489 477.199 359.106 476.734 358.387 c 476.434
 357.93 476.305 357.403 476.281 356.539 c 477.332 356.539 l 477.367 357.117
 477.441 357.465 477.582 357.739 c 477.859 358.254 478.406 358.567 479.039
 358.567 c 479.996 358.567 480.715 357.883 480.715 356.973 c 480.715 356.301
 480.32 355.727 479.566 355.297 c 478.469 354.676 l 476.699 353.668 476.184
 352.867 476.09 351 c 481.73 351 l h
481.73 352.039 m f
0 0.74902 0.74902 rg
2 w
2 J
424.148 338.133 m 448.148 338.133 l S
436.148 331.063 m 443.219 338.133 l 436.148 345.207 l 429.078 338.133 l
 h
436.148 331.063 m f
0 g
1 w
0 J
0 j
436.148 331.063 m 443.219 338.133 l 436.148 345.207 l 429.078 338.133 l
 h
436.148 331.063 m S
459.949 337.641 m 462.688 337.641 l 463.367 337.641 463.906 337.844 464.375
 338.262 c 464.898 338.742 465.125 339.301 465.125 340.106 c 465.125 341.742
 464.156 342.66 462.438 342.66 c 458.836 342.66 l 458.836 333.907 l 459.949
 333.907 l h
459.949 338.621 m 459.949 341.68 l 462.27 341.68 l 463.332 341.68 463.965
 341.106 463.965 340.153 c 463.965 339.196 463.332 338.621 462.27 338.621
 c h
459.949 338.621 m f
471.316 333.93 m 473.77 341.246 l 473.77 333.93 l 474.82 333.93 l 474.82
 342.66 l 473.277 342.66 l 470.746 335.059 l 468.164 342.66 l 466.621 342.66
 l 466.621 333.93 l 467.672 333.93 l 467.672 341.246 l 470.148 333.93 l 
h
471.316 333.93 m f
478.324 337.879 m 478.898 337.879 l 480.055 337.879 480.656 337.352 480.656
 336.332 c 480.656 335.266 479.996 334.629 478.898 334.629 c 477.75 334.629
 477.188 335.207 477.117 336.446 c 476.066 336.446 l 476.113 335.762 476.23
 335.317 476.434 334.934 c 476.867 334.117 477.703 333.696 478.859 333.696
 c 480.609 333.696 481.73 334.739 481.73 336.348 c 481.73 337.43 481.312
 338.032 480.297 338.383 c 481.086 338.692 481.48 339.282 481.48 340.121
 c 481.48 341.559 480.512 342.422 478.898 342.422 c 477.188 342.422 476.281
 341.5 476.242 339.715 c 477.297 339.715 l 477.309 340.223 477.355 340.504
 477.484 340.762 c 477.727 341.219 478.254 341.5 478.91 341.5 c 479.844 
341.5 480.402 340.957 480.402 340.074 c 480.402 339.485 480.188 339.129 
479.723 338.942 c 479.438 338.824 479.066 338.778 478.324 338.778 c h
478.324 337.879 m f
0.74902 0 0.74902 rg
2 w
2 J
1 j
424.148 321.071 m 448.148 321.071 l S
436.148 326.071 m 435.027 322.614 l 431.395 322.614 l 434.332 320.481 l
 433.211 317.024 l 436.148 319.16 l 439.09 317.024 l 437.965 320.481 l 440.906
 322.614 l 437.273 322.614 l h
436.148 326.071 m f
0 g
1 w
0 J
2 j
436.148 326.071 m 435.027 322.614 l 431.395 322.614 l 434.332 320.481 l
 433.211 317.024 l 436.148 319.16 l 439.09 317.024 l 437.965 320.481 l 440.906
 322.614 l 437.273 322.614 l h
436.148 326.071 m S
459.949 320.574 m 462.688 320.574 l 463.367 320.574 463.906 320.782 464.375
 321.196 c 464.898 321.676 465.125 322.239 465.125 323.039 c 465.125 324.676
 464.156 325.598 462.438 325.598 c 458.836 325.598 l 458.836 316.844 l 459.949
 316.844 l h
459.949 321.559 m 459.949 324.614 l 462.27 324.614 l 463.332 324.614 463.965
 324.043 463.965 323.086 c 463.965 322.129 463.332 321.559 462.27 321.559
 c h
459.949 321.559 m f
471.316 316.867 m 473.77 324.184 l 473.77 316.867 l 474.82 316.867 l 474.82
 325.598 l 473.277 325.598 l 470.746 317.992 l 468.164 325.598 l 466.621
 325.598 l 466.621 316.867 l 467.672 316.867 l 467.672 324.184 l 470.148
 316.867 l h
471.316 316.867 m f
479.59 318.903 m 479.59 316.871 l 480.645 316.871 l 480.645 318.903 l 481.898
 318.903 l 481.898 319.848 l 480.645 319.848 l 480.645 325.36 l 479.867 
325.36 l 476.016 320.016 l 476.016 318.903 l h
479.59 319.848 m 476.938 319.848 l 479.59 323.563 l h
479.59 319.848 m f
1 0 0 rg
2 w
2 J
1 j
424.148 304.008 m 448.148 304.008 l S
431.148 304.004 m 441.148 304.004 l 436.148 299.004 m 436.148 309.004 l
 f
0 g
1 w
0 J
431.148 304.004 m 441.148 304.004 l 436.148 299.004 m 436.148 309.004 l
 S
459.949 303.512 m 462.688 303.512 l 463.367 303.512 463.906 303.715 464.375
 304.133 c 464.898 304.614 465.125 305.172 465.125 305.977 c 465.125 307.614
 464.156 308.532 462.438 308.532 c 458.836 308.532 l 458.836 299.782 l 459.949
 299.782 l h
459.949 304.496 m 459.949 307.551 l 462.27 307.551 l 463.332 307.551 463.965
 306.977 463.965 306.024 c 463.965 305.067 463.332 304.496 462.27 304.496
 c h
459.949 304.496 m f
471.316 299.801 m 473.77 307.117 l 473.77 299.801 l 474.82 299.801 l 474.82
 308.532 l 473.277 308.532 l 470.746 300.93 l 468.164 308.532 l 466.621 
308.532 l 466.621 299.801 l 467.672 299.801 l 467.672 307.117 l 470.148 
299.801 l h
471.316 299.801 m f
481.371 308.293 m 476.996 308.293 l 476.363 303.703 l 477.332 303.703 l
 477.824 304.285 478.227 304.492 478.887 304.492 c 480.02 304.492 480.738
 303.715 480.738 302.461 c 480.738 301.239 480.035 300.5 478.887 300.5 c
 477.965 300.5 477.402 300.965 477.152 301.922 c 476.102 301.922 l 476.242
 301.231 476.363 300.895 476.613 300.582 c 477.094 299.938 477.953 299.567
 478.91 299.567 c 480.617 299.567 481.812 300.809 481.812 302.602 c 481.812
 304.278 480.703 305.426 479.078 305.426 c 478.48 305.426 478 305.27 477.512
 304.91 c 477.844 307.254 l 481.371 307.254 l h
481.371 308.293 m f
0.74902 0.74902 0 rg
2 w
2 J
424.148 286.942 m 448.148 286.942 l S
436.148 291.942 m 431.395 288.485 l 433.211 282.895 l 439.09 282.895 l 
440.906 288.485 l h
436.148 291.942 m f
0 g
1 w
0 J
0 j
436.148 291.942 m 431.395 288.485 l 433.211 282.895 l 439.09 282.895 l 
440.906 288.485 l h
436.148 291.942 m S
459.949 286.449 m 462.688 286.449 l 463.367 286.449 463.906 286.653 464.375
 287.067 c 464.898 287.547 465.125 288.11 465.125 288.91 c 465.125 290.547
 464.156 291.469 462.438 291.469 c 458.836 291.469 l 458.836 282.715 l 459.949
 282.715 l h
459.949 287.43 m 459.949 290.485 l 462.27 290.485 l 463.332 290.485 463.965
 289.914 463.965 288.957 c 463.965 288 463.332 287.43 462.27 287.43 c h
459.949 287.43 m f
471.316 282.739 m 473.77 290.055 l 473.77 282.739 l 474.82 282.739 l 474.82
 291.469 l 473.277 291.469 l 470.746 283.864 l 468.164 291.469 l 466.621
 291.469 l 466.621 282.739 l 467.672 282.739 l 467.672 290.055 l 470.148
 282.739 l h
471.316 282.739 m f
481.637 289.059 m 481.43 290.422 480.523 291.231 479.234 291.231 c 478.301
 291.231 477.465 290.778 476.961 290.028 c 476.434 289.203 476.195 288.164
 476.195 286.629 c 476.195 285.207 476.41 284.305 476.914 283.551 c 477.367
 282.871 478.109 282.504 479.039 282.504 c 480.656 282.504 481.812 283.707
 481.812 285.383 c 481.812 286.977 480.738 288.098 479.219 288.098 c 478.383
 288.098 477.727 287.778 477.27 287.153 c 477.285 289.176 477.953 290.297
 479.16 290.297 c 479.902 290.297 480.414 289.844 480.582 289.059 c h
479.09 287.164 m 480.105 287.164 480.738 286.449 480.738 285.301 c 480.738
 284.223 480.02 283.438 479.055 283.438 c 478.074 283.438 477.332 284.262
 477.332 285.36 c 477.332 286.426 478.047 287.164 479.09 287.164 c f
Q Q
showpage
%%Trailer
end restore
%%EOF
